<?xml version="1.0" encoding="UTF-8" standalone="no"?>
<!-- Created with Inkscape (http://www.inkscape.org/) -->

<svg
   xmlns:dc="http://purl.org/dc/elements/1.1/"
   xmlns:cc="http://creativecommons.org/ns#"
   xmlns:rdf="http://www.w3.org/1999/02/22-rdf-syntax-ns#"
   xmlns:svg="http://www.w3.org/2000/svg"
   xmlns="http://www.w3.org/2000/svg"
   xmlns:sodipodi="http://sodipodi.sourceforge.net/DTD/sodipodi-0.dtd"
   xmlns:inkscape="http://www.inkscape.org/namespaces/inkscape"
   id="svg2"
   version="1.1"
   inkscape:version="0.91 r13725"
   xml:space="preserve"
   width="274.375"
   height="88.6875"
   viewBox="0 0 274.375 88.6875"
   sodipodi:docname="logo_duwind.svg"><metadata
     id="metadata8"><rdf:RDF><cc:Work
         rdf:about=""><dc:format>image/svg+xml</dc:format><dc:type
           rdf:resource="http://purl.org/dc/dcmitype/StillImage" /><dc:title></dc:title></cc:Work></rdf:RDF></metadata><defs
     id="defs6" /><sodipodi:namedview
     pagecolor="#ffffff"
     bordercolor="#666666"
     borderopacity="1"
     objecttolerance="10"
     gridtolerance="10"
     guidetolerance="10"
     inkscape:pageopacity="0"
     inkscape:pageshadow="2"
     inkscape:window-width="1440"
     inkscape:window-height="846"
     id="namedview4"
     showgrid="false"
     inkscape:zoom="4.0500601"
     inkscape:cx="53.469606"
     inkscape:cy="44.34375"
     inkscape:window-x="0"
     inkscape:window-y="0"
     inkscape:window-maximized="1"
     inkscape:current-layer="g10" /><g
     id="g10"
     inkscape:groupmode="layer"
     inkscape:label="ink_ext_XXXXXX"
     transform="matrix(1.25,0,0,-1.25,0,88.6875)"><g
       id="g12"
       transform="scale(0.1,0.1)"><path
         d="m 5,5 2185,0 0,699.469 -2185,0 L 5,5 Z"
         style="fill:none;stroke:#1b458f;stroke-width:10;stroke-linecap:butt;stroke-linejoin:miter;stroke-miterlimit:4;stroke-dasharray:none;stroke-opacity:1"
         id="path14"
         inkscape:connector-curvature="0" /><path
         d="m 1.09766,213.445 2193.07004,0 0,489.574 -2193.07004,0 0,-489.574 z"
         style="fill:#1b458f;fill-opacity:1;fill-rule:nonzero;stroke:none"
         id="path16"
         inkscape:connector-curvature="0" /><path
         d="m 89.4297,157.473 -34.0625,0 0,11.218 82.9178,0 0,-11.218 -34.23,0 0,-91.0082 -14.6253,0 0,91.0082"
         style="fill:#1b458f;fill-opacity:1;fill-rule:nonzero;stroke:none"
         id="path18"
         inkscape:connector-curvature="0" /><path
         d="m 165.203,168.691 0,-60.664 c 0,-22.7536 11.137,-32.4606 26.09,-32.4606 16.449,0 27.254,10.0078 27.254,32.4606 l 0,60.664 14.621,0 0,-59.753 c 0,-31.3989 -18.113,-44.1411 -42.371,-44.1411 -22.93,0 -40.215,11.8359 -40.215,43.6801 l 0,60.214 14.621,0"
         style="fill:#1b458f;fill-opacity:1;fill-rule:nonzero;stroke:none"
         id="path20"
         inkscape:connector-curvature="0" /><path
         d="m 307.938,76.7773 c 3.66,-0.4492 8.976,-0.6054 14.625,-0.6054 31.074,0 47.691,15.7734 47.691,43.3791 0.168,24.109 -14.789,39.433 -45.367,39.433 -7.477,0 -13.125,-0.605 -16.949,-1.367 l 0,-80.8397 z M 293.48,167.18 c 8.809,1.367 19.278,2.273 30.743,2.273 20.773,0 35.562,-4.551 45.367,-12.742 10.137,-8.344 15.953,-20.18 15.953,-36.699 0,-16.692 -5.816,-30.344 -16.117,-39.7464 -10.637,-9.5508 -27.922,-14.707 -49.692,-14.707 -10.464,0 -18.937,0.4492 -26.254,1.2109 l 0,100.4105"
         style="fill:#1b458f;fill-opacity:1;fill-rule:nonzero;stroke:none"
         id="path22"
         inkscape:connector-curvature="0" /><path
         d="m 455.332,110.305 c 0.164,8.34 -3.824,21.531 -20.273,21.531 -14.957,0 -21.27,-12.285 -22.43,-21.531 l 42.703,0 z m -42.871,-9.563 c 0.332,-18.0467 12.793,-25.4764 27.582,-25.4764 10.469,0 16.949,1.668 22.266,3.7891 l 2.664,-9.5508 c -5.153,-2.1328 -14.129,-4.707 -26.922,-4.707 -24.758,0 -39.551,15.0195 -39.551,37.1561 0,22.149 14.293,39.434 37.723,39.434 26.418,0 33.234,-20.926 33.234,-34.422 0,-2.735 -0.164,-4.707 -0.504,-6.223 l -56.492,0"
         style="fill:#1b458f;fill-opacity:1;fill-rule:nonzero;stroke:none"
         id="path24"
         inkscape:connector-curvature="0" /><path
         d="m 487.566,66.4648 14.625,0 0,107.688 -14.625,0 0,-107.688 z"
         style="fill:#1b458f;fill-opacity:1;fill-rule:nonzero;stroke:none"
         id="path26"
         inkscape:connector-curvature="0" /><path
         d="m 528.281,66.4648 0,63.2542 -11.136,0 0,10.156 11.136,0 0,3.484 c 0,10.313 2.657,19.715 9.301,25.633 5.484,4.856 12.801,6.828 19.609,6.828 5.321,0 9.641,-1.062 12.461,-2.121 l -1.992,-10.32 c -2.156,0.918 -4.984,1.672 -9.305,1.672 -12.46,0 -15.621,-9.856 -15.621,-21.231 l 0,-3.945 19.446,0 0,-10.156 -19.446,0 0,-63.2542 -14.453,0"
         style="fill:#1b458f;fill-opacity:1;fill-rule:nonzero;stroke:none"
         id="path28"
         inkscape:connector-curvature="0" /><path
         d="m 594.746,157.473 0,-17.598 20.938,0 0,-10.156 -20.938,0 0,-39.5901 c 0,-9.1016 2.82,-14.2617 10.969,-14.2617 3.98,0 6.312,0.3047 8.469,0.9101 l 0.664,-10.1562 c -2.821,-0.918 -7.309,-1.8242 -12.957,-1.8242 -6.813,0 -12.297,2.1289 -15.786,5.6133 -3.992,4.0937 -5.652,10.6171 -5.652,19.2578 l 0,40.051 -12.461,0 0,10.156 12.461,0 0,13.652 14.293,3.946"
         style="fill:#1b458f;fill-opacity:1;fill-rule:nonzero;stroke:none"
         id="path30"
         inkscape:connector-curvature="0" /><path
         d="m 680.32,66.4648 -28.418,102.2262 15.289,0 13.297,-51.718 c 3.321,-12.743 6.313,-25.4808 8.305,-35.3402 l 0.332,0 c 1.832,10.1641 5.316,22.2932 9.141,35.4842 l 14.957,51.574 15.121,0 13.625,-51.875 c 3.16,-12.128 6.152,-24.2652 7.812,-35.0308 l 0.332,0 c 2.325,11.2226 5.485,22.6018 8.973,35.3318 l 14.785,51.574 14.789,0 -31.734,-102.2262 -15.125,0 -14.121,53.2302 c -3.492,13.047 -5.817,23.059 -7.313,33.371 l -0.332,0 c -1.828,-10.156 -4.488,-20.164 -8.64,-33.371 l -15.95,-53.2302 -15.125,0"
         style="fill:#1b458f;fill-opacity:1;fill-rule:nonzero;stroke:none"
         id="path32"
         inkscape:connector-curvature="0" /><path
         d="m 799.629,66.4648 0,73.4102 14.625,0 0,-73.4102 -14.625,0 z M 815.914,160.5 c 0,-4.555 -3.488,-8.184 -9.305,-8.184 -5.316,0 -8.804,3.629 -8.804,8.184 0,4.551 3.656,8.348 9.136,8.348 5.321,0 8.973,-3.645 8.973,-8.348"
         style="fill:#1b458f;fill-opacity:1;fill-rule:nonzero;stroke:none"
         id="path34"
         inkscape:connector-curvature="0" /><path
         d="m 838.512,120.012 c 0,7.73 -0.168,13.797 -0.664,19.863 l 12.965,0 0.828,-12.133 0.332,0 c 3.988,6.828 13.293,13.645 26.586,13.645 11.132,0 28.414,-6.067 28.414,-31.239 l 0,-43.6832 -14.625,0 0,42.3162 c 0,11.832 -4.813,21.688 -18.61,21.688 -9.468,0 -16.945,-6.219 -19.605,-13.653 -0.664,-1.66 -0.996,-3.933 -0.996,-6.211 l 0,-44.1402 -14.625,0 0,53.5472"
         style="fill:#1b458f;fill-opacity:1;fill-rule:nonzero;stroke:none"
         id="path36"
         inkscape:connector-curvature="0" /><path
         d="m 985.574,109.988 c 0,1.672 -0.164,3.95 -0.668,5.617 -2.156,8.34 -10.133,15.325 -21.101,15.325 -15.117,0 -24.094,-12.141 -24.094,-28.215 0,-14.8634 8.144,-27.1486 23.762,-27.1486 9.804,0 18.777,6.0664 21.433,15.9258 0.504,1.8203 0.668,3.6367 0.668,5.7656 l 0,12.7302 z m 14.456,64.164 0,-88.7301 c 0,-6.5156 0.33,-13.9453 0.66,-18.9571 l -12.956,0 -0.664,12.7461 -0.5,0 c -4.32,-8.1953 -13.957,-14.414 -27.082,-14.414 -19.445,0 -34.566,15.0195 -34.566,37.3121 -0.164,24.414 16.617,39.278 36.058,39.278 12.461,0 20.606,-5.301 24.262,-11.067 l 0.332,0 0,43.832 14.456,0"
         style="fill:#1b458f;fill-opacity:1;fill-rule:nonzero;stroke:none"
         id="path38"
         inkscape:connector-curvature="0" /><path
         d="m 1118.01,114.395 -43.37,0 0,-36.8559 48.52,0 0,-11.0743 -63.15,0 0,102.2262 60.66,0 0,-11.074 -46.03,0 0,-32.304 43.37,0 0,-10.918"
         style="fill:#1b458f;fill-opacity:1;fill-rule:nonzero;stroke:none"
         id="path40"
         inkscape:connector-curvature="0" /><path
         d="m 1141.44,120.012 c 0,7.73 -0.17,13.797 -0.66,19.863 l 12.96,0 0.83,-12.133 0.33,0 c 3.99,6.828 13.3,13.645 26.59,13.645 11.13,0 28.42,-6.067 28.42,-31.239 l 0,-43.6832 -14.63,0 0,42.3162 c 0,11.832 -4.82,21.688 -18.61,21.688 -9.47,0 -16.95,-6.219 -19.6,-13.653 -0.67,-1.66 -1,-3.933 -1,-6.211 l 0,-44.1402 -14.63,0 0,53.5472"
         style="fill:#1b458f;fill-opacity:1;fill-rule:nonzero;stroke:none"
         id="path42"
         inkscape:connector-curvature="0" /><path
         d="m 1284.67,110.305 c 0.17,8.34 -3.82,21.531 -20.27,21.531 -14.95,0 -21.27,-12.285 -22.43,-21.531 l 42.7,0 z m -42.87,-9.563 c 0.33,-18.0467 12.79,-25.4764 27.59,-25.4764 10.46,0 16.94,1.668 22.27,3.7891 l 2.65,-9.5508 c -5.15,-2.1328 -14.12,-4.707 -26.92,-4.707 -24.76,0 -39.54,15.0195 -39.54,37.1561 0,22.149 14.28,39.434 37.71,39.434 26.43,0 33.23,-20.926 33.23,-34.422 0,-2.735 -0.16,-4.707 -0.49,-6.223 l -56.5,0"
         style="fill:#1b458f;fill-opacity:1;fill-rule:nonzero;stroke:none"
         id="path44"
         inkscape:connector-curvature="0" /><path
         d="m 1316.91,116.973 c 0,8.64 -0.17,16.074 -0.66,22.902 l 12.79,0 0.66,-14.562 0.5,0 c 3.66,9.863 12.64,16.074 22.43,16.074 1.51,0 2.67,-0.149 4,-0.301 l 0,-12.59 c -1.5,0.305 -2.99,0.305 -4.99,0.305 -10.31,0 -17.61,-6.977 -19.6,-16.985 -0.34,-1.828 -0.5,-4.089 -0.5,-6.218 l 0,-39.1332 -14.63,0 0,50.5082"
         style="fill:#1b458f;fill-opacity:1;fill-rule:nonzero;stroke:none"
         id="path46"
         inkscape:connector-curvature="0" /><path
         d="m 1424.25,110.906 c 0,2.278 -0.16,4.25 -0.83,5.91 -2.65,7.891 -9.64,14.258 -20.44,14.258 -13.95,0 -23.92,-10.761 -23.92,-27.754 0,-14.402 8.14,-26.3864 23.76,-26.3864 9.14,0 17.28,5.1562 20.27,13.6406 0.83,2.2774 1.16,4.8555 1.16,7.1289 l 0,13.2029 z m 14.63,-33.6677 c 0,-16.9961 -3.83,-27.1485 -11.46,-33.6719 -7.98,-6.5234 -19.28,-8.8008 -29.42,-8.8008 -9.64,0 -20.27,2.1211 -26.75,6.0625 l 3.66,10.3164 c 5.31,-3.1836 13.62,-5.9101 23.59,-5.9101 14.95,0 25.92,7.1289 25.92,25.7812 l 0,8.0391 -0.33,0 c -4.32,-6.8281 -13.13,-12.2852 -25.59,-12.2852 -19.94,0 -34.23,15.4688 -34.23,35.7895 0,24.882 17.78,38.828 36.39,38.828 13.95,0 21.43,-6.512 25.09,-12.586 l 0.33,0 0.5,11.074 12.97,0 c -0.5,-5.156 -0.67,-11.223 -0.67,-20.02 l 0,-42.6167"
         style="fill:#1b458f;fill-opacity:1;fill-rule:nonzero;stroke:none"
         id="path48"
         inkscape:connector-curvature="0" /><path
         d="m 1468.3,139.875 17.44,-43.3828 c 1.99,-4.8516 3.99,-10.6133 5.32,-15.0078 l 0.33,0 c 1.5,4.3945 3.16,10.0078 5.15,15.3125 l 15.96,43.0781 15.44,0 -21.93,-52.3242 c -10.47,-25.1797 -17.61,-37.9219 -27.58,-45.957 -7.31,-5.6172 -14.29,-7.8946 -17.95,-8.4961 l -3.65,11.0742 c 3.65,1.0625 8.47,3.1836 12.79,6.5234 3.99,2.8789 8.81,8.0352 12.3,14.8633 0.66,1.3672 1.16,2.4219 1.16,3.1797 0,0.7656 -0.33,1.8203 -1.16,3.4883 l -29.58,67.6484 15.96,0"
         style="fill:#1b458f;fill-opacity:1;fill-rule:nonzero;stroke:none"
         id="path50"
         inkscape:connector-curvature="0" /><path
         d="m 1576.79,66.4648 14.6328,0 0,102.227 -14.6328,0 0,-102.227 z"
         style="fill:#1b458f;fill-opacity:1;fill-rule:nonzero;stroke:none"
         id="path52"
         inkscape:connector-curvature="0" /><path
         d="m 1617.67,120.012 c 0,7.73 -0.17,13.797 -0.66,19.863 l 12.96,0 0.83,-12.133 0.33,0 c 3.99,6.828 13.3,13.645 26.59,13.645 11.13,0 28.42,-6.067 28.42,-31.239 l 0,-43.6832 -14.63,0 0,42.3162 c 0,11.832 -4.82,21.688 -18.61,21.688 -9.47,0 -16.95,-6.219 -19.6,-13.653 -0.67,-1.66 -1,-3.933 -1,-6.211 l 0,-44.1402 -14.63,0 0,53.5472"
         style="fill:#1b458f;fill-opacity:1;fill-rule:nonzero;stroke:none"
         id="path54"
         inkscape:connector-curvature="0" /><path
         d="m 1707.91,79.9609 c 4.48,-2.4218 12.12,-5.1562 19.44,-5.1562 10.47,0 15.45,4.707 15.45,10.918 0,6.3789 -4.15,9.707 -14.79,13.3476 -14.63,4.8557 -21.43,11.9847 -21.43,20.7847 0,11.825 10.63,21.532 27.74,21.532 8.15,0 15.29,-1.961 19.61,-4.539 l -3.49,-9.707 c -3.15,1.812 -8.97,4.39 -16.45,4.39 -8.63,0 -13.29,-4.547 -13.29,-10.008 0,-6.062 4.66,-8.796 15.13,-12.585 13.78,-4.708 21.1,-11.0747 21.1,-21.9927 0,-13.0469 -11.13,-22.1484 -29.91,-22.1484 -8.81,0 -16.96,2.1289 -22.6,5.1523 l 3.49,10.0117"
         style="fill:#1b458f;fill-opacity:1;fill-rule:nonzero;stroke:none"
         id="path56"
         inkscape:connector-curvature="0" /><path
         d="m 1793.32,157.473 0,-17.598 20.93,0 0,-10.156 -20.93,0 0,-39.5901 c 0,-9.1016 2.82,-14.2617 10.96,-14.2617 3.99,0 6.31,0.3047 8.48,0.9101 l 0.66,-10.1562 c -2.83,-0.918 -7.31,-1.8242 -12.97,-1.8242 -6.8,0 -12.29,2.1289 -15.78,5.6133 -3.98,4.0937 -5.65,10.6171 -5.65,19.2578 l 0,40.051 -12.46,0 0,10.156 12.46,0 0,13.652 14.3,3.946"
         style="fill:#1b458f;fill-opacity:1;fill-rule:nonzero;stroke:none"
         id="path58"
         inkscape:connector-curvature="0" /><path
         d="m 1830.7,66.4648 0,73.4102 14.63,0 0,-73.4102 -14.63,0 z m 16.29,94.0352 c 0,-4.555 -3.5,-8.184 -9.31,-8.184 -5.32,0 -8.81,3.629 -8.81,8.184 0,4.551 3.65,8.348 9.14,8.348 5.32,0 8.98,-3.645 8.98,-8.348"
         style="fill:#1b458f;fill-opacity:1;fill-rule:nonzero;stroke:none"
         id="path60"
         inkscape:connector-curvature="0" /><path
         d="m 1887.2,157.473 0,-17.598 20.94,0 0,-10.156 -20.94,0 0,-39.5901 c 0,-9.1016 2.82,-14.2617 10.97,-14.2617 3.98,0 6.31,0.3047 8.48,0.9101 l 0.66,-10.1562 c -2.83,-0.918 -7.31,-1.8242 -12.97,-1.8242 -6.81,0 -12.29,2.1289 -15.78,5.6133 -3.98,4.0937 -5.65,10.6171 -5.65,19.2578 l 0,40.051 -12.47,0 0,10.156 12.47,0 0,13.652 14.29,3.946"
         style="fill:#1b458f;fill-opacity:1;fill-rule:nonzero;stroke:none"
         id="path62"
         inkscape:connector-curvature="0" /><path
         d="m 1991.88,86.6406 c 0,-7.7343 0.17,-14.414 0.67,-20.1758 l -12.97,0 -0.83,11.9805 -0.33,0 c -3.65,-5.914 -12.29,-13.6484 -26.58,-13.6484 -12.63,0 -27.75,6.5234 -27.75,32.1562 l 0,42.9219 14.62,0 0,-40.5 c 0,-13.9531 4.82,-23.5078 17.95,-23.5078 9.8,0 16.62,6.2226 19.27,12.2891 0.83,1.8164 1.33,4.246 1.33,6.8242 l 0,44.8945 14.62,0 0,-53.2344"
         style="fill:#1b458f;fill-opacity:1;fill-rule:nonzero;stroke:none"
         id="path64"
         inkscape:connector-curvature="0" /><path
         d="m 2033.76,157.473 0,-17.598 20.94,0 0,-10.156 -20.94,0 0,-39.5901 c 0,-9.1016 2.83,-14.2617 10.97,-14.2617 3.99,0 6.31,0.3047 8.48,0.9101 l 0.66,-10.1562 c -2.83,-0.918 -7.31,-1.8242 -12.97,-1.8242 -6.8,0 -12.29,2.1289 -15.78,5.6133 -3.98,4.0937 -5.65,10.6171 -5.65,19.2578 l 0,40.051 -12.46,0 0,10.156 12.46,0 0,13.652 14.29,3.946"
         style="fill:#1b458f;fill-opacity:1;fill-rule:nonzero;stroke:none"
         id="path66"
         inkscape:connector-curvature="0" /><path
         d="m 2121.17,110.305 c 0.16,8.34 -3.82,21.531 -20.28,21.531 -14.95,0 -21.27,-12.285 -22.43,-21.531 l 42.71,0 z m -42.87,-9.563 c 0.33,-18.0467 12.79,-25.4764 27.57,-25.4764 10.47,0 16.96,1.668 22.28,3.7891 l 2.66,-9.5508 c -5.16,-2.1328 -14.13,-4.707 -26.93,-4.707 -24.75,0 -39.54,15.0195 -39.54,37.1561 0,22.149 14.29,39.434 37.72,39.434 26.42,0 33.23,-20.926 33.23,-34.422 0,-2.735 -0.17,-4.707 -0.5,-6.223 l -56.49,0"
         style="fill:#1b458f;fill-opacity:1;fill-rule:nonzero;stroke:none"
         id="path68"
         inkscape:connector-curvature="0" /><path
         d="m 151.656,324.246 56.61,0 c 18.195,0.395 35.023,4.047 49.543,10.863 14.3,6.543 27.265,16.914 38.73,30.918 19.938,25.157 28.926,53.125 28.926,90.411 0,87.167 -45.371,133.242 -131.207,133.242 l -42.602,0 0,-265.434 z m 47.602,-56.558 -113.6721,0 c -12.4257,0 -22.5,10.078 -22.5,22.5 l 0,11.558 c 0,12.426 10.0743,22.5 22.5,22.5 l 8.0625,0 0,265.434 -8.0625,0 c -12.4257,0 -22.5,10.078 -22.5,22.504 l 0,11.519 c 0,12.426 10.0743,22.5 22.5,22.5 l 103.6481,0 c 35,0 46.743,-1.223 69.813,-7.254 25.098,-6.582 47.383,-18.328 66.242,-34.918 38.504,-35 58.715,-85.769 58.715,-147.086 0,-79.093 -37.016,-143.789 -99.02,-173.066 -25.574,-11.965 -47.988,-16.191 -85.726,-16.191"
         style="fill:#ffffff;fill-opacity:1;fill-rule:nonzero;stroke:none"
         id="path70"
         inkscape:connector-curvature="0" /><path
         d="m 598.367,259.68 c -57,0 -111.605,37.254 -127.012,86.66 -4.949,16.785 -7.308,38.105 -7.308,65.508 l 0,211.054 c 0,12.426 10.074,22.5 22.5,22.5 l 14.18,0 c 12.425,0 22.5,-10.074 22.5,-22.5 l 0,-209.472 c 0,-43.215 5.683,-57.512 16.878,-70.117 14.192,-16.583 36.95,-27.09 58.262,-27.09 31.774,0 62.86,21.66 70.77,49.312 3.383,12.285 4.379,23.078 4.379,47.895 l 0,209.472 c 0,12.426 10.074,22.5 22.5,22.5 l 14.711,0 c 12.425,0 22.5,-10.074 22.5,-22.5 l 0,-210.531 c -0.516,-46.25 -5.551,-76.715 -30.61,-105.984 -25.371,-29.676 -63.375,-46.707 -104.25,-46.707"
         style="fill:#ffffff;fill-opacity:1;fill-rule:nonzero;stroke:none"
         id="path72"
         inkscape:connector-curvature="0" /><path
         d="m 1730.44,258.645 -14.18,0 c -12.42,0 -22.5,10.078 -22.5,22.5 l 0,209.468 c 0,43.207 -5.68,57.512 -16.89,70.11 -14.18,16.593 -36.93,27.097 -58.24,27.097 -31.78,0 -62.87,-21.66 -70.76,-49.304 -3.4,-12.254 -4.4,-23.036 -4.4,-47.903 l 0,-209.468 c 0,-12.422 -10.08,-22.5 -22.5,-22.5 l -14.71,0 c -12.42,0 -22.5,10.078 -22.5,22.5 l 0,210.527 c 0.53,46.25 5.55,76.719 30.61,105.976 25.37,29.68 63.38,46.711 104.26,46.711 57.01,0 111.6,-37.254 127.01,-86.664 4.96,-16.789 7.3,-38.093 7.3,-65.5 l 0,-211.05 c 0,-12.422 -10.07,-22.5 -22.5,-22.5"
         style="fill:#ffffff;fill-opacity:1;fill-rule:nonzero;stroke:none"
         id="path74"
         inkscape:connector-curvature="0" /><path
         d="m 1258.86,635.922 c -4.22,5.945 -11.05,9.48 -18.34,9.48 l -15.76,0 c -9.59,0 -18.12,-6.074 -21.27,-15.132 l -86.52,-249.711 -56.86,132.058 c -3.86,8.953 -12.99,14.348 -22.75,13.508 -0.31,0.02 -0.61,0.098 -0.92,0.098 l -9.59,0 c -8.98,0 -17.13,-5.356 -20.66,-13.606 L 949.336,380.559 862.793,630.27 c -3.141,9.058 -11.676,15.132 -21.262,15.132 l -15.754,0 c -7.293,0 -14.132,-3.535 -18.351,-9.48 -4.219,-5.945 -5.297,-13.567 -2.883,-20.453 L 922.656,277.891 c 3.164,-9.024 11.68,-15.071 21.239,-15.071 l 8.949,0 c 9.043,0 17.207,5.414 20.73,13.743 l 59.566,141.015 59.61,-141.015 c 3.51,-8.329 11.68,-13.743 20.72,-13.743 l 8.93,0 c 9.55,0 18.06,6.047 21.23,15.071 l 118.12,337.578 c 2.41,6.886 1.33,14.508 -2.89,20.453"
         style="fill:#ffffff;fill-opacity:1;fill-rule:nonzero;stroke:none"
         id="path76"
         inkscape:connector-curvature="0" /><path
         d="m 1911.54,324.246 56.6,0 c 18.2,0.395 35.06,4.047 49.57,10.863 14.28,6.543 27.25,16.914 38.69,30.907 19.96,25.175 28.97,53.144 28.97,90.422 0,87.167 -45.37,133.242 -131.23,133.242 l -42.6,0 0,-265.434 z m 47.6,-56.558 -113.66,0 c -12.42,0 -22.5,10.078 -22.5,22.5 l 0,11.558 c 0,12.426 10.08,22.5 22.5,22.5 l 8.05,0 0,265.434 -8.05,0 c -12.42,0 -22.5,10.078 -22.5,22.504 l 0,11.519 c 0,12.426 10.08,22.5 22.5,22.5 l 103.64,0 c 35,0 46.73,-1.223 69.82,-7.254 25.1,-6.574 47.38,-18.324 66.25,-34.918 38.48,-34.976 58.67,-85.75 58.67,-147.086 0,-79.101 -37.01,-143.8 -99.02,-173.078 -25.57,-11.953 -47.97,-16.179 -85.7,-16.179"
         style="fill:#ffffff;fill-opacity:1;fill-rule:nonzero;stroke:none"
         id="path78"
         inkscape:connector-curvature="0" /><path
         d="m 1379.37,254.629 -14.71,0 c -5.95,0 -11.7,2.375 -15.91,6.594 -4.22,4.226 -6.59,9.949 -6.59,15.925 l 0.28,348.864 c 0,5.976 2.38,11.703 6.62,15.922 4.22,4.203 9.92,6.562 15.88,6.562 0.02,0 0.04,0 0.06,0 l 14.43,-0.039 c 12.4,-0.035 22.44,-10.098 22.44,-22.5 l 0,-348.828 c 0,-12.422 -10.08,-22.5 -22.5,-22.5"
         style="fill:#ffffff;fill-opacity:1;fill-rule:nonzero;stroke:none"
         id="path80"
         inkscape:connector-curvature="0" /></g></g></svg>