<?xml version="1.0" encoding="UTF-8" standalone="no"?>
<!-- Created with Inkscape (http://www.inkscape.org/) -->

<svg
   xmlns:dc="http://purl.org/dc/elements/1.1/"
   xmlns:cc="http://creativecommons.org/ns#"
   xmlns:rdf="http://www.w3.org/1999/02/22-rdf-syntax-ns#"
   xmlns:svg="http://www.w3.org/2000/svg"
   xmlns="http://www.w3.org/2000/svg"
   xmlns:sodipodi="http://sodipodi.sourceforge.net/DTD/sodipodi-0.dtd"
   xmlns:inkscape="http://www.inkscape.org/namespaces/inkscape"
   width="230mm"
   height="110mm"
   id="svg3979"
   version="1.1"
   inkscape:version="0.91 r13725"
   sodipodi:docname="logo_awec2015.svg">
  <defs
     id="defs3981" />
  <sodipodi:namedview
     id="base"
     pagecolor="#ffffff"
     bordercolor="#666666"
     borderopacity="1.0"
     inkscape:pageopacity="0.0"
     inkscape:pageshadow="2"
     inkscape:zoom="4.9049464"
     inkscape:cx="252.13546"
     inkscape:cy="145.63424"
     inkscape:document-units="mm"
     inkscape:current-layer="layer4"
     showgrid="false"
     fit-margin-top="0"
     fit-margin-left="0"
     fit-margin-right="0"
     fit-margin-bottom="0"
     inkscape:window-width="1440"
     inkscape:window-height="846"
     inkscape:window-x="0"
     inkscape:window-y="0"
     inkscape:window-maximized="1"
     showguides="true"
     inkscape:guide-bbox="true"
     units="mm">
    <sodipodi:guide
       position="0.038385408,275.07077"
       orientation="1,0"
       id="guide4144"
       inkscape:label=""
       inkscape:color="rgb(0,0,255)" />
    <sodipodi:guide
       position="478.96552,273.63372"
       orientation="0,1"
       id="guide4146"
       inkscape:label=""
       inkscape:color="rgb(0,0,255)" />
    <sodipodi:guide
       position="467.75493,498.60444"
       orientation="1,0"
       id="guide4148"
       inkscape:label=""
       inkscape:color="rgb(0,0,255)" />
    <sodipodi:guide
       position="235.93979,395.24192"
       orientation="1,0"
       id="guide4213" />
    <sodipodi:guide
       position="-0.044893895,179.735"
       orientation="0,1"
       id="guide4280"
       inkscape:label=""
       inkscape:color="rgb(0,0,255)" />
    <sodipodi:guide
       position="503.188,80.919246"
       orientation="1,0"
       id="guide3370"
       inkscape:label=""
       inkscape:color="rgb(0,0,255)" />
    <sodipodi:guide
       position="225.63399,149.39903"
       orientation="0,1"
       id="guide3486" />
  </sodipodi:namedview>
  <metadata
     id="metadata3984">
    <rdf:RDF>
      <cc:Work
         rdf:about="">
        <dc:format>image/svg+xml</dc:format>
        <dc:type
           rdf:resource="http://purl.org/dc/dcmitype/StillImage" />
        <dc:title></dc:title>
      </cc:Work>
    </rdf:RDF>
  </metadata>
  <g
     inkscape:label="Logo"
     inkscape:groupmode="layer"
     id="layer1"
     transform="translate(-126.23277,-375.25515)"
     style="display:inline">
    <g
       id="g4150"
       transform="matrix(1.0137498,0,0,1.0137498,-1.6901704,-4.7442872)">
      <text
         xml:space="preserve"
         style="font-style:normal;font-variant:normal;font-weight:bold;font-stretch:normal;font-size:82px;line-height:125%;font-family:Arial;-inkscape-font-specification:'Arial Bold';text-align:end;letter-spacing:0px;word-spacing:0px;writing-mode:lr-tb;text-anchor:end;fill:#00a6d7;fill-opacity:1;stroke:none"
         x="502.45663"
         y="433.4505"
         id="text3049"
         sodipodi:linespacing="125%"><tspan
           sodipodi:role="line"
           id="tspan3051"
           x="502.45663"
           y="433.4505"
           style="font-style:normal;font-variant:normal;font-weight:900;font-stretch:normal;font-size:80px;line-height:125%;font-family:'Source Sans Pro';-inkscape-font-specification:'Source Sans Pro Heavy';text-align:end;writing-mode:lr-tb;text-anchor:end;fill:#00a6d7;fill-opacity:1">AIRBORNE</tspan></text>
      <text
         transform="scale(1.0804774,0.92551682)"
         xml:space="preserve"
         style="font-style:normal;font-variant:normal;font-weight:bold;font-stretch:normal;font-size:88.59913635px;line-height:125%;font-family:Arial;-inkscape-font-specification:'Arial Bold';text-align:end;letter-spacing:0.69005799px;word-spacing:0px;writing-mode:lr-tb;text-anchor:end;fill:#00a6d7;fill-opacity:1;stroke:none"
         x="328.13715"
         y="529.32166"
         id="text3049-4"
         sodipodi:linespacing="125%"><tspan
           dx="0"
           sodipodi:role="line"
           id="tspan3051-2"
           x="328.13715"
           y="529.32166"
           style="font-style:normal;font-variant:normal;font-weight:900;font-stretch:normal;font-size:86.43818665px;line-height:125%;font-family:'Source Sans Pro';-inkscape-font-specification:'Source Sans Pro Heavy';text-align:end;letter-spacing:0px;word-spacing:0px;writing-mode:lr-tb;text-anchor:end;fill:#00a6d7;fill-opacity:1">WIND</tspan></text>
      <text
         transform="scale(1.0157388,0.98450507)"
         xml:space="preserve"
         style="font-style:normal;font-variant:normal;font-weight:bold;font-stretch:normal;font-size:83.29057312px;line-height:125%;font-family:Arial;-inkscape-font-specification:'Arial Bold';text-align:end;letter-spacing:0px;word-spacing:0px;writing-mode:lr-tb;text-anchor:end;fill:#66808e;fill-opacity:1;stroke:none"
         x="489.854"
         y="470.2337"
         id="text3049-4-7"
         sodipodi:linespacing="125%"><tspan
           sodipodi:role="line"
           id="tspan3051-2-4"
           x="489.854"
           y="470.2337"
           style="font-style:normal;font-variant:normal;font-weight:900;font-stretch:normal;font-size:38.59807587px;line-height:125%;font-family:'Source Sans Pro';-inkscape-font-specification:'Source Sans Pro Heavy';text-align:end;writing-mode:lr-tb;text-anchor:end;fill:#66808e;fill-opacity:1">ENERGY</tspan></text>
      <text
         transform="scale(1.0142558,0.98594459)"
         xml:space="preserve"
         style="font-style:normal;font-variant:normal;font-weight:bold;font-stretch:normal;font-size:83.1689682px;line-height:125%;font-family:Arial;-inkscape-font-specification:'Arial Bold';text-align:end;letter-spacing:0px;word-spacing:0px;writing-mode:lr-tb;text-anchor:end;fill:#66808e;fill-opacity:1;stroke:none"
         x="581.93781"
         y="496.47028"
         id="text3049-4-7-1"
         sodipodi:linespacing="125%"><tspan
           sodipodi:role="line"
           id="tspan3051-2-4-3"
           x="581.93781"
           y="496.47028"
           style="font-style:normal;font-variant:normal;font-weight:900;font-stretch:normal;font-size:38.54172134px;line-height:125%;font-family:'Source Sans Pro';-inkscape-font-specification:'Source Sans Pro Heavy';text-align:end;writing-mode:lr-tb;text-anchor:end;fill:#66808e;fill-opacity:1">CONFERENCE</tspan></text>
      <rect
         y="381.43301"
         x="506.37799"
         height="81.485184"
         width="81.190559"
         id="rect3159"
         style="fill:#00a6d7;fill-opacity:1;stroke:none" />
      <text
         transform="scale(1.0157388,0.98450507)"
         xml:space="preserve"
         style="font-style:normal;font-variant:normal;font-weight:bold;font-stretch:normal;font-size:83.29057312px;line-height:125%;font-family:Arial;-inkscape-font-specification:'Arial Bold';text-align:end;letter-spacing:0px;word-spacing:0px;writing-mode:lr-tb;text-anchor:end;fill:#00a6d7;fill-opacity:1;stroke:none"
         x="580.33606"
         y="470.23901"
         id="text3049-4-7-4"
         sodipodi:linespacing="125%"><tspan
           sodipodi:role="line"
           id="tspan3051-2-4-4"
           x="580.33606"
           y="470.23901"
           style="font-style:normal;font-variant:normal;font-weight:900;font-stretch:normal;font-size:38.59807587px;line-height:125%;font-family:'Source Sans Pro';-inkscape-font-specification:'Source Sans Pro Heavy';text-align:end;writing-mode:lr-tb;text-anchor:end;fill:#ffffff;fill-opacity:1">2015</tspan></text>
    </g>
  </g>
  <g
     inkscape:groupmode="layer"
     id="layer3"
     inkscape:label="Book of Abstracts"
     transform="translate(-0.0448939,4.8505072)"
     style="display:none">
    <text
       transform="scale(1.0142558,0.98594458)"
       xml:space="preserve"
       style="font-style:normal;font-variant:normal;font-weight:900;font-stretch:normal;font-size:39.07106781px;line-height:125%;font-family:'Source Sans Pro';-inkscape-font-specification:'Source Sans Pro, Heavy';text-align:start;letter-spacing:0px;word-spacing:0px;writing-mode:lr-tb;text-anchor:start;fill:#66808e;fill-opacity:1;stroke:none"
       x="493.32037"
       y="112.86447"
       id="text3049-4-7-1-2"
       sodipodi:linespacing="125%"><tspan
         sodipodi:role="line"
         id="tspan3051-2-4-3-1"
         x="493.32037"
         y="112.86447"
         style="font-style:normal;font-variant:normal;font-weight:900;font-stretch:normal;font-size:39.07106781px;line-height:125%;font-family:'Source Sans Pro';-inkscape-font-specification:'Source Sans Pro, Heavy';text-align:start;writing-mode:lr-tb;text-anchor:start;fill:#66808e;fill-opacity:1">Book of Abstracts</tspan></text>
  </g>
  <g
     inkscape:groupmode="layer"
     id="layer4"
     inkscape:label="Address"
     style="display:inline"
     transform="translate(-0.0448939,4.8505072)">
    <g
       id="g4282-0"
       transform="matrix(0.9443611,0,0,0.9443611,13.567479,52.937886)">
      <text
         sodipodi:linespacing="100%"
         id="text4216-8"
         y="210.61377"
         x="232.88235"
         style="font-style:normal;font-variant:normal;font-weight:normal;font-stretch:normal;font-size:16.30797195px;line-height:100%;font-family:Arial;-inkscape-font-specification:'Arial, Normal';text-align:start;letter-spacing:-0.53056991px;word-spacing:0px;writing-mode:lr-tb;text-anchor:start;fill:#00a6d7;fill-opacity:1;stroke:none;stroke-width:1px;stroke-linecap:butt;stroke-linejoin:miter;stroke-opacity:1"
         xml:space="preserve"><tspan
           style="font-style:normal;font-variant:normal;font-weight:normal;font-stretch:normal;font-size:33.9750061px;line-height:100%;font-family:'Source Sans Pro';-inkscape-font-specification:'Source Sans Pro';text-align:start;letter-spacing:1.01654923px;word-spacing:0px;writing-mode:lr-tb;text-anchor:start;fill:#00a6d7;fill-opacity:1"
           y="210.61377"
           x="232.88235"
           id="tspan4218-1"
           sodipodi:role="line">15-16 JUNE 2015</tspan><tspan
           id="tspan4230-8"
           style="font-style:normal;font-variant:normal;font-weight:normal;font-stretch:normal;font-size:33.9750061px;line-height:100%;font-family:'Source Sans Pro';-inkscape-font-specification:'Source Sans Pro, Normal';text-align:start;letter-spacing:-1.01654923px;word-spacing:0px;writing-mode:lr-tb;text-anchor:start;fill:#00a6d7;fill-opacity:1"
           y="244.58878"
           x="232.88235"
           sodipodi:role="line">DELFT UNIVERSITY</tspan><tspan
           id="tspan4232-7"
           style="font-style:normal;font-variant:normal;font-weight:normal;font-stretch:normal;font-size:33.9750061px;line-height:100%;font-family:'Source Sans Pro';-inkscape-font-specification:'Source Sans Pro, Normal';text-align:start;letter-spacing:0.55910206px;word-spacing:0px;writing-mode:lr-tb;text-anchor:start;fill:#00a6d7;fill-opacity:1"
           y="278.56378"
           x="232.88235"
           sodipodi:role="line">OF TECHNOLOGY</tspan><tspan
           id="tspan4238-7"
           style="font-style:normal;font-variant:normal;font-weight:normal;font-stretch:normal;font-size:33.9750061px;line-height:100%;font-family:'Source Sans Pro';-inkscape-font-specification:'Source Sans Pro, Normal';text-align:start;letter-spacing:-1.82995009px;word-spacing:-2.41122818px;writing-mode:lr-tb;text-anchor:start;fill:#00a6d7;fill-opacity:1"
           y="312.53879"
           x="232.88235"
           sodipodi:role="line">THE NETHERLANDS</tspan><tspan
           style="font-style:normal;font-variant:normal;font-weight:normal;font-stretch:normal;font-size:33.9750061px;line-height:100%;font-family:'Source Sans Pro';-inkscape-font-specification:'Source Sans Pro, Normal';text-align:start;letter-spacing:-1.82995009px;word-spacing:-2.41122818px;writing-mode:lr-tb;text-anchor:start;fill:#00a6d7;fill-opacity:1"
           y="346.51379"
           x="232.88235"
           sodipodi:role="line"
           id="tspan8265" /></text>
      <text
         sodipodi:linespacing="100%"
         id="text4216-2-1"
         y="346.50027"
         x="232.8932"
         style="font-style:normal;font-variant:normal;font-weight:normal;font-stretch:normal;font-size:16.65104485px;line-height:100%;font-family:Arial;-inkscape-font-specification:'Arial, Normal';text-align:start;letter-spacing:-0.54173154px;word-spacing:0px;writing-mode:lr-tb;text-anchor:start;fill:#66808e;fill-opacity:1;stroke:none;stroke-width:1px;stroke-linecap:butt;stroke-linejoin:miter;stroke-opacity:1"
         xml:space="preserve"><tspan
           id="tspan4238-0-9"
           style="font-style:normal;font-variant:normal;font-weight:normal;font-stretch:normal;font-size:33.9750061px;font-family:'Source Sans Pro';-inkscape-font-specification:'Source Sans Pro';letter-spacing:-0.96879709px;word-spacing:0px;fill:#66808e;fill-opacity:1"
           y="346.50027"
           x="232.8932"
           sodipodi:role="line">www.awec2015.eu</tspan></text>
      <text
         xml:space="preserve"
         style="font-style:normal;font-variant:normal;font-weight:normal;font-stretch:normal;font-size:15px;line-height:100%;font-family:Arial;-inkscape-font-specification:'Arial, Normal';text-align:start;letter-spacing:0px;word-spacing:0px;writing-mode:lr-tb;text-anchor:start;fill:#000000;fill-opacity:1;stroke:none;stroke-width:1px;stroke-linecap:butt;stroke-linejoin:miter;stroke-opacity:1"
         x="486.5441"
         y="294.44226"
         id="text8259"
         sodipodi:linespacing="100%"><tspan
           sodipodi:role="line"
           id="tspan8261"
           x="486.5441"
           y="294.44226" /></text>
      <text
         xml:space="preserve"
         style="font-style:normal;font-variant:normal;font-weight:normal;font-stretch:normal;font-size:15.88375473px;line-height:100%;font-family:Arial;-inkscape-font-specification:'Arial, Normal';text-align:start;letter-spacing:0px;word-spacing:0px;writing-mode:lr-tb;text-anchor:start;fill:#000000;fill-opacity:1;stroke:none;stroke-width:1px;stroke-linecap:butt;stroke-linejoin:miter;stroke-opacity:1"
         x="215.6868"
         y="357.43744"
         id="text8267"
         sodipodi:linespacing="100%"><tspan
           sodipodi:role="line"
           id="tspan8269"
           x="215.6868"
           y="357.43744" /></text>
      <text
         xml:space="preserve"
         style="font-style:normal;font-variant:normal;font-weight:normal;font-stretch:normal;font-size:15.88375473px;line-height:100%;font-family:Arial;-inkscape-font-specification:'Arial, Normal';text-align:start;letter-spacing:0px;word-spacing:0px;writing-mode:lr-tb;text-anchor:start;fill:#000000;fill-opacity:1;stroke:none;stroke-width:1px;stroke-linecap:butt;stroke-linejoin:miter;stroke-opacity:1"
         x="511.60977"
         y="328.8858"
         id="text8271"
         sodipodi:linespacing="100%"><tspan
           sodipodi:role="line"
           id="tspan8273"
           x="511.60977"
           y="328.8858" /></text>
    </g>
  </g>
</svg>
