<?xml version="1.0" encoding="UTF-8" standalone="no"?>
<!-- Created with Inkscape (http://www.inkscape.org/) -->

<svg
   xmlns:dc="http://purl.org/dc/elements/1.1/"
   xmlns:cc="http://creativecommons.org/ns#"
   xmlns:rdf="http://www.w3.org/1999/02/22-rdf-syntax-ns#"
   xmlns:svg="http://www.w3.org/2000/svg"
   xmlns="http://www.w3.org/2000/svg"
   xmlns:sodipodi="http://sodipodi.sourceforge.net/DTD/sodipodi-0.dtd"
   xmlns:inkscape="http://www.inkscape.org/namespaces/inkscape"
   width="210mm"
   height="50mm"
   id="svg3979"
   version="1.1"
   inkscape:version="0.91 r13725"
   sodipodi:docname="header_awec2015.svg">
  <defs
     id="defs3981" />
  <sodipodi:namedview
     id="base"
     pagecolor="#ffffff"
     bordercolor="#666666"
     borderopacity="1.0"
     inkscape:pageopacity="0.0"
     inkscape:pageshadow="2"
     inkscape:zoom="1.3556419"
     inkscape:cx="445.597"
     inkscape:cy="68.861351"
     inkscape:document-units="mm"
     inkscape:current-layer="text3049-4-7-1"
     showgrid="false"
     fit-margin-top="0"
     fit-margin-left="0"
     fit-margin-right="0"
     fit-margin-bottom="0"
     inkscape:window-width="1440"
     inkscape:window-height="846"
     inkscape:window-x="0"
     inkscape:window-y="0"
     inkscape:window-maximized="1"
     showguides="true"
     inkscape:guide-bbox="true"
     units="mm">
    <sodipodi:guide
       position="0,0"
       orientation="1,0"
       id="guide4144"
       inkscape:label=""
       inkscape:color="rgb(0,0,255)" />
    <sodipodi:guide
       position="28.346457,0"
       orientation="1,0"
       id="guide4272"
       inkscape:label=""
       inkscape:color="rgb(0,0,255)" />
    <sodipodi:guide
       position="744.09449,0"
       orientation="1,0"
       id="guide4274"
       inkscape:label=""
       inkscape:color="rgb(0,0,255)" />
    <sodipodi:guide
       position="715.74803,0"
       orientation="1,0"
       id="guide4276"
       inkscape:label=""
       inkscape:color="rgb(0,0,255)" />
    <sodipodi:guide
       position="0,148.8189"
       orientation="0,1"
       id="guide4278"
       inkscape:label=""
       inkscape:color="rgb(0,0,255)" />
    <sodipodi:guide
       position="0,177.16535"
       orientation="0,1"
       id="guide4280"
       inkscape:label=""
       inkscape:color="rgb(0,0,255)" />
    <sodipodi:guide
       position="381.95313,68.254548"
       orientation="0,1"
       id="guide4282"
       inkscape:label=""
       inkscape:color="rgb(0,0,255)" />
    <sodipodi:guide
       position="372.04724,228.07669"
       orientation="1,0"
       id="guide4284"
       inkscape:label=""
       inkscape:color="rgb(0,0,255)" />
    <sodipodi:guide
       position="372.04724,86.742014"
       orientation="0,1"
       id="guide4328" />
  </sodipodi:namedview>
  <metadata
     id="metadata3984">
    <rdf:RDF>
      <cc:Work
         rdf:about="">
        <dc:format>image/svg+xml</dc:format>
        <dc:type
           rdf:resource="http://purl.org/dc/dcmitype/StillImage" />
        <dc:title></dc:title>
      </cc:Work>
    </rdf:RDF>
  </metadata>
  <g
     inkscape:label="Logo"
     inkscape:groupmode="layer"
     id="layer1"
     transform="translate(-126.23277,-687.85357)"
     style="display:inline">
    <g
       id="g4150"
       transform="matrix(0.74493815,0,0,0.74493815,60.682553,432.10113)">
      <g
         style="font-style:normal;font-variant:normal;font-weight:bold;font-stretch:normal;font-size:82px;line-height:125%;font-family:Arial;-inkscape-font-specification:'Arial Bold';text-align:end;letter-spacing:0px;word-spacing:0px;writing-mode:lr-tb;text-anchor:end;fill:#00a6d7;fill-opacity:1;stroke:none"
         id="text3049">
        <path
           d="m 145.30788,411.7705 0.88,-3.6 c 1.28,-4.96 2.56,-11.2 3.68,-16.48 l 0.32,0 c 1.28,5.2 2.56,11.52 3.84,16.48 l 0.88,3.6 -9.6,0 z m 14.64,21.68 14.56,0 -15.84,-52 -16.64,0 -15.84,52 14.08,0 2.56,-11.04 14.56,0 2.56,11.04 z"
           style="font-style:normal;font-variant:normal;font-weight:900;font-stretch:normal;font-size:80px;line-height:125%;font-family:'Source Sans Pro';-inkscape-font-specification:'Source Sans Pro Heavy';text-align:end;writing-mode:lr-tb;text-anchor:end;fill:#00a6d7;fill-opacity:1"
           id="path4346"
           inkscape:connector-curvature="0" />
        <path
           d="m 179.46663,433.4505 13.76,0 0,-52 -13.76,0 0,52 z"
           style="font-style:normal;font-variant:normal;font-weight:900;font-stretch:normal;font-size:80px;line-height:125%;font-family:'Source Sans Pro';-inkscape-font-specification:'Source Sans Pro Heavy';text-align:end;writing-mode:lr-tb;text-anchor:end;fill:#00a6d7;fill-opacity:1"
           id="path4348"
           inkscape:connector-curvature="0" />
        <path
           d="m 218.53913,392.3305 4.96,0 c 5.44,0 8.32,1.44 8.32,5.92 0,4.48 -2.88,6.88 -8.32,6.88 l -4.96,0 0,-12.8 z m 29.6,41.12 -11.28,-20.16 c 5.04,-2.72 8.4,-7.6 8.4,-15.04 0,-12.96 -9.6,-16.8 -20.8,-16.8 l -19.68,0 0,52 13.76,0 0,-17.44 5.28,0 8.96,17.44 15.36,0 z"
           style="font-style:normal;font-variant:normal;font-weight:900;font-stretch:normal;font-size:80px;line-height:125%;font-family:'Source Sans Pro';-inkscape-font-specification:'Source Sans Pro Heavy';text-align:end;writing-mode:lr-tb;text-anchor:end;fill:#00a6d7;fill-opacity:1"
           id="path4350"
           inkscape:connector-curvature="0" />
        <path
           d="m 255.24788,433.4505 20.32,0 c 11.2,0 20.48,-4.64 20.48,-15.36 0,-6.88 -3.68,-10.72 -11.04,-12.16 l 0,-0.32 c 6.08,-1.6 8.64,-6.72 8.64,-11.2 0,-10.24 -8.8,-12.96 -19.68,-12.96 l -18.72,0 0,52 z m 13.76,-31.52 0,-9.92 4.64,0 c 4.48,0 6.56,1.28 6.56,4.48 0,3.2 -2.08,5.44 -6.56,5.44 l -4.64,0 z m 0,20.96 0,-11.36 5.6,0 c 5.44,0 8,1.6 8,5.44 0,3.84 -2.56,5.92 -8,5.92 l -5.6,0 z"
           style="font-style:normal;font-variant:normal;font-weight:900;font-stretch:normal;font-size:80px;line-height:125%;font-family:'Source Sans Pro';-inkscape-font-specification:'Source Sans Pro Heavy';text-align:end;writing-mode:lr-tb;text-anchor:end;fill:#00a6d7;fill-opacity:1"
           id="path4352"
           inkscape:connector-curvature="0" />
        <path
           d="m 326.07413,434.4105 c 14.4,0 24.16,-10.08 24.16,-27.2 0,-17.04 -9.76,-26.72 -24.16,-26.72 -14.4,0 -24.16,9.6 -24.16,26.72 0,17.12 9.76,27.2 24.16,27.2 z m 0,-11.84 c -6.24,0 -10.08,-5.92 -10.08,-15.36 0,-9.44 3.84,-14.88 10.08,-14.88 6.24,0 10.08,5.44 10.08,14.88 0,9.44 -3.84,15.36 -10.08,15.36 z"
           style="font-style:normal;font-variant:normal;font-weight:900;font-stretch:normal;font-size:80px;line-height:125%;font-family:'Source Sans Pro';-inkscape-font-specification:'Source Sans Pro Heavy';text-align:end;writing-mode:lr-tb;text-anchor:end;fill:#00a6d7;fill-opacity:1"
           id="path4354"
           inkscape:connector-curvature="0" />
        <path
           d="m 373.22663,392.3305 4.96,0 c 5.44,0 8.32,1.44 8.32,5.92 0,4.48 -2.88,6.88 -8.32,6.88 l -4.96,0 0,-12.8 z m 29.6,41.12 -11.28,-20.16 c 5.04,-2.72 8.4,-7.6 8.4,-15.04 0,-12.96 -9.6,-16.8 -20.8,-16.8 l -19.68,0 0,52 13.76,0 0,-17.44 5.28,0 8.96,17.44 15.36,0 z"
           style="font-style:normal;font-variant:normal;font-weight:900;font-stretch:normal;font-size:80px;line-height:125%;font-family:'Source Sans Pro';-inkscape-font-specification:'Source Sans Pro Heavy';text-align:end;writing-mode:lr-tb;text-anchor:end;fill:#00a6d7;fill-opacity:1"
           id="path4356"
           inkscape:connector-curvature="0" />
        <path
           d="m 409.93538,433.4505 13.12,0 0,-15.04 c 0,-6.4 -1.12,-13.92 -1.76,-19.84 l 0.32,0 4.96,11.6 11.52,23.28 14.08,0 0,-52 -13.12,0 0,15.04 c 0,6.4 1.12,14.24 1.76,19.84 l -0.32,0 -4.96,-11.68 -11.52,-23.2 -14.08,0 0,52 z"
           style="font-style:normal;font-variant:normal;font-weight:900;font-stretch:normal;font-size:80px;line-height:125%;font-family:'Source Sans Pro';-inkscape-font-specification:'Source Sans Pro Heavy';text-align:end;writing-mode:lr-tb;text-anchor:end;fill:#00a6d7;fill-opacity:1"
           id="path4358"
           inkscape:connector-curvature="0" />
        <path
           d="m 463.68538,433.4505 34.4,0 0,-11.52 -20.64,0 0,-9.28 16.96,0 0,-11.52 -16.96,0 0,-8.16 19.84,0 0,-11.52 -33.6,0 0,52 z"
           style="font-style:normal;font-variant:normal;font-weight:900;font-stretch:normal;font-size:80px;line-height:125%;font-family:'Source Sans Pro';-inkscape-font-specification:'Source Sans Pro Heavy';text-align:end;writing-mode:lr-tb;text-anchor:end;fill:#00a6d7;fill-opacity:1"
           id="path4360"
           inkscape:connector-curvature="0" />
      </g>
      <g
         transform="scale(1.0804774,0.92551682)"
         style="font-style:normal;font-variant:normal;font-weight:bold;font-stretch:normal;font-size:88.59913635px;line-height:125%;font-family:Arial;-inkscape-font-specification:'Arial Bold';text-align:end;letter-spacing:0.69005799px;word-spacing:0px;writing-mode:lr-tb;text-anchor:end;fill:#00a6d7;fill-opacity:1;stroke:none"
         id="text3049-4">
        <path
           d="m 126.64298,529.32166 18.49777,0 4.14903,-22.30106 c 0.86439,-4.32191 1.46945,-8.98957 2.07452,-13.1386 l 0.34575,0 c 0.51863,4.14903 1.21014,8.81669 2.07452,13.1386 l 4.32191,22.30106 18.84352,0 9.33533,-56.18483 -14.17586,0 -3.11178,24.54845 c -0.60507,5.70492 -1.29657,11.66915 -1.90164,17.63339 l -0.34575,0 c -1.03726,-5.96424 -2.07452,-12.01491 -3.11178,-17.63339 l -5.35916,-24.54845 -12.4471,0 -5.35917,24.54845 c -1.03726,5.79136 -2.07452,11.75559 -3.11177,17.63339 l -0.34576,0 c -0.60506,-5.8778 -1.29657,-11.75559 -1.90164,-17.63339 l -3.11177,-24.54845 -15.21312,0 9.85395,56.18483 z"
           style="font-style:normal;font-variant:normal;font-weight:900;font-stretch:normal;font-size:86.43818665px;line-height:125%;font-family:'Source Sans Pro';-inkscape-font-specification:'Source Sans Pro Heavy';text-align:end;letter-spacing:0px;word-spacing:0px;writing-mode:lr-tb;text-anchor:end;fill:#00a6d7;fill-opacity:1"
           id="path4363"
           inkscape:connector-curvature="0" />
        <path
           d="m 193.39217,529.32166 14.86737,0 0,-56.18483 -14.86737,0 0,56.18483 z"
           style="font-style:normal;font-variant:normal;font-weight:900;font-stretch:normal;font-size:86.43818665px;line-height:125%;font-family:'Source Sans Pro';-inkscape-font-specification:'Source Sans Pro Heavy';text-align:end;letter-spacing:0px;word-spacing:0px;writing-mode:lr-tb;text-anchor:end;fill:#00a6d7;fill-opacity:1"
           id="path4365"
           inkscape:connector-curvature="0" />
        <path
           d="m 220.74175,529.32166 14.17586,0 0,-16.25038 c 0,-6.91506 -1.21014,-15.04025 -1.90164,-21.43667 l 0.34575,0 5.35917,12.53353 12.4471,25.15352 15.21312,0 0,-56.18483 -14.17586,0 0,16.25038 c 0,6.91506 1.21013,15.386 1.90164,21.43667 l -0.34576,0 -5.35916,-12.61997 -12.4471,-25.06708 -15.21312,0 0,56.18483 z"
           style="font-style:normal;font-variant:normal;font-weight:900;font-stretch:normal;font-size:86.43818665px;line-height:125%;font-family:'Source Sans Pro';-inkscape-font-specification:'Source Sans Pro Heavy';text-align:end;letter-spacing:0px;word-spacing:0px;writing-mode:lr-tb;text-anchor:end;fill:#00a6d7;fill-opacity:1"
           id="path4367"
           inkscape:connector-curvature="0" />
        <path
           d="m 278.81741,529.32166 17.46052,0 c 16.25038,0 28.00597,-8.47095 28.00597,-28.35173 0,-19.88078 -11.75559,-27.8331 -28.87035,-27.8331 l -16.59614,0 0,56.18483 z m 14.86737,-11.92847 0,-32.32789 0.86438,0 c 8.12519,0 14.52162,2.76603 14.52162,15.90463 0,13.1386 -6.39643,16.42326 -14.52162,16.42326 l -0.86438,0 z"
           style="font-style:normal;font-variant:normal;font-weight:900;font-stretch:normal;font-size:86.43818665px;line-height:125%;font-family:'Source Sans Pro';-inkscape-font-specification:'Source Sans Pro Heavy';text-align:end;letter-spacing:0px;word-spacing:0px;writing-mode:lr-tb;text-anchor:end;fill:#00a6d7;fill-opacity:1"
           id="path4369"
           inkscape:connector-curvature="0" />
      </g>
      <g
         transform="scale(1.0157388,0.98450507)"
         style="font-style:normal;font-variant:normal;font-weight:bold;font-stretch:normal;font-size:83.29057312px;line-height:125%;font-family:Arial;-inkscape-font-specification:'Arial Bold';text-align:end;letter-spacing:0px;word-spacing:0px;writing-mode:lr-tb;text-anchor:end;fill:#66808e;fill-opacity:1;stroke:none"
         id="text3049-4-7">
        <path
           d="m 353.39352,470.2337 16.59717,0 0,-5.55812 -9.9583,0 0,-4.47738 8.18279,0 0,-5.55812 -8.18279,0 0,-3.937 9.57232,0 0,-5.55813 -16.21119,0 0,25.08875 z"
           style="font-style:normal;font-variant:normal;font-weight:900;font-stretch:normal;font-size:38.59807587px;line-height:125%;font-family:'Source Sans Pro';-inkscape-font-specification:'Source Sans Pro Heavy';text-align:end;writing-mode:lr-tb;text-anchor:end;fill:#66808e;fill-opacity:1"
           id="path4372"
           inkscape:connector-curvature="0" />
        <path
           d="m 374.87878,470.2337 6.33008,0 0,-7.25643 c 0,-3.08785 -0.54037,-6.71607 -0.84915,-9.57233 l 0.15439,0 2.39308,5.59672 5.55812,11.23204 6.79326,0 0,-25.08875 -6.33008,0 0,7.25644 c 0,3.08785 0.54037,6.87046 0.84916,9.57233 l -0.1544,0 -2.39308,-5.63532 -5.55812,-11.19345 -6.79326,0 0,25.08875 z"
           style="font-style:normal;font-variant:normal;font-weight:900;font-stretch:normal;font-size:38.59807587px;line-height:125%;font-family:'Source Sans Pro';-inkscape-font-specification:'Source Sans Pro Heavy';text-align:end;writing-mode:lr-tb;text-anchor:end;fill:#66808e;fill-opacity:1"
           id="path4374"
           inkscape:connector-curvature="0" />
        <path
           d="m 400.81186,470.2337 16.59717,0 0,-5.55812 -9.9583,0 0,-4.47738 8.18279,0 0,-5.55812 -8.18279,0 0,-3.937 9.57232,0 0,-5.55813 -16.21119,0 0,25.08875 z"
           style="font-style:normal;font-variant:normal;font-weight:900;font-stretch:normal;font-size:38.59807587px;line-height:125%;font-family:'Source Sans Pro';-inkscape-font-specification:'Source Sans Pro Heavy';text-align:end;writing-mode:lr-tb;text-anchor:end;fill:#66808e;fill-opacity:1"
           id="path4376"
           inkscape:connector-curvature="0" />
        <path
           d="m 428.93599,450.39429 2.39308,0 c 2.62467,0 4.0142,0.69477 4.0142,2.85626 0,2.16149 -1.38953,3.31943 -4.0142,3.31943 l -2.39308,0 0,-6.17569 z m 14.28128,19.83941 -5.44232,-9.72671 c 2.43167,-1.31234 4.05279,-3.66682 4.05279,-7.25644 0,-6.25289 -4.63177,-8.1056 -10.0355,-8.1056 l -9.49512,0 0,25.08875 6.63887,0 0,-8.41438 2.54747,0 4.32298,8.41438 7.41083,0 z"
           style="font-style:normal;font-variant:normal;font-weight:900;font-stretch:normal;font-size:38.59807587px;line-height:125%;font-family:'Source Sans Pro';-inkscape-font-specification:'Source Sans Pro Heavy';text-align:end;writing-mode:lr-tb;text-anchor:end;fill:#66808e;fill-opacity:1"
           id="path4378"
           inkscape:connector-curvature="0" />
        <path
           d="m 445.56633,457.88232 c 0,8.56877 5.63532,12.81456 12.50578,12.81456 3.55102,0 6.79326,-1.38953 8.64597,-3.08785 l 0,-11.9654 -9.57233,0 0,5.40373 3.70542,0 0,3.47383 c -0.46318,0.30878 -1.23514,0.46318 -1.9299,0.46318 -4.47738,0 -6.56168,-2.62467 -6.56168,-7.33364 0,-4.55457 2.54748,-7.25644 5.94411,-7.25644 2.0071,0 3.08784,0.61757 4.32298,1.69832 l 3.62822,-4.0914 c -1.77551,-1.77551 -4.47738,-3.31943 -8.0284,-3.31943 -6.87046,0 -12.66017,4.78616 -12.66017,13.20054 z"
           style="font-style:normal;font-variant:normal;font-weight:900;font-stretch:normal;font-size:38.59807587px;line-height:125%;font-family:'Source Sans Pro';-inkscape-font-specification:'Source Sans Pro Heavy';text-align:end;writing-mode:lr-tb;text-anchor:end;fill:#66808e;fill-opacity:1"
           id="path4380"
           inkscape:connector-curvature="0" />
        <path
           d="m 476.00031,470.2337 6.63887,0 0,-8.64597 7.56522,-16.44278 -6.94765,0 -1.85271,5.24934 c -0.65617,1.89131 -1.31234,3.62822 -1.9685,5.59672 l -0.1544,0 c -0.65616,-1.9685 -1.27373,-3.70541 -1.8913,-5.59672 l -1.85271,-5.24934 -7.10205,0 7.56523,16.44278 0,8.64597 z"
           style="font-style:normal;font-variant:normal;font-weight:900;font-stretch:normal;font-size:38.59807587px;line-height:125%;font-family:'Source Sans Pro';-inkscape-font-specification:'Source Sans Pro Heavy';text-align:end;writing-mode:lr-tb;text-anchor:end;fill:#66808e;fill-opacity:1"
           id="path4382"
           inkscape:connector-curvature="0" />
      </g>
      <g
         transform="scale(1.0142558,0.98594459)"
         style="font-style:normal;font-variant:normal;font-weight:bold;font-stretch:normal;font-size:83.1689682px;line-height:125%;font-family:Arial;-inkscape-font-specification:'Arial Bold';text-align:end;letter-spacing:0px;word-spacing:0px;writing-mode:lr-tb;text-anchor:end;fill:#66808e;fill-opacity:1;stroke:none"
         id="text3049-4-7-1">
        <path
           d="m 352.23276,484.13693 c 0,8.55626 5.55001,12.79585 12.1021,12.79585 3.08334,0 5.97397,-1.23334 8.09376,-3.70001 l -3.62292,-4.00834 c -1.07917,1.15625 -2.46667,2.00417 -4.39376,2.00417 -3.2375,0 -5.39584,-2.62084 -5.39584,-7.32293 0,-4.54792 2.54376,-7.24584 5.55001,-7.24584 1.61875,0 2.69792,0.61667 3.93126,1.69584 l 3.62292,-4.08543 c -1.77292,-1.77291 -4.47084,-3.31458 -7.63126,-3.31458 -6.47501,0 -12.25627,4.77917 -12.25627,13.18127 z"
           style="font-style:normal;font-variant:normal;font-weight:900;font-stretch:normal;font-size:38.54172134px;line-height:125%;font-family:'Source Sans Pro';-inkscape-font-specification:'Source Sans Pro Heavy';text-align:end;writing-mode:lr-tb;text-anchor:end;fill:#66808e;fill-opacity:1"
           id="path4385"
           inkscape:connector-curvature="0" />
        <path
           d="m 384.94986,496.93278 c 6.93751,0 11.6396,-4.85626 11.6396,-13.10419 0,-8.20939 -4.70209,-12.87293 -11.6396,-12.87293 -6.93751,0 -11.6396,4.625 -11.6396,12.87293 0,8.24793 4.70209,13.10419 11.6396,13.10419 z m 0,-5.70418 c -3.00625,0 -4.85625,-2.85209 -4.85625,-7.40001 0,-4.54792 1.85,-7.16876 4.85625,-7.16876 3.00626,0 4.85626,2.62084 4.85626,7.16876 0,4.54792 -1.85,7.40001 -4.85626,7.40001 z"
           style="font-style:normal;font-variant:normal;font-weight:900;font-stretch:normal;font-size:38.54172134px;line-height:125%;font-family:'Source Sans Pro';-inkscape-font-specification:'Source Sans Pro Heavy';text-align:end;writing-mode:lr-tb;text-anchor:end;fill:#66808e;fill-opacity:1"
           id="path4387"
           inkscape:connector-curvature="0" />
        <path
           d="m 401.03742,496.47028 6.32084,0 0,-7.24585 c 0,-3.08334 -0.53958,-6.70626 -0.84792,-9.55834 l 0.15417,0 2.38959,5.58854 5.55,11.21565 6.78335,0 0,-25.05212 -6.32085,0 0,7.24584 c 0,3.08334 0.53959,6.86043 0.84792,9.55835 l -0.15416,0 -2.38959,-5.62709 -5.55001,-11.1771 -6.78334,0 0,25.05212 z"
           style="font-style:normal;font-variant:normal;font-weight:900;font-stretch:normal;font-size:38.54172134px;line-height:125%;font-family:'Source Sans Pro';-inkscape-font-specification:'Source Sans Pro Heavy';text-align:end;writing-mode:lr-tb;text-anchor:end;fill:#66808e;fill-opacity:1"
           id="path4389"
           inkscape:connector-curvature="0" />
        <path
           d="m 426.93264,496.47028 6.62918,0 0,-9.17293 8.32501,0 0,-5.55001 -8.32501,0 0,-4.77918 9.71251,0 0,-5.55 -16.34169,0 0,25.05212 z"
           style="font-style:normal;font-variant:normal;font-weight:900;font-stretch:normal;font-size:38.54172134px;line-height:125%;font-family:'Source Sans Pro';-inkscape-font-specification:'Source Sans Pro Heavy';text-align:end;writing-mode:lr-tb;text-anchor:end;fill:#66808e;fill-opacity:1"
           id="path4391"
           inkscape:connector-curvature="0" />
        <path
           d="m 447.55848,496.47028 16.57294,0 0,-5.55001 -9.94376,0 0,-4.47084 8.17084,0 0,-5.55001 -8.17084,0 0,-3.93126 9.55834,0 0,-5.55 -16.18752,0 0,25.05212 z"
           style="font-style:normal;font-variant:normal;font-weight:900;font-stretch:normal;font-size:38.54172134px;line-height:125%;font-family:'Source Sans Pro';-inkscape-font-specification:'Source Sans Pro Heavy';text-align:end;writing-mode:lr-tb;text-anchor:end;fill:#66808e;fill-opacity:1"
           id="path4393"
           inkscape:connector-curvature="0" />
        <path
           d="m 475.64154,476.65983 2.38959,0 c 2.62084,0 4.00834,0.69375 4.00834,2.85209 0,2.15833 -1.3875,3.31459 -4.00834,3.31459 l -2.38959,0 0,-6.16668 z m 14.26044,19.81045 -5.43438,-9.71252 c 2.42813,-1.31042 4.04688,-3.66146 4.04688,-7.24584 0,-6.24376 -4.62501,-8.09376 -10.02085,-8.09376 l -9.48126,0 0,25.05212 6.62917,0 0,-8.4021 2.54376,0 4.31667,8.4021 7.40001,0 z"
           style="font-style:normal;font-variant:normal;font-weight:900;font-stretch:normal;font-size:38.54172134px;line-height:125%;font-family:'Source Sans Pro';-inkscape-font-specification:'Source Sans Pro Heavy';text-align:end;writing-mode:lr-tb;text-anchor:end;fill:#66808e;fill-opacity:1"
           id="path4395"
           inkscape:connector-curvature="0" />
        <path
           d="m 493.32677,496.47028 16.57294,0 0,-5.55001 -9.94376,0 0,-4.47084 8.17085,0 0,-5.55001 -8.17085,0 0,-3.93126 9.55835,0 0,-5.55 -16.18753,0 0,25.05212 z"
           style="font-style:normal;font-variant:normal;font-weight:900;font-stretch:normal;font-size:38.54172134px;line-height:125%;font-family:'Source Sans Pro';-inkscape-font-specification:'Source Sans Pro Heavy';text-align:end;writing-mode:lr-tb;text-anchor:end;fill:#66808e;fill-opacity:1"
           id="path4397"
           inkscape:connector-curvature="0" />
        <path
           d="m 514.78066,496.47028 6.32084,0 0,-7.24585 c 0,-3.08334 -0.53958,-6.70626 -0.84791,-9.55834 l 0.15416,0 2.38959,5.58854 5.55001,11.21565 6.78334,0 0,-25.05212 -6.32084,0 0,7.24584 c 0,3.08334 0.53958,6.86043 0.84792,9.55835 l -0.15417,0 -2.38959,-5.62709 -5.55,-11.1771 -6.78335,0 0,25.05212 z"
           style="font-style:normal;font-variant:normal;font-weight:900;font-stretch:normal;font-size:38.54172134px;line-height:125%;font-family:'Source Sans Pro';-inkscape-font-specification:'Source Sans Pro Heavy';text-align:end;writing-mode:lr-tb;text-anchor:end;fill:#66808e;fill-opacity:1"
           id="path4399"
           inkscape:connector-curvature="0" />
        <path
           d="m 539.59671,484.13693 c 0,8.55626 5.55001,12.79585 12.1021,12.79585 3.08334,0 5.97397,-1.23334 8.09376,-3.70001 l -3.62292,-4.00834 c -1.07917,1.15625 -2.46667,2.00417 -4.39375,2.00417 -3.23751,0 -5.39585,-2.62084 -5.39585,-7.32293 0,-4.54792 2.54376,-7.24584 5.55001,-7.24584 1.61876,0 2.69792,0.61667 3.93126,1.69584 l 3.62292,-4.08543 c -1.77292,-1.77291 -4.47084,-3.31458 -7.63126,-3.31458 -6.47501,0 -12.25627,4.77917 -12.25627,13.18127 z"
           style="font-style:normal;font-variant:normal;font-weight:900;font-stretch:normal;font-size:38.54172134px;line-height:125%;font-family:'Source Sans Pro';-inkscape-font-specification:'Source Sans Pro Heavy';text-align:end;writing-mode:lr-tb;text-anchor:end;fill:#66808e;fill-opacity:1"
           id="path4401"
           inkscape:connector-curvature="0" />
        <path
           d="m 563.25892,496.47028 16.57294,0 0,-5.55001 -9.94377,0 0,-4.47084 8.17085,0 0,-5.55001 -8.17085,0 0,-3.93126 9.55835,0 0,-5.55 -16.18752,0 0,25.05212 z"
           style="font-style:normal;font-variant:normal;font-weight:900;font-stretch:normal;font-size:38.54172134px;line-height:125%;font-family:'Source Sans Pro';-inkscape-font-specification:'Source Sans Pro Heavy';text-align:end;writing-mode:lr-tb;text-anchor:end;fill:#66808e;fill-opacity:1"
           id="path4403"
           inkscape:connector-curvature="0" />
        <text
           xml:space="preserve"
           style="font-style:normal;font-variant:normal;font-weight:normal;font-stretch:normal;font-size:38.25820923px;line-height:114.99999762%;font-family:'Source Sans Pro';-inkscape-font-specification:'Source Sans Pro, Normal';text-align:start;letter-spacing:0px;word-spacing:0px;writing-mode:lr-tb;text-anchor:start;fill:#66808e;fill-opacity:1;stroke:none;stroke-width:1px;stroke-linecap:butt;stroke-linejoin:miter;stroke-opacity:1"
           x="611.92572"
           y="489.70633"
           id="text4324"
           sodipodi:linespacing="115%"
           transform="scale(0.98594457,1.0142558)"><tspan
             sodipodi:role="line"
             id="tspan4326"
             x="611.92572"
             y="489.70633"
             style="font-style:normal;font-variant:normal;font-weight:900;font-stretch:normal;font-size:38.34210968px;font-family:'Source Sans Pro';-inkscape-font-specification:'Source Sans Pro Heavy';fill:#66808e;fill-opacity:1">SCHEDULE</tspan></text>
      </g>
      <path
         style="fill:#00a6d7;fill-opacity:1;stroke:none"
         d="m 506.37799,381.43301 81.19056,0 0,81.48519 -81.19056,0 z"
         id="rect3159"
         inkscape:connector-curvature="0" />
      <g
         transform="scale(1.0157388,0.98450507)"
         style="font-style:normal;font-variant:normal;font-weight:bold;font-stretch:normal;font-size:83.29057312px;line-height:125%;font-family:Arial;-inkscape-font-specification:'Arial Bold';text-align:end;letter-spacing:0px;word-spacing:0px;writing-mode:lr-tb;text-anchor:end;fill:#00a6d7;fill-opacity:1;stroke:none"
         id="text3049-4-7-4">
        <path
           d="m 498.49849,470.23901 17.75511,0 0,-5.55812 -4.09139,0 c -1.08075,0 -2.85626,0.15439 -4.0914,0.30879 3.31944,-3.39664 7.02485,-7.71962 7.02485,-11.65662 0,-4.86336 -3.47382,-8.0284 -8.41438,-8.0284 -3.62822,0 -5.9441,1.23514 -8.49158,3.937 l 3.55103,3.55102 c 1.15794,-1.15794 2.39308,-2.31588 4.0142,-2.31588 1.77551,0 3.01065,1.04215 3.01065,3.24224 0,3.31943 -4.47738,7.41083 -10.26709,12.73736 l 0,3.78261 z"
           style="font-style:normal;font-variant:normal;font-weight:900;font-stretch:normal;font-size:38.59807587px;line-height:125%;font-family:'Source Sans Pro';-inkscape-font-specification:'Source Sans Pro Heavy';text-align:end;writing-mode:lr-tb;text-anchor:end;fill:#ffffff;fill-opacity:1"
           id="path4407"
           inkscape:connector-curvature="0" />
        <path
           d="m 528.33722,470.70219 c 5.40373,0 9.10914,-4.43878 9.10914,-12.81456 0,-8.33718 -3.70541,-12.58297 -9.10914,-12.58297 -5.40374,0 -9.10915,4.20719 -9.10915,12.58297 0,8.37578 3.70541,12.81456 9.10915,12.81456 z m 0,-5.09495 c -1.54393,0 -2.85626,-1.23513 -2.85626,-7.71961 0,-6.48448 1.31233,-7.48803 2.85626,-7.48803 1.54392,0 2.85625,1.00355 2.85625,7.48803 0,6.48448 -1.31233,7.71961 -2.85625,7.71961 z"
           style="font-style:normal;font-variant:normal;font-weight:900;font-stretch:normal;font-size:38.59807587px;line-height:125%;font-family:'Source Sans Pro';-inkscape-font-specification:'Source Sans Pro Heavy';text-align:end;writing-mode:lr-tb;text-anchor:end;fill:#ffffff;fill-opacity:1"
           id="path4409"
           inkscape:connector-curvature="0" />
        <path
           d="m 541.26998,470.23901 16.28839,0 0,-5.32653 -4.40018,0 0,-19.14465 -4.86336,0 c -1.8527,1.15795 -3.62822,1.85271 -6.40728,2.39308 l 0,4.0914 4.63177,0 0,12.66017 -5.24934,0 0,5.32653 z"
           style="font-style:normal;font-variant:normal;font-weight:900;font-stretch:normal;font-size:38.59807587px;line-height:125%;font-family:'Source Sans Pro';-inkscape-font-specification:'Source Sans Pro Heavy';text-align:end;writing-mode:lr-tb;text-anchor:end;fill:#ffffff;fill-opacity:1"
           id="path4411"
           inkscape:connector-curvature="0" />
        <path
           d="m 560.37844,467.22836 c 2.0071,2.0071 4.86336,3.47383 8.87756,3.47383 4.97915,0 9.26354,-3.16504 9.26354,-8.64597 0,-5.17214 -3.62822,-7.56522 -7.87401,-7.56522 -0.81056,0 -1.46673,0.0772 -2.31588,0.38598 l 0.30878,-3.55102 8.80036,0 0,-5.55813 -14.51287,0 -0.61757,12.58298 2.85625,1.8527 c 1.46673,-0.92635 2.0843,-1.15794 3.39663,-1.15794 1.92991,0 3.31944,1.08075 3.31944,3.16504 0,2.1615 -1.31234,3.16505 -3.62822,3.16505 -1.77551,0 -3.47383,-1.00355 -4.94055,-2.31589 l -2.93346,4.16859 z"
           style="font-style:normal;font-variant:normal;font-weight:900;font-stretch:normal;font-size:38.59807587px;line-height:125%;font-family:'Source Sans Pro';-inkscape-font-specification:'Source Sans Pro Heavy';text-align:end;writing-mode:lr-tb;text-anchor:end;fill:#ffffff;fill-opacity:1"
           id="path4413"
           inkscape:connector-curvature="0" />
      </g>
    </g>
  </g>
  <g
     inkscape:groupmode="layer"
     id="layer4"
     inkscape:label="Address"
     style="display:inline"
     transform="translate(-0.0448939,-307.74791)">
    <g
       id="g4282-0"
       transform="matrix(0.50944444,0,0,0.50944444,456.31144,240.21629)">
      <g
         style="font-style:normal;font-variant:normal;font-weight:normal;font-stretch:normal;font-size:16.30797195px;line-height:100%;font-family:Arial;-inkscape-font-specification:'Arial, Normal';text-align:start;letter-spacing:-0.53056991px;word-spacing:0px;writing-mode:lr-tb;text-anchor:start;fill:#00a6d7;fill-opacity:1;stroke:none;stroke-width:1px;stroke-linecap:butt;stroke-linejoin:miter;stroke-opacity:1"
         id="text4216-8">
        <path
           d="m 235.56638,210.61377 12.231,0 0,-2.3103 -4.4847,0 0,-19.36575 -2.14042,0 c -1.18913,0.71347 -2.61608,1.25707 -4.58663,1.59682 l 0,1.80068 3.9411,0 0,15.96825 -4.96035,0 0,2.3103 z"
           style="font-style:normal;font-variant:normal;font-weight:normal;font-stretch:normal;font-size:33.9750061px;line-height:100%;font-family:'Source Sans Pro';-inkscape-font-specification:'Source Sans Pro';text-align:start;letter-spacing:1.01654923px;word-spacing:0px;writing-mode:lr-tb;text-anchor:start;fill:#00a6d7;fill-opacity:1"
           id="path4172"
           inkscape:connector-curvature="0" />
        <path
           d="m 251.60307,208.06564 c 1.4949,1.4949 3.63532,2.95583 7.10077,2.95583 3.77123,0 7.30463,-2.65005 7.30463,-7.3386 0,-4.68855 -3.02378,-6.795 -6.72705,-6.795 -1.32503,0 -2.3103,0.33975 -3.32955,0.88335 l 0.57757,-6.42128 8.39183,0 0,-2.41222 -10.83803,0 -0.71347,10.43032 1.4949,0.9513 c 1.29105,-0.84937 2.20837,-1.32502 3.70327,-1.32502 2.78595,0 4.6206,1.7667 4.6206,4.7565 0,3.02377 -2.10645,4.96035 -4.7565,4.96035 -2.54812,0 -4.17892,-1.18913 -5.46997,-2.48018 l -1.359,1.83465 z"
           style="font-style:normal;font-variant:normal;font-weight:normal;font-stretch:normal;font-size:33.9750061px;line-height:100%;font-family:'Source Sans Pro';-inkscape-font-specification:'Source Sans Pro';text-align:start;letter-spacing:1.01654923px;word-spacing:0px;writing-mode:lr-tb;text-anchor:start;fill:#00a6d7;fill-opacity:1"
           id="path4174"
           inkscape:connector-curvature="0" />
        <path
           d="m 270.01801,203.17324 7.81425,0 0,-2.14042 -7.81425,0 0,2.14042 z"
           style="font-style:normal;font-variant:normal;font-weight:normal;font-stretch:normal;font-size:33.9750061px;line-height:100%;font-family:'Source Sans Pro';-inkscape-font-specification:'Source Sans Pro';text-align:start;letter-spacing:1.01654923px;word-spacing:0px;writing-mode:lr-tb;text-anchor:start;fill:#00a6d7;fill-opacity:1"
           id="path4176"
           inkscape:connector-curvature="0" />
        <path
           d="m 282.87643,210.61377 12.23101,0 0,-2.3103 -4.4847,0 0,-19.36575 -2.14043,0 c -1.18912,0.71347 -2.61607,1.25707 -4.58662,1.59682 l 0,1.80068 3.9411,0 0,15.96825 -4.96036,0 0,2.3103 z"
           style="font-style:normal;font-variant:normal;font-weight:normal;font-stretch:normal;font-size:33.9750061px;line-height:100%;font-family:'Source Sans Pro';-inkscape-font-specification:'Source Sans Pro';text-align:start;letter-spacing:1.01654923px;word-spacing:0px;writing-mode:lr-tb;text-anchor:start;fill:#00a6d7;fill-opacity:1"
           id="path4178"
           inkscape:connector-curvature="0" />
        <path
           d="m 307.16905,208.81309 c -2.75198,0 -4.41676,-2.27632 -4.75651,-6.48922 1.46093,-2.0385 3.15968,-2.8539 4.51868,-2.8539 2.68403,0 4.00905,1.7667 4.00905,4.58662 0,2.8539 -1.6308,4.7565 -3.77122,4.7565 z m 6.01357,-17.97277 c -1.2231,-1.32503 -2.88787,-2.3103 -5.23215,-2.3103 -4.31483,0 -8.25593,3.36352 -8.25593,12.06112 0,6.96488 3.22763,10.43033 7.47451,10.43033 3.49942,0 6.42127,-2.81993 6.42127,-6.96488 0,-4.45072 -2.4462,-6.69307 -6.18345,-6.69307 -1.7667,0 -3.70328,1.05322 -5.06228,2.718 0.1359,-6.86295 2.68403,-9.20723 5.70781,-9.20723 1.359,0 2.68402,0.64553 3.56737,1.69875 l 1.56285,-1.73272 z"
           style="font-style:normal;font-variant:normal;font-weight:normal;font-stretch:normal;font-size:33.9750061px;line-height:100%;font-family:'Source Sans Pro';-inkscape-font-specification:'Source Sans Pro';text-align:start;letter-spacing:1.01654923px;word-spacing:0px;writing-mode:lr-tb;text-anchor:start;fill:#00a6d7;fill-opacity:1"
           id="path4180"
           inkscape:connector-curvature="0" />
        <path
           d="m 324.83967,207.45409 c 1.29105,2.34428 3.32955,3.56738 6.14948,3.56738 4.3488,0 6.14947,-3.1257 6.14947,-6.96488 l 0,-15.73042 -2.8539,0 0,15.45862 c 0,3.3975 -1.18912,4.7565 -3.56737,4.7565 -1.59683,0 -2.8539,-0.74745 -3.83918,-2.51415 l -2.0385,1.42695 z"
           style="font-style:normal;font-variant:normal;font-weight:normal;font-stretch:normal;font-size:33.9750061px;line-height:100%;font-family:'Source Sans Pro';-inkscape-font-specification:'Source Sans Pro';text-align:start;letter-spacing:1.01654923px;word-spacing:0px;writing-mode:lr-tb;text-anchor:start;fill:#00a6d7;fill-opacity:1"
           id="path4182"
           inkscape:connector-curvature="0" />
        <path
           d="m 344.08276,201.40654 c 0,7.16873 3.46545,9.61493 8.0181,9.61493 4.55265,0 7.98412,-2.4462 7.98412,-9.61493 l 0,-13.08037 -2.718,0 0,13.14832 c 0,5.36805 -2.3103,7.0668 -5.26612,7.0668 -2.92185,0 -5.19818,-1.69875 -5.19818,-7.0668 l 0,-13.14832 -2.81992,0 0,13.08037 z"
           style="font-style:normal;font-variant:normal;font-weight:normal;font-stretch:normal;font-size:33.9750061px;line-height:100%;font-family:'Source Sans Pro';-inkscape-font-specification:'Source Sans Pro';text-align:start;letter-spacing:1.01654923px;word-spacing:0px;writing-mode:lr-tb;text-anchor:start;fill:#00a6d7;fill-opacity:1"
           id="path4184"
           inkscape:connector-curvature="0" />
        <path
           d="m 367.09918,210.61377 2.68402,0 0,-11.65343 c 0,-2.34427 -0.20385,-4.72252 -0.37372,-6.96487 l 0.1359,0 2.41222,4.58662 8.08606,14.03168 2.92185,0 0,-22.2876 -2.68403,0 0,11.51752 c 0,2.34428 0.20385,4.85843 0.33975,7.10078 l -0.1359,0 -2.41222,-4.6206 -8.05208,-13.9977 -2.92185,0 0,22.2876 z"
           style="font-style:normal;font-variant:normal;font-weight:normal;font-stretch:normal;font-size:33.9750061px;line-height:100%;font-family:'Source Sans Pro';-inkscape-font-specification:'Source Sans Pro';text-align:start;letter-spacing:1.01654923px;word-spacing:0px;writing-mode:lr-tb;text-anchor:start;fill:#00a6d7;fill-opacity:1"
           id="path4186"
           inkscape:connector-curvature="0" />
        <path
           d="m 390.08004,210.61377 13.18231,0 0,-2.41223 -10.36238,0 0,-8.08605 8.45978,0 0,-2.41222 -8.45978,0 0,-6.99885 10.02263,0 0,-2.37825 -12.84256,0 0,22.2876 z"
           style="font-style:normal;font-variant:normal;font-weight:normal;font-stretch:normal;font-size:33.9750061px;line-height:100%;font-family:'Source Sans Pro';-inkscape-font-specification:'Source Sans Pro';text-align:start;letter-spacing:1.01654923px;word-spacing:0px;writing-mode:lr-tb;text-anchor:start;fill:#00a6d7;fill-opacity:1"
           id="path4188"
           inkscape:connector-curvature="0" />
        <path
           d="m 415.16572,210.61377 13.9977,0 0,-2.41223 -6.28538,0 c -1.12117,0 -2.4462,0.10193 -3.63532,0.20385 5.13022,-5.36805 8.8335,-9.41107 8.8335,-13.48807 0,-3.83918 -2.48018,-6.3873 -6.48923,-6.3873 -2.81992,0 -4.7565,1.32502 -6.55717,3.29557 l 1.59682,1.59683 c 1.25708,-1.46093 2.81993,-2.61608 4.6206,-2.61608 2.75198,0 4.11098,1.7667 4.11098,4.24688 0,3.49942 -3.6693,7.40655 -10.1925,13.89577 l 0,1.66478 z"
           style="font-style:normal;font-variant:normal;font-weight:normal;font-stretch:normal;font-size:33.9750061px;line-height:100%;font-family:'Source Sans Pro';-inkscape-font-specification:'Source Sans Pro';text-align:start;letter-spacing:1.01654923px;word-spacing:0px;writing-mode:lr-tb;text-anchor:start;fill:#00a6d7;fill-opacity:1"
           id="path4190"
           inkscape:connector-curvature="0" />
        <path
           d="m 440.13782,211.02147 c 4.31482,0 6.9309,-4.04303 6.9309,-11.31368 0,-7.27065 -2.61608,-11.17777 -6.9309,-11.17777 -4.3488,0 -6.96488,3.90712 -6.96488,11.17777 0,7.27065 2.61608,11.31368 6.96488,11.31368 z m 0,-2.24235 c -2.54813,0 -4.24688,-2.718 -4.24688,-9.07133 0,-6.35332 1.69875,-8.93542 4.24688,-8.93542 2.51415,0 4.2129,2.5821 4.2129,8.93542 0,6.35333 -1.69875,9.07133 -4.2129,9.07133 z"
           style="font-style:normal;font-variant:normal;font-weight:normal;font-stretch:normal;font-size:33.9750061px;line-height:100%;font-family:'Source Sans Pro';-inkscape-font-specification:'Source Sans Pro';text-align:start;letter-spacing:1.01654923px;word-spacing:0px;writing-mode:lr-tb;text-anchor:start;fill:#00a6d7;fill-opacity:1"
           id="path4192"
           inkscape:connector-curvature="0" />
        <path
           d="m 452.2334,210.61377 12.23101,0 0,-2.3103 -4.48471,0 0,-19.36575 -2.14042,0 c -1.18913,0.71347 -2.61608,1.25707 -4.58663,1.59682 l 0,1.80068 3.9411,0 0,15.96825 -4.96035,0 0,2.3103 z"
           style="font-style:normal;font-variant:normal;font-weight:normal;font-stretch:normal;font-size:33.9750061px;line-height:100%;font-family:'Source Sans Pro';-inkscape-font-specification:'Source Sans Pro';text-align:start;letter-spacing:1.01654923px;word-spacing:0px;writing-mode:lr-tb;text-anchor:start;fill:#00a6d7;fill-opacity:1"
           id="path4194"
           inkscape:connector-curvature="0" />
        <path
           d="m 468.27009,208.06564 c 1.4949,1.4949 3.63533,2.95583 7.10078,2.95583 3.77122,0 7.30462,-2.65005 7.30462,-7.3386 0,-4.68855 -3.02377,-6.795 -6.72705,-6.795 -1.32502,0 -2.3103,0.33975 -3.32955,0.88335 l 0.57758,-6.42128 8.39182,0 0,-2.41222 -10.83802,0 -0.71348,10.43032 1.4949,0.9513 c 1.29105,-0.84937 2.20838,-1.32502 3.70328,-1.32502 2.78595,0 4.6206,1.7667 4.6206,4.7565 0,3.02377 -2.10645,4.96035 -4.7565,4.96035 -2.54813,0 -4.17893,-1.18913 -5.46998,-2.48018 l -1.359,1.83465 z"
           style="font-style:normal;font-variant:normal;font-weight:normal;font-stretch:normal;font-size:33.9750061px;line-height:100%;font-family:'Source Sans Pro';-inkscape-font-specification:'Source Sans Pro';text-align:start;letter-spacing:1.01654923px;word-spacing:0px;writing-mode:lr-tb;text-anchor:start;fill:#00a6d7;fill-opacity:1"
           id="path4196"
           inkscape:connector-curvature="0" />
        <path
           d="m 235.94011,244.58878 5.7078,0 c 6.72705,0 10.39635,-4.14496 10.39635,-11.24573 0,-7.0668 -3.6693,-11.04188 -10.53225,-11.04188 l -5.5719,0 0,22.28761 z m 2.81992,-2.3103 0,-17.66701 2.54813,0 c 5.19817,0 7.81425,3.1257 7.81425,8.73158 0,5.63985 -2.61608,8.93543 -7.81425,8.93543 l -2.54813,0 z"
           style="font-style:normal;font-variant:normal;font-weight:normal;font-stretch:normal;font-size:33.9750061px;line-height:100%;font-family:'Source Sans Pro';-inkscape-font-specification:'Source Sans Pro, Normal';text-align:start;letter-spacing:-1.01654923px;word-spacing:0px;writing-mode:lr-tb;text-anchor:start;fill:#00a6d7;fill-opacity:1"
           id="path4198"
           inkscape:connector-curvature="0" />
        <path
           d="m 255.82615,244.58878 13.1823,0 0,-2.41223 -10.36238,0 0,-8.08605 8.45978,0 0,-2.41223 -8.45978,0 0,-6.99885 10.02263,0 0,-2.37825 -12.84255,0 0,22.28761 z"
           style="font-style:normal;font-variant:normal;font-weight:normal;font-stretch:normal;font-size:33.9750061px;line-height:100%;font-family:'Source Sans Pro';-inkscape-font-specification:'Source Sans Pro, Normal';text-align:start;letter-spacing:-1.01654923px;word-spacing:0px;writing-mode:lr-tb;text-anchor:start;fill:#00a6d7;fill-opacity:1"
           id="path4200"
           inkscape:connector-curvature="0" />
        <path
           d="m 272.7261,244.58878 12.57076,0 0,-2.41223 -9.75083,0 0,-19.87538 -2.81993,0 0,22.28761 z"
           style="font-style:normal;font-variant:normal;font-weight:normal;font-stretch:normal;font-size:33.9750061px;line-height:100%;font-family:'Source Sans Pro';-inkscape-font-specification:'Source Sans Pro, Normal';text-align:start;letter-spacing:-1.01654923px;word-spacing:0px;writing-mode:lr-tb;text-anchor:start;fill:#00a6d7;fill-opacity:1"
           id="path4202"
           inkscape:connector-curvature="0" />
        <path
           d="m 288.23256,244.58878 2.81992,0 0,-9.98866 8.49376,0 0,-2.37825 -8.49376,0 0,-7.54245 10.02263,0 0,-2.37825 -12.84255,0 0,22.28761 z"
           style="font-style:normal;font-variant:normal;font-weight:normal;font-stretch:normal;font-size:33.9750061px;line-height:100%;font-family:'Source Sans Pro';-inkscape-font-specification:'Source Sans Pro, Normal';text-align:start;letter-spacing:-1.01654923px;word-spacing:0px;writing-mode:lr-tb;text-anchor:start;fill:#00a6d7;fill-opacity:1"
           id="path4204"
           inkscape:connector-curvature="0" />
        <path
           d="m 308.62504,244.58878 2.8539,0 0,-19.90936 6.72705,0 0,-2.37825 -16.308,0 0,2.37825 6.72705,0 0,19.90936 z"
           style="font-style:normal;font-variant:normal;font-weight:normal;font-stretch:normal;font-size:33.9750061px;line-height:100%;font-family:'Source Sans Pro';-inkscape-font-specification:'Source Sans Pro, Normal';text-align:start;letter-spacing:-1.01654923px;word-spacing:0px;writing-mode:lr-tb;text-anchor:start;fill:#00a6d7;fill-opacity:1"
           id="path4206"
           inkscape:connector-curvature="0" />
        <path
           d="m 326.88617,235.38155 c 0,7.16873 3.46545,9.61493 8.0181,9.61493 4.55265,0 7.98413,-2.4462 7.98413,-9.61493 l 0,-13.08038 -2.718,0 0,13.14833 c 0,5.36805 -2.3103,7.0668 -5.26613,7.0668 -2.92185,0 -5.19818,-1.69875 -5.19818,-7.0668 l 0,-13.14833 -2.81992,0 0,13.08038 z"
           style="font-style:normal;font-variant:normal;font-weight:normal;font-stretch:normal;font-size:33.9750061px;line-height:100%;font-family:'Source Sans Pro';-inkscape-font-specification:'Source Sans Pro, Normal';text-align:start;letter-spacing:-1.01654923px;word-spacing:0px;writing-mode:lr-tb;text-anchor:start;fill:#00a6d7;fill-opacity:1"
           id="path4208"
           inkscape:connector-curvature="0" />
        <path
           d="m 347.8695,244.58878 2.68402,0 0,-11.65343 c 0,-2.34428 -0.20385,-4.72253 -0.37372,-6.96488 l 0.1359,0 2.41222,4.58663 8.08605,14.03168 2.92185,0 0,-22.28761 -2.68402,0 0,11.51753 c 0,2.34427 0.20385,4.85842 0.33975,7.10077 l -0.1359,0 -2.41223,-4.6206 -8.05207,-13.9977 -2.92185,0 0,22.28761 z"
           style="font-style:normal;font-variant:normal;font-weight:normal;font-stretch:normal;font-size:33.9750061px;line-height:100%;font-family:'Source Sans Pro';-inkscape-font-specification:'Source Sans Pro, Normal';text-align:start;letter-spacing:-1.01654923px;word-spacing:0px;writing-mode:lr-tb;text-anchor:start;fill:#00a6d7;fill-opacity:1"
           id="path4210"
           inkscape:connector-curvature="0" />
        <path
           d="m 368.81726,244.58878 2.81992,0 0,-22.28761 -2.81992,0 0,22.28761 z"
           style="font-style:normal;font-variant:normal;font-weight:normal;font-stretch:normal;font-size:33.9750061px;line-height:100%;font-family:'Source Sans Pro';-inkscape-font-specification:'Source Sans Pro, Normal';text-align:start;letter-spacing:-1.01654923px;word-spacing:0px;writing-mode:lr-tb;text-anchor:start;fill:#00a6d7;fill-opacity:1"
           id="path4212"
           inkscape:connector-curvature="0" />
        <path
           d="m 380.83597,244.58878 3.29557,0 7.06681,-22.28761 -2.88788,0 -3.56738,12.02715 c -0.78142,2.65005 -1.32502,4.7565 -2.14042,7.37258 l -0.1359,0 c -0.84938,-2.61608 -1.359,-4.72253 -2.1744,-7.37258 l -3.56738,-12.02715 -3.02377,0 7.13475,22.28761 z"
           style="font-style:normal;font-variant:normal;font-weight:normal;font-stretch:normal;font-size:33.9750061px;line-height:100%;font-family:'Source Sans Pro';-inkscape-font-specification:'Source Sans Pro, Normal';text-align:start;letter-spacing:-1.01654923px;word-spacing:0px;writing-mode:lr-tb;text-anchor:start;fill:#00a6d7;fill-opacity:1"
           id="path4214"
           inkscape:connector-curvature="0" />
        <path
           d="m 393.26077,244.58878 13.1823,0 0,-2.41223 -10.36238,0 0,-8.08605 8.45978,0 0,-2.41223 -8.45978,0 0,-6.99885 10.02263,0 0,-2.37825 -12.84255,0 0,22.28761 z"
           style="font-style:normal;font-variant:normal;font-weight:normal;font-stretch:normal;font-size:33.9750061px;line-height:100%;font-family:'Source Sans Pro';-inkscape-font-specification:'Source Sans Pro, Normal';text-align:start;letter-spacing:-1.01654923px;word-spacing:0px;writing-mode:lr-tb;text-anchor:start;fill:#00a6d7;fill-opacity:1"
           id="path4216"
           inkscape:connector-curvature="0" />
        <path
           d="m 412.98066,224.5775 3.73725,0 c 3.46545,0 5.40202,1.05322 5.40202,3.97507 0,2.88788 -1.93657,4.31483 -5.40202,4.31483 l -3.73725,0 0,-8.2899 z m 12.60472,20.01128 -5.63985,-9.71686 c 3.02378,-0.74745 4.99433,-2.8539 4.99433,-6.31935 0,-4.6206 -3.2616,-6.2514 -7.81425,-6.2514 l -6.96488,0 0,22.28761 2.81993,0 0,-9.41108 4.04302,0 5.36805,9.41108 3.19365,0 z"
           style="font-style:normal;font-variant:normal;font-weight:normal;font-stretch:normal;font-size:33.9750061px;line-height:100%;font-family:'Source Sans Pro';-inkscape-font-specification:'Source Sans Pro, Normal';text-align:start;letter-spacing:-1.01654923px;word-spacing:0px;writing-mode:lr-tb;text-anchor:start;fill:#00a6d7;fill-opacity:1"
           id="path4218"
           inkscape:connector-curvature="0" />
        <path
           d="m 426.75704,241.7009 c 1.93658,2.00453 4.68855,3.29558 7.81426,3.29558 4.68855,0 7.57642,-2.81993 7.57642,-6.35333 0,-3.29558 -2.00452,-4.82445 -4.58662,-5.94563 l -3.15968,-1.359 c -1.7667,-0.74745 -3.70328,-1.56285 -3.70328,-3.70327 0,-2.00453 1.66478,-3.2616 4.14496,-3.2616 2.07247,0 3.70327,0.8154 5.06227,2.10645 l 1.52888,-1.83465 c -1.59683,-1.6308 -3.9411,-2.75198 -6.59115,-2.75198 -4.04303,0 -6.99886,2.51415 -6.99886,5.91165 0,3.2616 2.41223,4.85843 4.51868,5.74178 l 3.19365,1.39297 c 2.10645,0.9513 3.70328,1.66478 3.70328,3.9411 0,2.1744 -1.73273,3.63533 -4.65458,3.63533 -2.3103,0 -4.55265,-1.12117 -6.14948,-2.78595 l -1.69875,1.97055 z"
           style="font-style:normal;font-variant:normal;font-weight:normal;font-stretch:normal;font-size:33.9750061px;line-height:100%;font-family:'Source Sans Pro';-inkscape-font-specification:'Source Sans Pro, Normal';text-align:start;letter-spacing:-1.01654923px;word-spacing:0px;writing-mode:lr-tb;text-anchor:start;fill:#00a6d7;fill-opacity:1"
           id="path4220"
           inkscape:connector-curvature="0" />
        <path
           d="m 445.48687,244.58878 2.81993,0 0,-22.28761 -2.81993,0 0,22.28761 z"
           style="font-style:normal;font-variant:normal;font-weight:normal;font-stretch:normal;font-size:33.9750061px;line-height:100%;font-family:'Source Sans Pro';-inkscape-font-specification:'Source Sans Pro, Normal';text-align:start;letter-spacing:-1.01654923px;word-spacing:0px;writing-mode:lr-tb;text-anchor:start;fill:#00a6d7;fill-opacity:1"
           id="path4222"
           inkscape:connector-curvature="0" />
        <path
           d="m 458.04917,244.58878 2.8539,0 0,-19.90936 6.72705,0 0,-2.37825 -16.308,0 0,2.37825 6.72705,0 0,19.90936 z"
           style="font-style:normal;font-variant:normal;font-weight:normal;font-stretch:normal;font-size:33.9750061px;line-height:100%;font-family:'Source Sans Pro';-inkscape-font-specification:'Source Sans Pro, Normal';text-align:start;letter-spacing:-1.01654923px;word-spacing:0px;writing-mode:lr-tb;text-anchor:start;fill:#00a6d7;fill-opacity:1"
           id="path4224"
           inkscape:connector-curvature="0" />
        <path
           d="m 473.73082,244.58878 2.8539,0 0,-8.62966 6.69307,-13.65795 -2.95582,0 -2.8539,6.28538 c -0.6795,1.6308 -1.46093,3.19365 -2.24235,4.85842 l -0.1359,0 c -0.74745,-1.66477 -1.42695,-3.22762 -2.14043,-4.85842 l -2.88787,-6.28538 -3.02378,0 6.69308,13.65795 0,8.62966 z"
           style="font-style:normal;font-variant:normal;font-weight:normal;font-stretch:normal;font-size:33.9750061px;line-height:100%;font-family:'Source Sans Pro';-inkscape-font-specification:'Source Sans Pro, Normal';text-align:start;letter-spacing:-1.01654923px;word-spacing:0px;writing-mode:lr-tb;text-anchor:start;fill:#00a6d7;fill-opacity:1"
           id="path4226"
           inkscape:connector-curvature="0" />
        <path
           d="m 244.16206,278.97148 c 5.60587,0 9.54697,-4.4847 9.54697,-11.65343 0,-7.10077 -3.9411,-11.44957 -9.54697,-11.44957 -5.60588,0 -9.513,4.31482 -9.513,11.44957 0,7.16873 3.90712,11.65343 9.513,11.65343 z m 0,-2.48017 c -3.97508,0 -6.59115,-3.60135 -6.59115,-9.17326 0,-5.53792 2.61607,-8.9694 6.59115,-8.9694 3.97507,0 6.59115,3.43148 6.59115,8.9694 0,5.57191 -2.61608,9.17326 -6.59115,9.17326 z"
           style="font-style:normal;font-variant:normal;font-weight:normal;font-stretch:normal;font-size:33.9750061px;line-height:100%;font-family:'Source Sans Pro';-inkscape-font-specification:'Source Sans Pro, Normal';text-align:start;letter-spacing:0.55910206px;word-spacing:0px;writing-mode:lr-tb;text-anchor:start;fill:#00a6d7;fill-opacity:1"
           id="path4228"
           inkscape:connector-curvature="0" />
        <path
           d="m 259.06073,278.56378 2.81993,0 0,-9.98865 8.49375,0 0,-2.37825 -8.49375,0 0,-7.54245 10.02263,0 0,-2.37825 -12.84256,0 0,22.2876 z"
           style="font-style:normal;font-variant:normal;font-weight:normal;font-stretch:normal;font-size:33.9750061px;line-height:100%;font-family:'Source Sans Pro';-inkscape-font-specification:'Source Sans Pro, Normal';text-align:start;letter-spacing:0.55910206px;word-spacing:0px;writing-mode:lr-tb;text-anchor:start;fill:#00a6d7;fill-opacity:1"
           id="path4230"
           inkscape:connector-curvature="0" />
        <path
           d="m 288.42279,278.56378 2.8539,0 0,-19.90935 6.72705,0 0,-2.37825 -16.30801,0 0,2.37825 6.72706,0 0,19.90935 z"
           style="font-style:normal;font-variant:normal;font-weight:normal;font-stretch:normal;font-size:33.9750061px;line-height:100%;font-family:'Source Sans Pro';-inkscape-font-specification:'Source Sans Pro, Normal';text-align:start;letter-spacing:0.55910206px;word-spacing:0px;writing-mode:lr-tb;text-anchor:start;fill:#00a6d7;fill-opacity:1"
           id="path4232"
           inkscape:connector-curvature="0" />
        <path
           d="m 302.54322,278.56378 13.18231,0 0,-2.41222 -10.36238,0 0,-8.08606 8.45978,0 0,-2.41222 -8.45978,0 0,-6.99885 10.02263,0 0,-2.37825 -12.84256,0 0,22.2876 z"
           style="font-style:normal;font-variant:normal;font-weight:normal;font-stretch:normal;font-size:33.9750061px;line-height:100%;font-family:'Source Sans Pro';-inkscape-font-specification:'Source Sans Pro, Normal';text-align:start;letter-spacing:0.55910206px;word-spacing:0px;writing-mode:lr-tb;text-anchor:start;fill:#00a6d7;fill-opacity:1"
           id="path4234"
           inkscape:connector-curvature="0" />
        <path
           d="m 319.72778,267.41998 c 0,7.27065 4.14495,11.5515 9.75083,11.5515 2.8539,0 5.0283,-1.18912 6.795,-3.22762 l -1.59682,-1.73273 c -1.42695,1.59683 -2.98981,2.48018 -5.13023,2.48018 -4.2129,0 -6.89693,-3.5334 -6.89693,-9.13928 0,-5.53793 2.78595,-9.00338 7.03283,-9.00338 1.86862,0 3.29558,0.8154 4.45073,2.07248 l 1.59682,-1.80068 c -1.29105,-1.46092 -3.3975,-2.75197 -6.08153,-2.75197 -5.7078,0 -9.9207,4.38277 -9.9207,11.5515 z"
           style="font-style:normal;font-variant:normal;font-weight:normal;font-stretch:normal;font-size:33.9750061px;line-height:100%;font-family:'Source Sans Pro';-inkscape-font-specification:'Source Sans Pro, Normal';text-align:start;letter-spacing:0.55910206px;word-spacing:0px;writing-mode:lr-tb;text-anchor:start;fill:#00a6d7;fill-opacity:1"
           id="path4236"
           inkscape:connector-curvature="0" />
        <path
           d="m 340.9543,278.56378 2.81993,0 0,-10.49828 10.36238,0 0,10.49828 2.8539,0 0,-22.2876 -2.8539,0 0,9.34312 -10.36238,0 0,-9.34312 -2.81993,0 0,22.2876 z"
           style="font-style:normal;font-variant:normal;font-weight:normal;font-stretch:normal;font-size:33.9750061px;line-height:100%;font-family:'Source Sans Pro';-inkscape-font-specification:'Source Sans Pro, Normal';text-align:start;letter-spacing:0.55910206px;word-spacing:0px;writing-mode:lr-tb;text-anchor:start;fill:#00a6d7;fill-opacity:1"
           id="path4238"
           inkscape:connector-curvature="0" />
        <path
           d="m 363.67679,278.56378 2.68403,0 0,-11.65343 c 0,-2.34427 -0.20385,-4.72252 -0.37373,-6.96487 l 0.1359,0 2.41223,4.58662 8.08605,14.03168 2.92185,0 0,-22.2876 -2.68403,0 0,11.51752 c 0,2.34428 0.20385,4.85843 0.33975,7.10078 l -0.1359,0 -2.41222,-4.6206 -8.05208,-13.9977 -2.92185,0 0,22.2876 z"
           style="font-style:normal;font-variant:normal;font-weight:normal;font-stretch:normal;font-size:33.9750061px;line-height:100%;font-family:'Source Sans Pro';-inkscape-font-specification:'Source Sans Pro, Normal';text-align:start;letter-spacing:0.55910206px;word-spacing:0px;writing-mode:lr-tb;text-anchor:start;fill:#00a6d7;fill-opacity:1"
           id="path4240"
           inkscape:connector-curvature="0" />
        <path
           d="m 394.42216,278.97148 c 5.60587,0 9.54697,-4.4847 9.54697,-11.65343 0,-7.10077 -3.9411,-11.44957 -9.54697,-11.44957 -5.60588,0 -9.513,4.31482 -9.513,11.44957 0,7.16873 3.90712,11.65343 9.513,11.65343 z m 0,-2.48017 c -3.97508,0 -6.59115,-3.60135 -6.59115,-9.17326 0,-5.53792 2.61607,-8.9694 6.59115,-8.9694 3.97507,0 6.59115,3.43148 6.59115,8.9694 0,5.57191 -2.61608,9.17326 -6.59115,9.17326 z"
           style="font-style:normal;font-variant:normal;font-weight:normal;font-stretch:normal;font-size:33.9750061px;line-height:100%;font-family:'Source Sans Pro';-inkscape-font-specification:'Source Sans Pro, Normal';text-align:start;letter-spacing:0.55910206px;word-spacing:0px;writing-mode:lr-tb;text-anchor:start;fill:#00a6d7;fill-opacity:1"
           id="path4242"
           inkscape:connector-curvature="0" />
        <path
           d="m 409.32083,278.56378 12.57075,0 0,-2.41222 -9.75083,0 0,-19.87538 -2.81992,0 0,22.2876 z"
           style="font-style:normal;font-variant:normal;font-weight:normal;font-stretch:normal;font-size:33.9750061px;line-height:100%;font-family:'Source Sans Pro';-inkscape-font-specification:'Source Sans Pro, Normal';text-align:start;letter-spacing:0.55910206px;word-spacing:0px;writing-mode:lr-tb;text-anchor:start;fill:#00a6d7;fill-opacity:1"
           id="path4244"
           inkscape:connector-curvature="0" />
        <path
           d="m 433.76225,278.97148 c 5.60587,0 9.54697,-4.4847 9.54697,-11.65343 0,-7.10077 -3.9411,-11.44957 -9.54697,-11.44957 -5.60588,0 -9.51301,4.31482 -9.51301,11.44957 0,7.16873 3.90713,11.65343 9.51301,11.65343 z m 0,-2.48017 c -3.97508,0 -6.59116,-3.60135 -6.59116,-9.17326 0,-5.53792 2.61608,-8.9694 6.59116,-8.9694 3.97507,0 6.59115,3.43148 6.59115,8.9694 0,5.57191 -2.61608,9.17326 -6.59115,9.17326 z"
           style="font-style:normal;font-variant:normal;font-weight:normal;font-stretch:normal;font-size:33.9750061px;line-height:100%;font-family:'Source Sans Pro';-inkscape-font-specification:'Source Sans Pro, Normal';text-align:start;letter-spacing:0.55910206px;word-spacing:0px;writing-mode:lr-tb;text-anchor:start;fill:#00a6d7;fill-opacity:1"
           id="path4246"
           inkscape:connector-curvature="0" />
        <path
           d="m 447.36986,267.41998 c 0,7.27065 4.17893,11.5515 10.02263,11.5515 2.9898,0 5.436,-1.0872 6.89693,-2.5821 l 0,-9.3771 -7.30463,0 0,2.34428 4.72253,0 0,5.80972 c -0.88335,0.8154 -2.41223,1.32503 -4.00905,1.32503 -4.7565,0 -7.40655,-3.5334 -7.40655,-9.13928 0,-5.53793 2.88787,-9.00338 7.37257,-9.00338 2.24235,0 3.63533,0.88335 4.7565,2.07248 l 1.59683,-1.80068 c -1.29105,-1.359 -3.32955,-2.75197 -6.3873,-2.75197 -5.94563,0 -10.26046,4.38277 -10.26046,11.5515 z"
           style="font-style:normal;font-variant:normal;font-weight:normal;font-stretch:normal;font-size:33.9750061px;line-height:100%;font-family:'Source Sans Pro';-inkscape-font-specification:'Source Sans Pro, Normal';text-align:start;letter-spacing:0.55910206px;word-spacing:0px;writing-mode:lr-tb;text-anchor:start;fill:#00a6d7;fill-opacity:1"
           id="path4248"
           inkscape:connector-curvature="0" />
        <path
           d="m 473.79033,278.56378 2.8539,0 0,-8.62965 6.69307,-13.65795 -2.95582,0 -2.8539,6.28537 c -0.6795,1.6308 -1.46093,3.19365 -2.24235,4.85843 l -0.1359,0 c -0.74745,-1.66478 -1.42695,-3.22763 -2.14043,-4.85843 l -2.88787,-6.28537 -3.02378,0 6.69308,13.65795 0,8.62965 z"
           style="font-style:normal;font-variant:normal;font-weight:normal;font-stretch:normal;font-size:33.9750061px;line-height:100%;font-family:'Source Sans Pro';-inkscape-font-specification:'Source Sans Pro, Normal';text-align:start;letter-spacing:0.55910206px;word-spacing:0px;writing-mode:lr-tb;text-anchor:start;fill:#00a6d7;fill-opacity:1"
           id="path4250"
           inkscape:connector-curvature="0" />
        <path
           d="m 240.56071,312.53879 2.8539,0 0,-19.90936 6.72705,0 0,-2.37825 -16.30801,0 0,2.37825 6.72706,0 0,19.90936 z"
           style="font-style:normal;font-variant:normal;font-weight:normal;font-stretch:normal;font-size:33.9750061px;line-height:100%;font-family:'Source Sans Pro';-inkscape-font-specification:'Source Sans Pro, Normal';text-align:start;letter-spacing:-1.82995009px;word-spacing:-2.41122818px;writing-mode:lr-tb;text-anchor:start;fill:#00a6d7;fill-opacity:1"
           id="path4252"
           inkscape:connector-curvature="0" />
        <path
           d="m 252.29209,312.53879 2.81993,0 0,-10.49828 10.36237,0 0,10.49828 2.8539,0 0,-22.28761 -2.8539,0 0,9.34313 -10.36237,0 0,-9.34313 -2.81993,0 0,22.28761 z"
           style="font-style:normal;font-variant:normal;font-weight:normal;font-stretch:normal;font-size:33.9750061px;line-height:100%;font-family:'Source Sans Pro';-inkscape-font-specification:'Source Sans Pro, Normal';text-align:start;letter-spacing:-1.82995009px;word-spacing:-2.41122818px;writing-mode:lr-tb;text-anchor:start;fill:#00a6d7;fill-opacity:1"
           id="path4254"
           inkscape:connector-curvature="0" />
        <path
           d="m 272.62553,312.53879 13.1823,0 0,-2.41223 -10.36238,0 0,-8.08605 8.45978,0 0,-2.41222 -8.45978,0 0,-6.99886 10.02263,0 0,-2.37825 -12.84255,0 0,22.28761 z"
           style="font-style:normal;font-variant:normal;font-weight:normal;font-stretch:normal;font-size:33.9750061px;line-height:100%;font-family:'Source Sans Pro';-inkscape-font-specification:'Source Sans Pro, Normal';text-align:start;letter-spacing:-1.82995009px;word-spacing:-2.41122818px;writing-mode:lr-tb;text-anchor:start;fill:#00a6d7;fill-opacity:1"
           id="path4256"
           inkscape:connector-curvature="0" />
        <path
           d="m 291.30572,312.53879 2.68403,0 0,-11.65343 c 0,-2.34427 -0.20385,-4.72253 -0.37373,-6.96488 l 0.1359,0 2.41223,4.58663 8.08605,14.03168 2.92185,0 0,-22.28761 -2.68403,0 0,11.51753 c 0,2.34428 0.20385,4.85843 0.33975,7.10078 l -0.1359,0 -2.41222,-4.6206 -8.05208,-13.99771 -2.92185,0 0,22.28761 z"
           style="font-style:normal;font-variant:normal;font-weight:normal;font-stretch:normal;font-size:33.9750061px;line-height:100%;font-family:'Source Sans Pro';-inkscape-font-specification:'Source Sans Pro, Normal';text-align:start;letter-spacing:-1.82995009px;word-spacing:-2.41122818px;writing-mode:lr-tb;text-anchor:start;fill:#00a6d7;fill-opacity:1"
           id="path4258"
           inkscape:connector-curvature="0" />
        <path
           d="m 311.44008,312.53879 13.1823,0 0,-2.41223 -10.36237,0 0,-8.08605 8.45977,0 0,-2.41222 -8.45977,0 0,-6.99886 10.02262,0 0,-2.37825 -12.84255,0 0,22.28761 z"
           style="font-style:normal;font-variant:normal;font-weight:normal;font-stretch:normal;font-size:33.9750061px;line-height:100%;font-family:'Source Sans Pro';-inkscape-font-specification:'Source Sans Pro, Normal';text-align:start;letter-spacing:-1.82995009px;word-spacing:-2.41122818px;writing-mode:lr-tb;text-anchor:start;fill:#00a6d7;fill-opacity:1"
           id="path4260"
           inkscape:connector-curvature="0" />
        <path
           d="m 332.14724,312.53879 2.8539,0 0,-19.90936 6.72705,0 0,-2.37825 -16.308,0 0,2.37825 6.72705,0 0,19.90936 z"
           style="font-style:normal;font-variant:normal;font-weight:normal;font-stretch:normal;font-size:33.9750061px;line-height:100%;font-family:'Source Sans Pro';-inkscape-font-specification:'Source Sans Pro, Normal';text-align:start;letter-spacing:-1.82995009px;word-spacing:-2.41122818px;writing-mode:lr-tb;text-anchor:start;fill:#00a6d7;fill-opacity:1"
           id="path4262"
           inkscape:connector-curvature="0" />
        <path
           d="m 343.87862,312.53879 2.81993,0 0,-10.49828 10.36237,0 0,10.49828 2.8539,0 0,-22.28761 -2.8539,0 0,9.34313 -10.36237,0 0,-9.34313 -2.81993,0 0,22.28761 z"
           style="font-style:normal;font-variant:normal;font-weight:normal;font-stretch:normal;font-size:33.9750061px;line-height:100%;font-family:'Source Sans Pro';-inkscape-font-specification:'Source Sans Pro, Normal';text-align:start;letter-spacing:-1.82995009px;word-spacing:-2.41122818px;writing-mode:lr-tb;text-anchor:start;fill:#00a6d7;fill-opacity:1"
           id="path4264"
           inkscape:connector-curvature="0" />
        <path
           d="m 364.21206,312.53879 13.18231,0 0,-2.41223 -10.36238,0 0,-8.08605 8.45977,0 0,-2.41222 -8.45977,0 0,-6.99886 10.02262,0 0,-2.37825 -12.84255,0 0,22.28761 z"
           style="font-style:normal;font-variant:normal;font-weight:normal;font-stretch:normal;font-size:33.9750061px;line-height:100%;font-family:'Source Sans Pro';-inkscape-font-specification:'Source Sans Pro, Normal';text-align:start;letter-spacing:-1.82995009px;word-spacing:-2.41122818px;writing-mode:lr-tb;text-anchor:start;fill:#00a6d7;fill-opacity:1"
           id="path4266"
           inkscape:connector-curvature="0" />
        <path
           d="m 383.11854,292.52751 3.73725,0 c 3.46545,0 5.40202,1.05322 5.40202,3.97507 0,2.88788 -1.93657,4.31483 -5.40202,4.31483 l -3.73725,0 0,-8.2899 z m 12.60472,20.01128 -5.63985,-9.71685 c 3.02378,-0.74745 4.99433,-2.8539 4.99433,-6.31936 0,-4.6206 -3.2616,-6.2514 -7.81425,-6.2514 l -6.96488,0 0,22.28761 2.81993,0 0,-9.41108 4.04302,0 5.36805,9.41108 3.19365,0 z"
           style="font-style:normal;font-variant:normal;font-weight:normal;font-stretch:normal;font-size:33.9750061px;line-height:100%;font-family:'Source Sans Pro';-inkscape-font-specification:'Source Sans Pro, Normal';text-align:start;letter-spacing:-1.82995009px;word-spacing:-2.41122818px;writing-mode:lr-tb;text-anchor:start;fill:#00a6d7;fill-opacity:1"
           id="path4268"
           inkscape:connector-curvature="0" />
        <path
           d="m 398.17683,312.53879 12.57075,0 0,-2.41223 -9.75082,0 0,-19.87538 -2.81993,0 0,22.28761 z"
           style="font-style:normal;font-variant:normal;font-weight:normal;font-stretch:normal;font-size:33.9750061px;line-height:100%;font-family:'Source Sans Pro';-inkscape-font-specification:'Source Sans Pro, Normal';text-align:start;letter-spacing:-1.82995009px;word-spacing:-2.41122818px;writing-mode:lr-tb;text-anchor:start;fill:#00a6d7;fill-opacity:1"
           id="path4270"
           inkscape:connector-curvature="0" />
        <path
           d="m 415.78854,303.46746 1.05323,-3.3975 c 0.8154,-2.48017 1.52887,-4.92638 2.20837,-7.50848 l 0.1359,0 c 0.71348,2.5821 1.42695,5.02831 2.24235,7.50848 l 1.05323,3.3975 -6.69308,0 z m 9.513,9.07133 3.02378,0 -7.54245,-22.28761 -3.19365,0 -7.54246,22.28761 2.88788,0 2.14043,-6.795 8.12002,0 2.10645,6.795 z"
           style="font-style:normal;font-variant:normal;font-weight:normal;font-stretch:normal;font-size:33.9750061px;line-height:100%;font-family:'Source Sans Pro';-inkscape-font-specification:'Source Sans Pro, Normal';text-align:start;letter-spacing:-1.82995009px;word-spacing:-2.41122818px;writing-mode:lr-tb;text-anchor:start;fill:#00a6d7;fill-opacity:1"
           id="path4272"
           inkscape:connector-curvature="0" />
        <path
           d="m 429.68637,312.53879 2.68402,0 0,-11.65343 c 0,-2.34427 -0.20385,-4.72253 -0.37372,-6.96488 l 0.1359,0 2.41222,4.58663 8.08605,14.03168 2.92185,0 0,-22.28761 -2.68402,0 0,11.51753 c 0,2.34428 0.20385,4.85843 0.33975,7.10078 l -0.1359,0 -2.41223,-4.6206 -8.05207,-13.99771 -2.92185,0 0,22.28761 z"
           style="font-style:normal;font-variant:normal;font-weight:normal;font-stretch:normal;font-size:33.9750061px;line-height:100%;font-family:'Source Sans Pro';-inkscape-font-specification:'Source Sans Pro, Normal';text-align:start;letter-spacing:-1.82995009px;word-spacing:-2.41122818px;writing-mode:lr-tb;text-anchor:start;fill:#00a6d7;fill-opacity:1"
           id="path4274"
           inkscape:connector-curvature="0" />
        <path
           d="m 449.82072,312.53879 5.7078,0 c 6.72705,0 10.39635,-4.14495 10.39635,-11.24573 0,-7.0668 -3.6693,-11.04188 -10.53225,-11.04188 l -5.5719,0 0,22.28761 z m 2.81993,-2.3103 0,-17.66701 2.54812,0 c 5.19818,0 7.81425,3.1257 7.81425,8.73158 0,5.63985 -2.61607,8.93543 -7.81425,8.93543 l -2.54812,0 z"
           style="font-style:normal;font-variant:normal;font-weight:normal;font-stretch:normal;font-size:33.9750061px;line-height:100%;font-family:'Source Sans Pro';-inkscape-font-specification:'Source Sans Pro, Normal';text-align:start;letter-spacing:-1.82995009px;word-spacing:-2.41122818px;writing-mode:lr-tb;text-anchor:start;fill:#00a6d7;fill-opacity:1"
           id="path4276"
           inkscape:connector-curvature="0" />
        <path
           d="m 467.26257,309.65091 c 1.93657,2.00453 4.68855,3.29558 7.81425,3.29558 4.68855,0 7.57643,-2.81993 7.57643,-6.35333 0,-3.29557 -2.00453,-4.82445 -4.58663,-5.94562 l -3.15968,-1.359 c -1.7667,-0.74745 -3.70327,-1.56285 -3.70327,-3.70328 0,-2.00453 1.66477,-3.2616 4.14495,-3.2616 2.07247,0 3.70327,0.8154 5.06227,2.10645 l 1.52888,-1.83465 c -1.59683,-1.6308 -3.9411,-2.75198 -6.59115,-2.75198 -4.04303,0 -6.99885,2.51415 -6.99885,5.91165 0,3.26161 2.41222,4.85843 4.51867,5.74178 l 3.19365,1.39298 c 2.10645,0.9513 3.70328,1.66477 3.70328,3.9411 0,2.1744 -1.73273,3.63532 -4.65458,3.63532 -2.3103,0 -4.55265,-1.12117 -6.14947,-2.78595 l -1.69875,1.97055 z"
           style="font-style:normal;font-variant:normal;font-weight:normal;font-stretch:normal;font-size:33.9750061px;line-height:100%;font-family:'Source Sans Pro';-inkscape-font-specification:'Source Sans Pro, Normal';text-align:start;letter-spacing:-1.82995009px;word-spacing:-2.41122818px;writing-mode:lr-tb;text-anchor:start;fill:#00a6d7;fill-opacity:1"
           id="path4278"
           inkscape:connector-curvature="0" />
      </g>
      <g
         style="font-style:normal;font-variant:normal;font-weight:normal;font-stretch:normal;font-size:16.65104485px;line-height:100%;font-family:Arial;-inkscape-font-specification:'Arial, Normal';text-align:start;letter-spacing:-0.54173154px;word-spacing:0px;writing-mode:lr-tb;text-anchor:start;fill:#66808e;fill-opacity:1;stroke:none;stroke-width:1px;stroke-linecap:butt;stroke-linejoin:miter;stroke-opacity:1"
         id="text4216-2-1">
        <path
           d="m 238.29523,346.50027 3.2616,0 2.3103,-8.8335 c 0.44168,-1.56285 0.78143,-3.1257 1.15515,-4.79047 l 0.1359,0 c 0.4077,1.66477 0.71348,3.19365 1.12118,4.7565 l 2.37825,8.86747 3.3975,0 4.41675,-16.51185 -2.65005,0 -2.41223,9.54698 c -0.33975,1.56285 -0.64552,3.05775 -1.01925,4.58662 l -0.1359,0 c -0.37372,-1.52887 -0.74745,-3.02377 -1.15515,-4.58662 l -2.5821,-9.54698 -2.718,0 -2.54812,9.54698 c -0.4077,1.52887 -0.74745,3.05775 -1.12118,4.58662 l -0.1359,0 c -0.30578,-1.52887 -0.61155,-3.02377 -0.98528,-4.58662 l -2.4462,-9.54698 -2.8539,0 4.58663,16.51185 z"
           style="font-style:normal;font-variant:normal;font-weight:normal;font-stretch:normal;font-size:33.9750061px;font-family:'Source Sans Pro';-inkscape-font-specification:'Source Sans Pro';letter-spacing:-0.96879709px;word-spacing:0px;fill:#66808e;fill-opacity:1"
           id="path4281"
           inkscape:connector-curvature="0" />
        <path
           d="m 261.74597,346.50027 3.2616,0 2.3103,-8.8335 c 0.44167,-1.56285 0.78142,-3.1257 1.15515,-4.79047 l 0.1359,0 c 0.4077,1.66477 0.71347,3.19365 1.12118,4.7565 l 2.37825,8.86747 3.3975,0 4.41675,-16.51185 -2.65005,0 -2.41223,9.54698 c -0.33975,1.56285 -0.64552,3.05775 -1.01925,4.58662 l -0.1359,0 c -0.37372,-1.52887 -0.74745,-3.02377 -1.15515,-4.58662 l -2.5821,-9.54698 -2.718,0 -2.54813,9.54698 c -0.4077,1.52887 -0.74745,3.05775 -1.12117,4.58662 l -0.1359,0 c -0.30578,-1.52887 -0.61155,-3.02377 -0.98528,-4.58662 l -2.4462,-9.54698 -2.8539,0 4.58663,16.51185 z"
           style="font-style:normal;font-variant:normal;font-weight:normal;font-stretch:normal;font-size:33.9750061px;font-family:'Source Sans Pro';-inkscape-font-specification:'Source Sans Pro';letter-spacing:-0.96879709px;word-spacing:0px;fill:#66808e;fill-opacity:1"
           id="path4283"
           inkscape:connector-curvature="0" />
        <path
           d="m 285.19671,346.50027 3.2616,0 2.3103,-8.8335 c 0.44167,-1.56285 0.78142,-3.1257 1.15515,-4.79047 l 0.1359,0 c 0.4077,1.66477 0.71347,3.19365 1.12117,4.7565 l 2.37825,8.86747 3.3975,0 4.41676,-16.51185 -2.65005,0 -2.41223,9.54698 c -0.33975,1.56285 -0.64553,3.05775 -1.01925,4.58662 l -0.1359,0 c -0.37373,-1.52887 -0.74745,-3.02377 -1.15515,-4.58662 l -2.5821,-9.54698 -2.718,0 -2.54813,9.54698 c -0.4077,1.52887 -0.74745,3.05775 -1.12117,4.58662 l -0.1359,0 c -0.30578,-1.52887 -0.61155,-3.02377 -0.98528,-4.58662 l -2.4462,-9.54698 -2.8539,0 4.58663,16.51185 z"
           style="font-style:normal;font-variant:normal;font-weight:normal;font-stretch:normal;font-size:33.9750061px;font-family:'Source Sans Pro';-inkscape-font-specification:'Source Sans Pro';letter-spacing:-0.96879709px;word-spacing:0px;fill:#66808e;fill-opacity:1"
           id="path4285"
           inkscape:connector-curvature="0" />
        <path
           d="m 304.06029,344.80152 c 0,1.2231 0.91732,2.10645 2.0385,2.10645 1.0872,0 2.00452,-0.88335 2.00452,-2.10645 0,-1.29105 -0.91732,-2.1744 -2.00452,-2.1744 -1.12118,0 -2.0385,0.88335 -2.0385,2.1744 z"
           style="font-style:normal;font-variant:normal;font-weight:normal;font-stretch:normal;font-size:33.9750061px;font-family:'Source Sans Pro';-inkscape-font-specification:'Source Sans Pro';letter-spacing:-0.96879709px;word-spacing:0px;fill:#66808e;fill-opacity:1"
           id="path4287"
           inkscape:connector-curvature="0" />
        <path
           d="m 311.28106,342.21942 c 0,2.95583 2.07247,4.68855 4.85842,4.68855 2.03851,0 3.87316,-1.0872 5.46998,-2.37825 l 0.0679,0 0.23783,1.97055 2.3103,0 0,-10.12455 c 0,-4.11097 -1.69875,-6.795 -5.74178,-6.795 -2.65005,0 -4.96035,1.15515 -6.48923,2.14043 l 1.12118,1.93657 c 1.29105,-0.88335 2.9898,-1.7667 4.92638,-1.7667 2.68402,0 3.3975,2.0385 3.3975,4.14495 -7.03283,0.78143 -10.15853,2.5821 -10.15853,6.18345 z m 2.75197,-0.20385 c 0,-2.10645 1.86863,-3.46545 7.40656,-4.14495 l 0,4.58663 c -1.59683,1.42695 -2.92185,2.20837 -4.51868,2.20837 -1.6308,0 -2.88788,-0.78142 -2.88788,-2.65005 z"
           style="font-style:normal;font-variant:normal;font-weight:normal;font-stretch:normal;font-size:33.9750061px;font-family:'Source Sans Pro';-inkscape-font-specification:'Source Sans Pro';letter-spacing:-0.96879709px;word-spacing:0px;fill:#66808e;fill-opacity:1"
           id="path4289"
           inkscape:connector-curvature="0" />
        <path
           d="m 331.12939,346.50027 3.2616,0 2.3103,-8.8335 c 0.44168,-1.56285 0.78143,-3.1257 1.15515,-4.79047 l 0.1359,0 c 0.4077,1.66477 0.71348,3.19365 1.12118,4.7565 l 2.37825,8.86747 3.3975,0 4.41675,-16.51185 -2.65005,0 -2.41223,9.54698 c -0.33975,1.56285 -0.64552,3.05775 -1.01925,4.58662 l -0.1359,0 c -0.37372,-1.52887 -0.74745,-3.02377 -1.15515,-4.58662 l -2.5821,-9.54698 -2.718,0 -2.54812,9.54698 c -0.4077,1.52887 -0.74746,3.05775 -1.12118,4.58662 l -0.1359,0 c -0.30578,-1.52887 -0.61155,-3.02377 -0.98528,-4.58662 l -2.4462,-9.54698 -2.8539,0 4.58663,16.51185 z"
           style="font-style:normal;font-variant:normal;font-weight:normal;font-stretch:normal;font-size:33.9750061px;font-family:'Source Sans Pro';-inkscape-font-specification:'Source Sans Pro';letter-spacing:-0.96879709px;word-spacing:0px;fill:#66808e;fill-opacity:1"
           id="path4291"
           inkscape:connector-curvature="0" />
        <path
           d="m 350.60824,338.27832 c 0,5.40203 3.49942,8.62965 7.91617,8.62965 2.24235,0 4.00905,-0.78142 5.436,-1.69875 l -0.98527,-1.83465 c -1.2231,0.78143 -2.54813,1.29105 -4.11098,1.29105 -3.15967,0 -5.3001,-2.24235 -5.50395,-5.80972 l 11.14381,0 c 0.0679,-0.4077 0.10192,-0.9513 0.10192,-1.52888 0,-4.72252 -2.37825,-7.7463 -6.59115,-7.7463 -3.77123,0 -7.40655,3.29558 -7.40655,8.6976 z m 2.718,-1.25707 c 0.33975,-3.32955 2.4462,-5.23215 4.7565,-5.23215 2.5821,0 4.077,1.86862 4.077,5.23215 l -8.8335,0 z"
           style="font-style:normal;font-variant:normal;font-weight:normal;font-stretch:normal;font-size:33.9750061px;font-family:'Source Sans Pro';-inkscape-font-specification:'Source Sans Pro';letter-spacing:-0.96879709px;word-spacing:0px;fill:#66808e;fill-opacity:1"
           id="path4293"
           inkscape:connector-curvature="0" />
        <path
           d="m 366.49423,338.27832 c 0,5.46998 3.36353,8.62965 7.7463,8.62965 1.97055,0 3.87315,-0.8154 5.36805,-2.14042 l -1.25707,-1.83465 c -0.98528,0.88335 -2.3103,1.66477 -3.87315,1.66477 -3.02378,0 -5.09625,-2.54812 -5.09625,-6.31935 0,-3.8052 2.1744,-6.3873 5.1642,-6.3873 1.32502,0 2.34427,0.61155 3.32955,1.46093 l 1.39297,-1.80068 c -1.12117,-1.05322 -2.65005,-1.97055 -4.82445,-1.97055 -4.24687,0 -7.95015,3.15968 -7.95015,8.6976 z"
           style="font-style:normal;font-variant:normal;font-weight:normal;font-stretch:normal;font-size:33.9750061px;font-family:'Source Sans Pro';-inkscape-font-specification:'Source Sans Pro';letter-spacing:-0.96879709px;word-spacing:0px;fill:#66808e;fill-opacity:1"
           id="path4295"
           inkscape:connector-curvature="0" />
        <path
           d="m 380.78286,346.50027 13.9977,0 0,-2.41222 -6.28537,0 c -1.12118,0 -2.44621,0.10192 -3.63533,0.20385 5.13023,-5.36805 8.8335,-9.41108 8.8335,-13.48808 0,-3.83917 -2.48017,-6.3873 -6.48922,-6.3873 -2.81993,0 -4.75651,1.32503 -6.55718,3.29558 l 1.59682,1.59682 c 1.25708,-1.46092 2.81993,-2.61607 4.6206,-2.61607 2.75198,0 4.11098,1.7667 4.11098,4.24687 0,3.49943 -3.6693,7.40655 -10.1925,13.89578 l 0,1.66477 z"
           style="font-style:normal;font-variant:normal;font-weight:normal;font-stretch:normal;font-size:33.9750061px;font-family:'Source Sans Pro';-inkscape-font-specification:'Source Sans Pro';letter-spacing:-0.96879709px;word-spacing:0px;fill:#66808e;fill-opacity:1"
           id="path4297"
           inkscape:connector-curvature="0" />
        <path
           d="m 403.76962,346.90797 c 4.31483,0 6.9309,-4.04302 6.9309,-11.31367 0,-7.27065 -2.61607,-11.17778 -6.9309,-11.17778 -4.3488,0 -6.96487,3.90713 -6.96487,11.17778 0,7.27065 2.61607,11.31367 6.96487,11.31367 z m 0,-2.24235 c -2.54812,0 -4.24687,-2.718 -4.24687,-9.07132 0,-6.35333 1.69875,-8.93543 4.24687,-8.93543 2.51415,0 4.2129,2.5821 4.2129,8.93543 0,6.35332 -1.69875,9.07132 -4.2129,9.07132 z"
           style="font-style:normal;font-variant:normal;font-weight:normal;font-stretch:normal;font-size:33.9750061px;font-family:'Source Sans Pro';-inkscape-font-specification:'Source Sans Pro';letter-spacing:-0.96879709px;word-spacing:0px;fill:#66808e;fill-opacity:1"
           id="path4299"
           inkscape:connector-curvature="0" />
        <path
           d="m 413.87987,346.50027 12.231,0 0,-2.3103 -4.4847,0 0,-19.36575 -2.14042,0 c -1.18913,0.71348 -2.61608,1.25708 -4.58663,1.59683 l 0,1.80067 3.9411,0 0,15.96825 -4.96035,0 0,2.3103 z"
           style="font-style:normal;font-variant:normal;font-weight:normal;font-stretch:normal;font-size:33.9750061px;font-family:'Source Sans Pro';-inkscape-font-specification:'Source Sans Pro';letter-spacing:-0.96879709px;word-spacing:0px;fill:#66808e;fill-opacity:1"
           id="path4301"
           inkscape:connector-curvature="0" />
        <path
           d="m 427.93121,343.95215 c 1.4949,1.4949 3.63532,2.95582 7.10077,2.95582 3.77123,0 7.30463,-2.65005 7.30463,-7.3386 0,-4.68855 -3.02377,-6.795 -6.72705,-6.795 -1.32503,0 -2.3103,0.33975 -3.32955,0.88335 l 0.57757,-6.42127 8.39183,0 0,-2.41223 -10.83803,0 -0.71347,10.43033 1.4949,0.9513 c 1.29105,-0.84938 2.20837,-1.32503 3.70327,-1.32503 2.78595,0 4.62061,1.7667 4.62061,4.7565 0,3.02378 -2.10646,4.96035 -4.75651,4.96035 -2.54812,0 -4.17892,-1.18912 -5.46997,-2.48017 l -1.359,1.83465 z"
           style="font-style:normal;font-variant:normal;font-weight:normal;font-stretch:normal;font-size:33.9750061px;font-family:'Source Sans Pro';-inkscape-font-specification:'Source Sans Pro';letter-spacing:-0.96879709px;word-spacing:0px;fill:#66808e;fill-opacity:1"
           id="path4303"
           inkscape:connector-curvature="0" />
        <path
           d="m 445.17619,344.80152 c 0,1.2231 0.91733,2.10645 2.0385,2.10645 1.08721,0 2.00453,-0.88335 2.00453,-2.10645 0,-1.29105 -0.91732,-2.1744 -2.00453,-2.1744 -1.12117,0 -2.0385,0.88335 -2.0385,2.1744 z"
           style="font-style:normal;font-variant:normal;font-weight:normal;font-stretch:normal;font-size:33.9750061px;font-family:'Source Sans Pro';-inkscape-font-specification:'Source Sans Pro';letter-spacing:-0.96879709px;word-spacing:0px;fill:#66808e;fill-opacity:1"
           id="path4305"
           inkscape:connector-curvature="0" />
        <path
           d="m 451.72385,338.27832 c 0,5.40203 3.49942,8.62965 7.91617,8.62965 2.24235,0 4.00905,-0.78142 5.436,-1.69875 l -0.98527,-1.83465 c -1.2231,0.78143 -2.54813,1.29105 -4.11098,1.29105 -3.15967,0 -5.3001,-2.24235 -5.50395,-5.80972 l 11.1438,0 c 0.0679,-0.4077 0.10193,-0.9513 0.10193,-1.52888 0,-4.72252 -2.37825,-7.7463 -6.59115,-7.7463 -3.77123,0 -7.40655,3.29558 -7.40655,8.6976 z m 2.718,-1.25707 c 0.33975,-3.32955 2.4462,-5.23215 4.7565,-5.23215 2.5821,0 4.077,1.86862 4.077,5.23215 l -8.8335,0 z"
           style="font-style:normal;font-variant:normal;font-weight:normal;font-stretch:normal;font-size:33.9750061px;font-family:'Source Sans Pro';-inkscape-font-specification:'Source Sans Pro';letter-spacing:-0.96879709px;word-spacing:0px;fill:#66808e;fill-opacity:1"
           id="path4307"
           inkscape:connector-curvature="0" />
        <path
           d="m 468.59511,340.45272 c 0,4.2129 1.56285,6.45525 5.06227,6.45525 2.27633,0 3.90713,-1.18912 5.436,-2.9898 l 0.10193,0 0.23782,2.5821 2.3103,0 0,-16.51185 -2.78595,0 0,11.72138 c -1.56285,1.93657 -2.75197,2.78595 -4.45072,2.78595 -2.1744,0 -3.09173,-1.32503 -3.09173,-4.41675 l 0,-10.09058 -2.81992,0 0,10.4643 z"
           style="font-style:normal;font-variant:normal;font-weight:normal;font-stretch:normal;font-size:33.9750061px;font-family:'Source Sans Pro';-inkscape-font-specification:'Source Sans Pro';letter-spacing:-0.96879709px;word-spacing:0px;fill:#66808e;fill-opacity:1"
           id="path4309"
           inkscape:connector-curvature="0" />
      </g>
      <g
         style="font-style:normal;font-variant:normal;font-weight:normal;font-stretch:normal;font-size:15px;line-height:100%;font-family:Arial;-inkscape-font-specification:'Arial, Normal';text-align:start;letter-spacing:0px;word-spacing:0px;writing-mode:lr-tb;text-anchor:start;fill:#000000;fill-opacity:1;stroke:none;stroke-width:1px;stroke-linecap:butt;stroke-linejoin:miter;stroke-opacity:1"
         id="text8259" />
      <g
         style="font-style:normal;font-variant:normal;font-weight:normal;font-stretch:normal;font-size:15.88375473px;line-height:100%;font-family:Arial;-inkscape-font-specification:'Arial, Normal';text-align:start;letter-spacing:0px;word-spacing:0px;writing-mode:lr-tb;text-anchor:start;fill:#000000;fill-opacity:1;stroke:none;stroke-width:1px;stroke-linecap:butt;stroke-linejoin:miter;stroke-opacity:1"
         id="text8267" />
      <g
         style="font-style:normal;font-variant:normal;font-weight:normal;font-stretch:normal;font-size:15.88375473px;line-height:100%;font-family:Arial;-inkscape-font-specification:'Arial, Normal';text-align:start;letter-spacing:0px;word-spacing:0px;writing-mode:lr-tb;text-anchor:start;fill:#000000;fill-opacity:1;stroke:none;stroke-width:1px;stroke-linecap:butt;stroke-linejoin:miter;stroke-opacity:1"
         id="text8271" />
    </g>
  </g>
</svg>
