<?xml version="1.0" encoding="UTF-8" standalone="no"?>
<!-- Created with Inkscape (http://www.inkscape.org/) -->

<svg
   xmlns:dc="http://purl.org/dc/elements/1.1/"
   xmlns:cc="http://creativecommons.org/ns#"
   xmlns:rdf="http://www.w3.org/1999/02/22-rdf-syntax-ns#"
   xmlns:svg="http://www.w3.org/2000/svg"
   xmlns="http://www.w3.org/2000/svg"
   xmlns:sodipodi="http://sodipodi.sourceforge.net/DTD/sodipodi-0.dtd"
   xmlns:inkscape="http://www.inkscape.org/namespaces/inkscape"
   width="461.90994"
   height="109.45769"
   id="svg3979"
   version="1.1"
   inkscape:version="0.91 r13725"
   sodipodi:docname="awec2015_logo.svg"
   inkscape:export-filename="/home/rschmehl/events/awec2015/call/awec2015_logo.png"
   inkscape:export-xdpi="86.352173"
   inkscape:export-ydpi="86.352173">
  <defs
     id="defs3981" />
  <sodipodi:namedview
     id="base"
     pagecolor="#ffffff"
     bordercolor="#666666"
     borderopacity="1.0"
     inkscape:pageopacity="0.0"
     inkscape:pageshadow="2"
     inkscape:zoom="0.81747564"
     inkscape:cx="447.24182"
     inkscape:cy="-32.615024"
     inkscape:document-units="px"
     inkscape:current-layer="layer1"
     showgrid="false"
     fit-margin-top="0"
     fit-margin-left="0"
     fit-margin-right="0"
     fit-margin-bottom="0"
     inkscape:window-width="1440"
     inkscape:window-height="846"
     inkscape:window-x="0"
     inkscape:window-y="0"
     inkscape:window-maximized="1" />
  <metadata
     id="metadata3984">
    <rdf:RDF>
      <cc:Work
         rdf:about="">
        <dc:format>image/svg+xml</dc:format>
        <dc:type
           rdf:resource="http://purl.org/dc/dcmitype/StillImage" />
        <dc:title></dc:title>
      </cc:Work>
    </rdf:RDF>
  </metadata>
  <g
     inkscape:label="Layer 1"
     inkscape:groupmode="layer"
     id="layer1"
     transform="translate(-126.18788,-380.4905)">
    <g
       style="font-style:normal;font-variant:normal;font-weight:bold;font-stretch:normal;font-size:82px;line-height:125%;font-family:Arial;-inkscape-font-specification:'Arial Bold';text-align:end;letter-spacing:0px;word-spacing:0px;writing-mode:lr-tb;text-anchor:end;fill:#00a6d7;fill-opacity:1;stroke:none"
       id="text3049">
      <path
         d="m 145.30788,411.7705 0.88,-3.6 c 1.28,-4.95999 2.56001,-11.2 3.68,-16.48 l 0.32,0 c 1.28,5.2 2.56001,11.52001 3.84,16.48 l 0.88,3.6 -9.6,0 m 14.64,21.68 14.56,0 -15.84,-52 -16.64,0 -15.84,52 14.08,0 2.56,-11.04 14.56,0 2.56,11.04"
         style="font-weight:900;font-size:80px;line-height:125%;font-family:'Source Sans Pro';-inkscape-font-specification:'Source Sans Pro Heavy';fill:#00a6d7"
         id="path3046"
         inkscape:connector-curvature="0" />
      <path
         d="m 179.46663,433.4505 13.76,0 0,-52 -13.76,0 0,52"
         style="font-weight:900;font-size:80px;line-height:125%;font-family:'Source Sans Pro';-inkscape-font-specification:'Source Sans Pro Heavy';fill:#00a6d7"
         id="path3048"
         inkscape:connector-curvature="0" />
      <path
         d="m 218.53913,392.3305 4.96,0 c 5.44,0 8.32,1.44 8.32,5.92 0,4.48 -2.88,6.88 -8.32,6.88 l -4.96,0 0,-12.8 m 29.6,41.12 -11.28,-20.16 c 5.04,-2.72 8.4,-7.60001 8.4,-15.04 0,-12.95999 -9.60001,-16.8 -20.8,-16.8 l -19.68,0 0,52 13.76,0 0,-17.44 5.28,0 8.96,17.44 15.36,0"
         style="font-weight:900;font-size:80px;line-height:125%;font-family:'Source Sans Pro';-inkscape-font-specification:'Source Sans Pro Heavy';fill:#00a6d7"
         id="path3050"
         inkscape:connector-curvature="0" />
      <path
         d="m 255.24788,433.4505 20.32,0 c 11.19999,0 20.48,-4.64001 20.48,-15.36 0,-6.87999 -3.68,-10.72 -11.04,-12.16 l 0,-0.32 c 6.08,-1.6 8.64,-6.72 8.64,-11.2 0,-10.23999 -8.80001,-12.96 -19.68,-12.96 l -18.72,0 0,52 m 13.76,-31.52 0,-9.92 4.64,0 c 4.48,0 6.56,1.28 6.56,4.48 0,3.2 -2.08,5.44 -6.56,5.44 l -4.64,0 m 0,20.96 0,-11.36 5.6,0 c 5.44,0 8,1.6 8,5.44 0,3.84 -2.56,5.92 -8,5.92 l -5.6,0"
         style="font-weight:900;font-size:80px;line-height:125%;font-family:'Source Sans Pro';-inkscape-font-specification:'Source Sans Pro Heavy';fill:#00a6d7"
         id="path3052"
         inkscape:connector-curvature="0" />
      <path
         d="m 326.07413,434.4105 c 14.39999,0 24.16,-10.08002 24.16,-27.2 0,-17.03998 -9.76001,-26.72 -24.16,-26.72 -14.39998,0 -24.16,9.60002 -24.16,26.72 0,17.11998 9.76002,27.2 24.16,27.2 m 0,-11.84 c -6.23999,0 -10.08,-5.92001 -10.08,-15.36 0,-9.43999 3.84001,-14.88 10.08,-14.88 6.24,0 10.08,5.44001 10.08,14.88 0,9.43999 -3.84,15.36 -10.08,15.36"
         style="font-weight:900;font-size:80px;line-height:125%;font-family:'Source Sans Pro';-inkscape-font-specification:'Source Sans Pro Heavy';fill:#00a6d7"
         id="path3054"
         inkscape:connector-curvature="0" />
      <path
         d="m 373.22663,392.3305 4.96,0 c 5.44,0 8.32,1.44 8.32,5.92 0,4.48 -2.88,6.88 -8.32,6.88 l -4.96,0 0,-12.8 m 29.6,41.12 -11.28,-20.16 c 5.04,-2.72 8.4,-7.60001 8.4,-15.04 0,-12.95999 -9.60001,-16.8 -20.8,-16.8 l -19.68,0 0,52 13.76,0 0,-17.44 5.28,0 8.96,17.44 15.36,0"
         style="font-weight:900;font-size:80px;line-height:125%;font-family:'Source Sans Pro';-inkscape-font-specification:'Source Sans Pro Heavy';fill:#00a6d7"
         id="path3056"
         inkscape:connector-curvature="0" />
      <path
         d="m 409.93538,433.4505 13.12,0 0,-15.04 c 0,-6.39999 -1.12,-13.92001 -1.76,-19.84 l 0.32,0 4.96,11.6 11.52,23.28 14.08,0 0,-52 -13.12,0 0,15.04 c 0,6.39999 1.12001,14.24001 1.76,19.84 l -0.32,0 -4.96,-11.68 -11.52,-23.2 -14.08,0 0,52"
         style="font-weight:900;font-size:80px;line-height:125%;font-family:'Source Sans Pro';-inkscape-font-specification:'Source Sans Pro Heavy';fill:#00a6d7"
         id="path3058"
         inkscape:connector-curvature="0" />
      <path
         d="m 463.68538,433.4505 34.4,0 0,-11.52 -20.64,0 0,-9.28 16.96,0 0,-11.52 -16.96,0 0,-8.16 19.84,0 0,-11.52 -33.6,0 0,52"
         style="font-weight:900;font-size:80px;line-height:125%;font-family:'Source Sans Pro';-inkscape-font-specification:'Source Sans Pro Heavy';fill:#00a6d7"
         id="path3060"
         inkscape:connector-curvature="0" />
    </g>
    <g
       transform="scale(1.0804774,0.92551682)"
       style="font-style:normal;font-variant:normal;font-weight:bold;font-stretch:normal;font-size:88.59913635px;line-height:125%;font-family:Arial;-inkscape-font-specification:'Arial Bold';text-align:end;letter-spacing:0.69005799px;word-spacing:0px;writing-mode:lr-tb;text-anchor:end;fill:#00a6d7;fill-opacity:1;stroke:none"
       id="text3049-4">
      <path
         d="m 126.64298,529.32166 18.49777,0 4.14903,-22.30106 c 0.86439,-4.3219 1.46945,-8.98957 2.07452,-13.1386 l 0.34575,0 c 0.51863,4.14903 1.21014,8.8167 2.07452,13.1386 l 4.32191,22.30106 18.84352,0 9.33533,-56.18483 -14.17586,0 -3.11178,24.54845 c -0.60507,5.70491 -1.29657,11.66916 -1.90164,17.63339 l -0.34575,0 c -1.03726,-5.96423 -2.07452,-12.01491 -3.11178,-17.63339 l -5.35916,-24.54845 -12.4471,0 -5.35917,24.54845 c -1.03726,5.79135 -2.07452,11.7556 -3.11177,17.63339 l -0.34576,0 c -0.60506,-5.87779 -1.29657,-11.7556 -1.90164,-17.63339 l -3.11177,-24.54845 -15.21312,0 9.85395,56.18483"
         style="font-weight:900;font-size:86.43818665px;line-height:125%;font-family:'Source Sans Pro';-inkscape-font-specification:'Source Sans Pro Heavy';letter-spacing:0px;fill:#00a6d7"
         id="path3037"
         inkscape:connector-curvature="0" />
      <path
         d="m 193.39217,529.32166 14.86737,0 0,-56.18483 -14.86737,0 0,56.18483"
         style="font-weight:900;font-size:86.43818665px;line-height:125%;font-family:'Source Sans Pro';-inkscape-font-specification:'Source Sans Pro Heavy';letter-spacing:0px;fill:#00a6d7"
         id="path3039"
         inkscape:connector-curvature="0" />
      <path
         d="m 220.74175,529.32166 14.17586,0 0,-16.25038 c 0,-6.91505 -1.21014,-15.04025 -1.90164,-21.43667 l 0.34575,0 5.35917,12.53353 12.4471,25.15352 15.21312,0 0,-56.18483 -14.17586,0 0,16.25038 c 0,6.91505 1.21013,15.38601 1.90164,21.43667 l -0.34576,0 -5.35916,-12.61997 -12.4471,-25.06708 -15.21312,0 0,56.18483"
         style="font-weight:900;font-size:86.43818665px;line-height:125%;font-family:'Source Sans Pro';-inkscape-font-specification:'Source Sans Pro Heavy';letter-spacing:0px;fill:#00a6d7"
         id="path3041"
         inkscape:connector-curvature="0" />
      <path
         d="m 278.81741,529.32166 17.46052,0 c 16.25036,0 28.00597,-8.47097 28.00597,-28.35173 0,-19.88076 -11.75561,-27.8331 -28.87035,-27.8331 l -16.59614,0 0,56.18483 m 14.86737,-11.92847 0,-32.32789 0.86438,0 c 8.12519,0 14.52162,2.76604 14.52162,15.90463 0,13.13859 -6.39643,16.42326 -14.52162,16.42326 l -0.86438,0"
         style="font-weight:900;font-size:86.43818665px;line-height:125%;font-family:'Source Sans Pro';-inkscape-font-specification:'Source Sans Pro Heavy';letter-spacing:0px;fill:#00a6d7"
         id="path3043"
         inkscape:connector-curvature="0" />
    </g>
    <g
       transform="scale(1.0157388,0.98450507)"
       style="font-style:normal;font-variant:normal;font-weight:bold;font-stretch:normal;font-size:83.29057312px;line-height:125%;font-family:Arial;-inkscape-font-specification:'Arial Bold';text-align:end;letter-spacing:0px;word-spacing:0px;writing-mode:lr-tb;text-anchor:end;fill:#00a6d7;fill-opacity:1;stroke:none"
       id="text3049-4-7">
      <path
         d="m 353.39352,470.2337 16.59717,0 0,-5.55812 -9.9583,0 0,-4.47738 8.18279,0 0,-5.55812 -8.18279,0 0,-3.937 9.57232,0 0,-5.55813 -16.21119,0 0,25.08875"
         style="font-weight:900;font-size:38.59807587px;line-height:125%;font-family:'Source Sans Pro';-inkscape-font-specification:'Source Sans Pro Heavy';fill:#000000"
         id="path3024"
         inkscape:connector-curvature="0" />
      <path
         d="m 374.87878,470.2337 6.33008,0 0,-7.25643 c 0,-3.08785 -0.54037,-6.71607 -0.84915,-9.57233 l 0.15439,0 2.39308,5.59672 5.55812,11.23204 6.79326,0 0,-25.08875 -6.33008,0 0,7.25644 c 0,3.08785 0.54037,6.87046 0.84916,9.57233 l -0.1544,0 -2.39308,-5.63532 -5.55812,-11.19345 -6.79326,0 0,25.08875"
         style="font-weight:900;font-size:38.59807587px;line-height:125%;font-family:'Source Sans Pro';-inkscape-font-specification:'Source Sans Pro Heavy';fill:#000000"
         id="path3026"
         inkscape:connector-curvature="0" />
      <path
         d="m 400.81186,470.2337 16.59717,0 0,-5.55812 -9.9583,0 0,-4.47738 8.18279,0 0,-5.55812 -8.18279,0 0,-3.937 9.57232,0 0,-5.55813 -16.21119,0 0,25.08875"
         style="font-weight:900;font-size:38.59807587px;line-height:125%;font-family:'Source Sans Pro';-inkscape-font-specification:'Source Sans Pro Heavy';fill:#000000"
         id="path3028"
         inkscape:connector-curvature="0" />
      <path
         d="m 428.93599,450.39429 2.39308,0 c 2.62466,0 4.0142,0.69477 4.0142,2.85626 0,2.16149 -1.38954,3.31943 -4.0142,3.31943 l -2.39308,0 0,-6.17569 m 14.28128,19.83941 -5.44232,-9.72671 c 2.43167,-1.31233 4.05279,-3.66682 4.05279,-7.25644 0,-6.25288 -4.63177,-8.1056 -10.0355,-8.1056 l -9.49512,0 0,25.08875 6.63887,0 0,-8.41438 2.54747,0 4.32298,8.41438 7.41083,0"
         style="font-weight:900;font-size:38.59807587px;line-height:125%;font-family:'Source Sans Pro';-inkscape-font-specification:'Source Sans Pro Heavy';fill:#000000"
         id="path3030"
         inkscape:connector-curvature="0" />
      <path
         d="m 445.56633,457.88232 c 0,8.56876 5.63533,12.81456 12.50578,12.81456 3.55102,0 6.79326,-1.38953 8.64597,-3.08785 l 0,-11.9654 -9.57233,0 0,5.40373 3.70542,0 0,3.47383 c -0.46318,0.30878 -1.23514,0.46318 -1.9299,0.46318 -4.47738,0 -6.56168,-2.62468 -6.56168,-7.33364 0,-4.55457 2.54748,-7.25644 5.94411,-7.25644 2.00709,0 3.08784,0.61757 4.32298,1.69832 l 3.62822,-4.0914 c -1.77551,-1.77551 -4.47738,-3.31943 -8.0284,-3.31943 -6.87045,0 -12.66017,4.78617 -12.66017,13.20054"
         style="font-weight:900;font-size:38.59807587px;line-height:125%;font-family:'Source Sans Pro';-inkscape-font-specification:'Source Sans Pro Heavy';fill:#000000"
         id="path3032"
         inkscape:connector-curvature="0" />
      <path
         d="m 476.00031,470.2337 6.63887,0 0,-8.64597 7.56522,-16.44278 -6.94765,0 -1.85271,5.24934 c -0.65617,1.89131 -1.31234,3.62822 -1.9685,5.59672 l -0.1544,0 c -0.65616,-1.9685 -1.27373,-3.70541 -1.8913,-5.59672 l -1.85271,-5.24934 -7.10205,0 7.56523,16.44278 0,8.64597"
         style="font-weight:900;font-size:38.59807587px;line-height:125%;font-family:'Source Sans Pro';-inkscape-font-specification:'Source Sans Pro Heavy';fill:#000000"
         id="path3034"
         inkscape:connector-curvature="0" />
    </g>
    <g
       transform="scale(1.0142558,0.98594459)"
       style="font-style:normal;font-variant:normal;font-weight:bold;font-stretch:normal;font-size:83.1689682px;line-height:125%;font-family:Arial;-inkscape-font-specification:'Arial Bold';text-align:end;letter-spacing:0px;word-spacing:0px;writing-mode:lr-tb;text-anchor:end;fill:#00a6d7;fill-opacity:1;stroke:none"
       id="text3049-4-7-1">
      <path
         d="m 352.23276,484.13693 c 0,8.55625 5.55001,12.79585 12.1021,12.79585 3.08333,0 5.97397,-1.23334 8.09376,-3.70001 l -3.62292,-4.00834 c -1.07917,1.15625 -2.46667,2.00417 -4.39376,2.00417 -3.2375,0 -5.39584,-2.62084 -5.39584,-7.32293 0,-4.54791 2.54376,-7.24584 5.55001,-7.24584 1.61875,0 2.69792,0.61667 3.93126,1.69584 l 3.62292,-4.08543 c -1.77292,-1.77291 -4.47085,-3.31458 -7.63126,-3.31458 -6.47501,0 -12.25627,4.77918 -12.25627,13.18127"
         style="font-weight:900;font-size:38.54172134px;line-height:125%;font-family:'Source Sans Pro';-inkscape-font-specification:'Source Sans Pro Heavy';fill:#000000"
         id="path3003"
         inkscape:connector-curvature="0" />
      <path
         d="m 384.94986,496.93278 c 6.93751,0 11.6396,-4.85627 11.6396,-13.10419 0,-8.20938 -4.70209,-12.87293 -11.6396,-12.87293 -6.9375,0 -11.6396,4.62501 -11.6396,12.87293 0,8.24792 4.7021,13.10419 11.6396,13.10419 m 0,-5.70418 c -3.00625,0 -4.85625,-2.85209 -4.85625,-7.40001 0,-4.54792 1.85,-7.16876 4.85625,-7.16876 3.00625,0 4.85626,2.62084 4.85626,7.16876 0,4.54792 -1.85001,7.40001 -4.85626,7.40001"
         style="font-weight:900;font-size:38.54172134px;line-height:125%;font-family:'Source Sans Pro';-inkscape-font-specification:'Source Sans Pro Heavy';fill:#000000"
         id="path3005"
         inkscape:connector-curvature="0" />
      <path
         d="m 401.03742,496.47028 6.32084,0 0,-7.24585 c 0,-3.08333 -0.53958,-6.70626 -0.84792,-9.55834 l 0.15417,0 2.38959,5.58854 5.55,11.21565 6.78335,0 0,-25.05212 -6.32085,0 0,7.24584 c 0,3.08334 0.53959,6.86043 0.84792,9.55835 l -0.15416,0 -2.38959,-5.62709 -5.55001,-11.1771 -6.78334,0 0,25.05212"
         style="font-weight:900;font-size:38.54172134px;line-height:125%;font-family:'Source Sans Pro';-inkscape-font-specification:'Source Sans Pro Heavy';fill:#000000"
         id="path3007"
         inkscape:connector-curvature="0" />
      <path
         d="m 426.93264,496.47028 6.62918,0 0,-9.17293 8.32501,0 0,-5.55001 -8.32501,0 0,-4.77918 9.71251,0 0,-5.55 -16.34169,0 0,25.05212"
         style="font-weight:900;font-size:38.54172134px;line-height:125%;font-family:'Source Sans Pro';-inkscape-font-specification:'Source Sans Pro Heavy';fill:#000000"
         id="path3009"
         inkscape:connector-curvature="0" />
      <path
         d="m 447.55848,496.47028 16.57294,0 0,-5.55001 -9.94376,0 0,-4.47084 8.17084,0 0,-5.55001 -8.17084,0 0,-3.93126 9.55834,0 0,-5.55 -16.18752,0 0,25.05212"
         style="font-weight:900;font-size:38.54172134px;line-height:125%;font-family:'Source Sans Pro';-inkscape-font-specification:'Source Sans Pro Heavy';fill:#000000"
         id="path3011"
         inkscape:connector-curvature="0" />
      <path
         d="m 475.64154,476.65983 2.38959,0 c 2.62083,0 4.00834,0.69375 4.00834,2.85209 0,2.15833 -1.38751,3.31459 -4.00834,3.31459 l -2.38959,0 0,-6.16668 m 14.26044,19.81045 -5.43438,-9.71252 c 2.42812,-1.31042 4.04688,-3.66147 4.04688,-7.24584 0,-6.24375 -4.62501,-8.09376 -10.02085,-8.09376 l -9.48126,0 0,25.05212 6.62917,0 0,-8.4021 2.54376,0 4.31667,8.4021 7.40001,0"
         style="font-weight:900;font-size:38.54172134px;line-height:125%;font-family:'Source Sans Pro';-inkscape-font-specification:'Source Sans Pro Heavy';fill:#000000"
         id="path3013"
         inkscape:connector-curvature="0" />
      <path
         d="m 493.32677,496.47028 16.57294,0 0,-5.55001 -9.94376,0 0,-4.47084 8.17085,0 0,-5.55001 -8.17085,0 0,-3.93126 9.55835,0 0,-5.55 -16.18753,0 0,25.05212"
         style="font-weight:900;font-size:38.54172134px;line-height:125%;font-family:'Source Sans Pro';-inkscape-font-specification:'Source Sans Pro Heavy';fill:#000000"
         id="path3015"
         inkscape:connector-curvature="0" />
      <path
         d="m 514.78066,496.47028 6.32084,0 0,-7.24585 c 0,-3.08333 -0.53958,-6.70626 -0.84791,-9.55834 l 0.15416,0 2.38959,5.58854 5.55001,11.21565 6.78334,0 0,-25.05212 -6.32084,0 0,7.24584 c 0,3.08334 0.53958,6.86043 0.84792,9.55835 l -0.15417,0 -2.38959,-5.62709 -5.55,-11.1771 -6.78335,0 0,25.05212"
         style="font-weight:900;font-size:38.54172134px;line-height:125%;font-family:'Source Sans Pro';-inkscape-font-specification:'Source Sans Pro Heavy';fill:#000000"
         id="path3017"
         inkscape:connector-curvature="0" />
      <path
         d="m 539.59671,484.13693 c 0,8.55625 5.55002,12.79585 12.1021,12.79585 3.08334,0 5.97397,-1.23334 8.09376,-3.70001 l -3.62292,-4.00834 c -1.07917,1.15625 -2.46667,2.00417 -4.39375,2.00417 -3.23751,0 -5.39585,-2.62084 -5.39585,-7.32293 0,-4.54791 2.54376,-7.24584 5.55001,-7.24584 1.61875,0 2.69792,0.61667 3.93126,1.69584 l 3.62292,-4.08543 c -1.77292,-1.77291 -4.47084,-3.31458 -7.63126,-3.31458 -6.475,0 -12.25627,4.77918 -12.25627,13.18127"
         style="font-weight:900;font-size:38.54172134px;line-height:125%;font-family:'Source Sans Pro';-inkscape-font-specification:'Source Sans Pro Heavy';fill:#000000"
         id="path3019"
         inkscape:connector-curvature="0" />
      <path
         d="m 563.25892,496.47028 16.57294,0 0,-5.55001 -9.94377,0 0,-4.47084 8.17085,0 0,-5.55001 -8.17085,0 0,-3.93126 9.55835,0 0,-5.55 -16.18752,0 0,25.05212"
         style="font-weight:900;font-size:38.54172134px;line-height:125%;font-family:'Source Sans Pro';-inkscape-font-specification:'Source Sans Pro Heavy';fill:#000000"
         id="path3021"
         inkscape:connector-curvature="0" />
    </g>
    <rect
       style="fill:#00a6d7;fill-opacity:1;stroke:none"
       id="rect3159"
       width="81.190559"
       height="81.485184"
       x="506.37799"
       y="381.43301" />
    <g
       transform="scale(1.0157388,0.98450507)"
       style="font-style:normal;font-variant:normal;font-weight:bold;font-stretch:normal;font-size:83.29057312px;line-height:125%;font-family:Arial;-inkscape-font-specification:'Arial Bold';text-align:end;letter-spacing:0px;word-spacing:0px;writing-mode:lr-tb;text-anchor:end;fill:#ffffff;fill-opacity:1;stroke:none"
       id="text3049-4-7-4">
      <path
         d="m 498.49849,470.23901 17.75511,0 0,-5.55812 -4.09139,0 c -1.08075,0 -2.85626,0.15439 -4.0914,0.30879 3.31943,-3.39663 7.02485,-7.71962 7.02485,-11.65662 0,-4.86336 -3.47383,-8.0284 -8.41438,-8.0284 -3.62821,0 -5.9441,1.23514 -8.49158,3.937 l 3.55103,3.55102 c 1.15794,-1.15794 2.39308,-2.31588 4.0142,-2.31588 1.77551,0 3.01065,1.04215 3.01065,3.24224 0,3.31943 -4.47739,7.41083 -10.26709,12.73736 l 0,3.78261"
         style="font-weight:900;font-size:38.59807587px;line-height:125%;font-family:'Source Sans Pro';-inkscape-font-specification:'Source Sans Pro Heavy';fill:#ffffff"
         id="path2994"
         inkscape:connector-curvature="0" />
      <path
         d="m 528.33722,470.70219 c 5.40372,0 9.10914,-4.43879 9.10914,-12.81456 0,-8.33718 -3.70542,-12.58297 -9.10914,-12.58297 -5.40373,0 -9.10915,4.2072 -9.10915,12.58297 0,8.37577 3.70542,12.81456 9.10915,12.81456 m 0,-5.09495 c -1.54393,0 -2.85626,-1.23514 -2.85626,-7.71961 0,-6.48447 1.31233,-7.48803 2.85626,-7.48803 1.54392,0 2.85625,1.00356 2.85625,7.48803 0,6.48447 -1.31233,7.71961 -2.85625,7.71961"
         style="font-weight:900;font-size:38.59807587px;line-height:125%;font-family:'Source Sans Pro';-inkscape-font-specification:'Source Sans Pro Heavy';fill:#ffffff"
         id="path2996"
         inkscape:connector-curvature="0" />
      <path
         d="m 541.26998,470.23901 16.28839,0 0,-5.32653 -4.40018,0 0,-19.14465 -4.86336,0 c -1.8527,1.15794 -3.62822,1.85271 -6.40728,2.39308 l 0,4.0914 4.63177,0 0,12.66017 -5.24934,0 0,5.32653"
         style="font-weight:900;font-size:38.59807587px;line-height:125%;font-family:'Source Sans Pro';-inkscape-font-specification:'Source Sans Pro Heavy';fill:#ffffff"
         id="path2998"
         inkscape:connector-curvature="0" />
      <path
         d="m 560.37844,467.22836 c 2.0071,2.0071 4.86336,3.47383 8.87756,3.47383 4.97915,0 9.26354,-3.16505 9.26354,-8.64597 0,-5.17214 -3.62823,-7.56522 -7.87401,-7.56522 -0.81056,0 -1.46673,0.0772 -2.31588,0.38598 l 0.30878,-3.55102 8.80036,0 0,-5.55813 -14.51287,0 -0.61757,12.58298 2.85625,1.8527 c 1.46673,-0.92635 2.0843,-1.15794 3.39663,-1.15794 1.92991,0 3.31944,1.08075 3.31944,3.16504 0,2.16149 -1.31234,3.16505 -3.62822,3.16505 -1.77551,0 -3.47383,-1.00356 -4.94055,-2.31589 l -2.93346,4.16859"
         style="font-weight:900;font-size:38.59807587px;line-height:125%;font-family:'Source Sans Pro';-inkscape-font-specification:'Source Sans Pro Heavy';fill:#ffffff"
         id="path3000"
         inkscape:connector-curvature="0" />
    </g>
  </g>
</svg>
