<?xml version="1.0" encoding="UTF-8" standalone="no"?>
<!-- Created with Inkscape (http://www.inkscape.org/) -->

<svg
   xmlns:dc="http://purl.org/dc/elements/1.1/"
   xmlns:cc="http://creativecommons.org/ns#"
   xmlns:rdf="http://www.w3.org/1999/02/22-rdf-syntax-ns#"
   xmlns:svg="http://www.w3.org/2000/svg"
   xmlns="http://www.w3.org/2000/svg"
   xmlns:sodipodi="http://sodipodi.sourceforge.net/DTD/sodipodi-0.dtd"
   xmlns:inkscape="http://www.inkscape.org/namespaces/inkscape"
   width="411.65854"
   height="162.74484"
   id="svg3488"
   version="1.1"
   inkscape:version="0.48.5 r10040"
   sodipodi:docname="awesco_logo.svg">
  <defs
     id="defs3">
    <font
       horiz-adv-x="1024"
       id="font8581"
       inkscape:label="font 1"
       horiz-origin-x="0"
       horiz-origin-y="0"
       vert-origin-x="45"
       vert-origin-y="90"
       vert-adv-y="90">
      <font-face
         units-per-em="1024"
         id="font-face8583"
         font-family="SVGFont 1" />
      <missing-glyph
         d="M0,0h1000v1024h-1000z"
         id="missing-glyph8585" />
    </font>
  </defs>
  <sodipodi:namedview
     inkscape:document-units="mm"
     id="base"
     pagecolor="#ffffff"
     bordercolor="#666666"
     borderopacity="1.0"
     inkscape:pageopacity="0.0"
     inkscape:pageshadow="2"
     inkscape:zoom="3.3992813"
     inkscape:cx="253.95501"
     inkscape:cy="-21.541673"
     inkscape:current-layer="text3010"
     showgrid="false"
     units="mm"
     showguides="true"
     inkscape:guide-bbox="true"
     inkscape:window-width="1440"
     inkscape:window-height="846"
     inkscape:window-x="0"
     inkscape:window-y="0"
     inkscape:window-maximized="1"
     fit-margin-top="0"
     fit-margin-left="0"
     fit-margin-right="0"
     fit-margin-bottom="0">
    <sodipodi:guide
       orientation="1,0"
       position="106.32433,145.02828"
       id="guide3521" />
    <sodipodi:guide
       orientation="0,1"
       position="-159.4237,162.74482"
       id="guide7714" />
    <sodipodi:guide
       orientation="0,1"
       position="151.29753,109.59521"
       id="guide7752" />
    <sodipodi:guide
       orientation="0,1"
       position="70.89126,56.445597"
       id="guide8595" />
    <sodipodi:guide
       orientation="1,0"
       position="0.02512,170.3993"
       id="guide8864" />
    <sodipodi:guide
       orientation="1,0"
       position="33.43289,109.59521"
       id="guide8866" />
    <sodipodi:guide
       orientation="1,0"
       position="72.86914,162.74482"
       id="guide8870" />
    <sodipodi:guide
       orientation="1,0"
       position="411.64219,56.445597"
       id="guide3014" />
    <sodipodi:guide
       orientation="0,1"
       position="-159.4237,3.2959973"
       id="guide3030" />
  </sodipodi:namedview>
  <metadata
     id="metadata4">
    <rdf:RDF>
      <cc:Work
         rdf:about="">
        <dc:format>image/svg+xml</dc:format>
        <dc:type
           rdf:resource="http://purl.org/dc/dcmitype/StillImage" />
        <dc:title />
      </cc:Work>
    </rdf:RDF>
  </metadata>
  <g
     inkscape:groupmode="layer"
     id="layer2"
     inkscape:label="Measures"
     style="display:none"
     transform="translate(-159.4237,-219.68498)">
    <path
       style="fill:none;stroke:#000000;stroke-width:1.04827797px;stroke-linecap:butt;stroke-linejoin:miter;stroke-opacity:1"
       d="m 265.74803,272.33742 16.1875,0"
       id="path8591"
       inkscape:connector-curvature="0" />
    <path
       style="fill:none;stroke:#000000;stroke-width:1px;stroke-linecap:butt;stroke-linejoin:miter;stroke-opacity:1"
       d="m 241.62891,273.33601 24.11912,0"
       id="path8599"
       inkscape:connector-curvature="0" />
    <path
       style="fill:none;stroke:#000000;stroke-width:1px;stroke-linecap:butt;stroke-linejoin:miter;stroke-opacity:1"
       d="m 256.42772,326.48726 9.32031,0"
       id="path8571"
       inkscape:connector-curvature="0" />
    <path
       style="fill:none;stroke:#000000;stroke-width:1px;stroke-linecap:butt;stroke-linejoin:miter;stroke-opacity:1"
       d="m 232.30845,325.48644 24.11912,0"
       id="path8599-3"
       inkscape:connector-curvature="0" />
    <rect
       style="fill:#000000;fill-opacity:0;stroke:#ff0000;stroke-width:1;stroke-linecap:butt;stroke-linejoin:round;stroke-miterlimit:4;stroke-opacity:1;stroke-dasharray:none;stroke-dashoffset:0"
       id="rect8766"
       width="106.29922"
       height="106.29922"
       x="159.44882"
       y="219.68501" />
    <path
       style="fill:none;stroke:#000000;stroke-width:0.98410505px;stroke-linecap:butt;stroke-linejoin:miter;stroke-opacity:1"
       d="m 183.5797,219.21223 12.27086,0"
       id="path8872"
       inkscape:connector-curvature="0" />
    <path
       style="fill:none;stroke:#000000;stroke-width:0.98410505px;stroke-linecap:butt;stroke-linejoin:miter;stroke-opacity:1;display:inline"
       d="m 220.02198,219.21487 12.27086,0"
       id="path8872-6"
       inkscape:connector-curvature="0" />
  </g>
  <g
     inkscape:label="Layer 1"
     inkscape:groupmode="layer"
     id="layer1"
     transform="translate(-159.4237,-219.68498)">
    <g
       style="font-size:20px;font-style:normal;font-variant:normal;font-weight:normal;font-stretch:normal;text-align:start;line-height:125%;letter-spacing:0px;word-spacing:0px;writing-mode:lr-tb;text-anchor:start;fill:#000000;fill-opacity:1;stroke:none;font-family:Ubuntu;-inkscape-font-specification:Ubuntu"
       id="text3613-5"
       transform="matrix(0.53095835,0,0,0.53095835,208.16029,-706.24982)">
      <path
         d="m 145.266,1902.3621 1.694,-6.93 c 2.464,-9.548 4.928,-21.56 7.084,-31.724 l 0.616,0 c 2.464,10.01 4.928,22.176 7.392,31.724 l 1.694,6.93 -18.48,0 m 28.182,41.734 28.028,0 -30.492,-100.1 -32.032,0 -30.492,100.1 27.104,0 4.928,-21.252 28.028,0 4.928,21.252"
         style="font-size:154px;font-weight:900;line-height:125%;font-family:Source Sans Pro;-inkscape-font-specification:Source Sans Pro Heavy"
         id="path3631-6"
         inkscape:connector-curvature="0" />
      <path
         d="m 219.02959,1944.0961 32.956,0 7.392,-39.732 c 1.54,-7.7 2.618,-16.016 3.696,-23.408 l 0.616,0 c 0.924,7.392 2.15601,15.708 3.696,23.408 l 7.7,39.732 33.572,0 16.632,-100.1 -25.256,0 -5.544,43.736 c -1.078,10.164 -2.31,20.79 -3.388,31.416 l -0.616,0 c -1.84799,-10.626 -3.696,-21.406 -5.544,-31.416 l -9.548,-43.736 -22.176,0 -9.548,43.736 c -1.84799,10.318 -3.696,20.944 -5.544,31.416 l -0.616,0 c -1.078,-10.472 -2.31,-20.944 -3.388,-31.416 l -5.544,-43.736 -27.104,0 17.556,100.1"
         style="font-size:154px;font-weight:900;line-height:125%;font-family:Source Sans Pro;-inkscape-font-specification:Source Sans Pro Heavy"
         id="path3633-4"
         inkscape:connector-curvature="0" />
      <path
         d="m 337.95128,1944.0961 66.22,0 0,-22.176 -39.732,0 0,-17.864 32.648,0 0,-22.176 -32.648,0 0,-15.708 38.192,0 0,-22.176 -64.68,0 0,100.1"
         style="font-size:154px;font-weight:900;line-height:125%;font-family:Source Sans Pro;-inkscape-font-specification:Source Sans Pro Heavy"
         id="path3635-8"
         inkscape:connector-curvature="0" />
      <path
         d="m 417.51394,1931.6221 c 10.77999,9.702 25.25601,14.322 37.884,14.322 24.94797,0 39.116,-15.092 39.116,-32.032 0,-13.86 -7.08401,-22.484 -19.558,-27.412 l -12.166,-4.774 c -9.08599,-3.542 -14.784,-5.236 -14.784,-10.01 0,-4.466 4.004,-6.776 10.472,-6.776 7.39199,0 13.244,2.464 20.02,7.238 l 13.244,-16.632 c -9.23999,-9.086 -21.86801,-13.398 -33.264,-13.398 -21.86798,0 -37.268,14.014 -37.268,31.108 0,14.476 9.39401,23.562 20.174,27.874 l 12.474,5.236 c 8.46999,3.388 13.552,4.928 13.552,9.702 0,4.466 -3.38801,7.084 -11.396,7.084 -7.392,0 -16.32401,-4.004 -23.408,-9.702 l -15.092,18.172"
         style="font-size:154px;font-weight:900;line-height:125%;fill:#00a6d7;fill-opacity:1;font-family:Source Sans Pro;-inkscape-font-specification:Source Sans Pro Heavy"
         id="path3637-8"
         inkscape:connector-curvature="0" />
      <path
         d="m 506.28772,1894.8161 c 0,34.1879 22.17602,51.128 48.356,51.128 12.31999,0 23.87001,-4.928 32.34,-14.784 l -14.476,-16.016 c -4.312,4.62 -9.85601,8.008 -17.556,8.008 -12.93599,0 -21.56,-10.472 -21.56,-29.26 0,-18.172 10.16401,-28.952 22.176,-28.952 6.46799,0 10.78,2.464 15.708,6.776 l 14.476,-16.324 c -7.08399,-7.084 -17.86401,-13.244 -30.492,-13.244 -25.87198,0 -48.972,19.096 -48.972,52.668"
         style="font-size:154px;font-weight:900;line-height:125%;fill:#00a6d7;fill-opacity:1;font-family:Source Sans Pro;-inkscape-font-specification:Source Sans Pro Heavy"
         id="path3639-1"
         inkscape:connector-curvature="0" />
      <path
         d="m 637.01447,1945.9441 c 27.71997,0 46.508,-19.4041 46.508,-52.36 0,-32.802 -18.78803,-51.436 -46.508,-51.436 -27.71997,0 -46.508,18.48 -46.508,51.436 0,32.9559 18.78803,52.36 46.508,52.36 m 0,-22.792 c -12.01199,0 -19.404,-11.396 -19.404,-29.568 0,-18.172 7.39201,-28.644 19.404,-28.644 12.01199,0 19.404,10.472 19.404,28.644 0,18.172 -7.39201,29.568 -19.404,29.568"
         style="font-size:154px;font-weight:900;line-height:125%;fill:#00a6d7;fill-opacity:1;font-family:Source Sans Pro;-inkscape-font-specification:Source Sans Pro Heavy"
         id="path3641-8"
         inkscape:connector-curvature="0" />
    </g>
    <path
       style="font-size:20px;font-style:normal;font-variant:normal;font-weight:normal;font-stretch:normal;text-align:start;line-height:100%;letter-spacing:0px;word-spacing:0px;writing-mode:lr-tb;text-anchor:start;fill:#00a6d7;fill-opacity:1;stroke:none;font-family:Ubuntu;-inkscape-font-specification:Ubuntu"
       d="m 232.30845,219.68502 9.32638,53.14421 -9.32638,53.155 24.11697,2e-5 9.32261,-53.14959 -9.32261,-53.14962 z"
       id="path60562-5-3-5"
       inkscape:connector-curvature="0"
       sodipodi:nodetypes="ccccccc"
       clip-path="none" />
    <path
       style="font-size:20px;font-style:normal;font-variant:normal;font-weight:normal;font-stretch:normal;text-align:start;line-height:100%;letter-spacing:0px;word-spacing:0px;writing-mode:lr-tb;text-anchor:start;fill:#00a6d7;fill-opacity:1;stroke:none;font-family:Ubuntu;-inkscape-font-specification:Ubuntu"
       d="m 195.87948,219.68501 9.32638,53.14421 -9.32638,53.155 24.11697,2e-5 9.32261,-53.14959 -9.32261,-53.14962 z"
       id="path60562-5-3-5-6"
       inkscape:connector-curvature="0"
       sodipodi:nodetypes="ccccccc"
       clip-path="none" />
    <path
       style="font-size:20px;font-style:normal;font-variant:normal;font-weight:normal;font-stretch:normal;text-align:start;line-height:100%;letter-spacing:0px;word-spacing:0px;writing-mode:lr-tb;text-anchor:start;fill:#00a6d7;fill-opacity:1;stroke:none;font-family:Ubuntu;-inkscape-font-specification:Ubuntu"
       d="m 159.4237,219.68498 9.32638,53.14421 -9.32638,53.155 24.11697,2e-5 9.32261,-53.14959 -9.32261,-53.14962 z"
       id="path60562-5-3-5-6-5"
       inkscape:connector-curvature="0"
       sodipodi:nodetypes="ccccccc"
       clip-path="none" />
  </g>
  <g
     id="g3024"
     transform="translate(-159.42369,-100.99277)">
    <g
       style="font-size:20px;font-style:normal;font-variant:normal;font-weight:normal;font-stretch:normal;text-align:start;line-height:125%;letter-spacing:0px;word-spacing:0px;writing-mode:lr-tb;text-anchor:start;fill:#000000;fill-opacity:1;stroke:none;font-family:Ubuntu;-inkscape-font-specification:Ubuntu"
       id="text3010">
      <path
         d="m 272.84702,230.82187 0.341,-1.395 c 0.496,-1.922 0.992,-4.34 1.426,-6.386 l 0.124,0 c 0.496,2.015 0.992,4.464 1.488,6.386 l 0.341,1.395 -3.72,0 m 5.673,8.401 5.642,0 -6.138,-20.15 -6.448,0 -6.138,20.15 5.456,0 0.992,-4.278 5.642,0 0.992,4.278"
         style="font-size:31px;font-weight:900;line-height:125%;font-family:Source Sans Pro;-inkscape-font-specification:Source Sans Pro Heavy"
         id="path4030" />
      <path
         d="m 288.31553,221.80087 c 1.736,0 2.976,-1.116 2.976,-2.666 0,-1.55 -1.24,-2.666 -2.976,-2.666 -1.736,0 -2.976,1.116 -2.976,2.666 0,1.55 1.24,2.666 2.976,2.666 m -2.666,17.422 5.332,0 0,-15.5 -5.332,0 0,15.5"
         style="font-size:31px;font-weight:900;line-height:125%;font-family:Source Sans Pro;-inkscape-font-specification:Source Sans Pro Heavy"
         id="path4032" />
      <path
         d="m 294.54992,239.22287 5.332,0 0,-8.618 c 0.744,-1.922 2.108,-2.604 3.224,-2.604 0.682,0 1.178,0.124 1.736,0.248 l 0.868,-4.588 c -0.434,-0.186 -0.961,-0.31 -1.922,-0.31 -1.519,0 -3.255,0.93 -4.402,3.038 l -0.124,0 -0.372,-2.666 -4.34,0 0,15.5"
         style="font-size:31px;font-weight:900;line-height:125%;font-family:Source Sans Pro;-inkscape-font-specification:Source Sans Pro Heavy"
         id="path4034" />
      <path
         d="m 307.50695,239.22287 4.154,0 0.434,-1.674 0.124,0 c 1.178,1.364 2.54201,2.046 3.906,2.046 3.286,0 6.448,-3.03801 6.448,-8.401 0,-4.743 -2.387,-7.843 -6.045,-7.843 -1.36399,0 -2.728,0.558 -3.813,1.55 l 0.124,-2.232 0,-5.022 -5.332,0 0,21.576 m 5.332,-4.712 0,-5.704 c 0.682,-0.806 1.302,-1.116 2.108,-1.116 1.426,0 2.17,1.054 2.17,3.596 0,2.976 -1.054,3.968 -2.294,3.968 -0.682,0 -1.364,-0.186 -1.984,-0.744"
         style="font-size:31px;font-weight:900;line-height:125%;font-family:Source Sans Pro;-inkscape-font-specification:Source Sans Pro Heavy"
         id="path4036" />
      <path
         d="m 324.68338,231.47287 c 0,5.14599 3.72,8.122 7.688,8.122 3.96799,0 7.688,-2.97601 7.688,-8.122 0,-5.14599 -3.72001,-8.122 -7.688,-8.122 -3.968,0 -7.688,2.97601 -7.688,8.122 m 5.456,0 c 0,-2.356 0.62,-3.844 2.232,-3.844 1.61199,0 2.232,1.488 2.232,3.844 0,2.356 -0.62001,3.844 -2.232,3.844 -1.612,0 -2.232,-1.488 -2.232,-3.844"
         style="font-size:31px;font-weight:900;line-height:125%;font-family:Source Sans Pro;-inkscape-font-specification:Source Sans Pro Heavy"
         id="path4038" />
      <path
         d="m 342.86633,239.22287 5.332,0 0,-8.618 c 0.744,-1.922 2.108,-2.604 3.224,-2.604 0.682,0 1.178,0.124 1.736,0.248 l 0.868,-4.588 c -0.434,-0.186 -0.961,-0.31 -1.922,-0.31 -1.519,0 -3.255,0.93 -4.402,3.038 l -0.124,0 -0.372,-2.666 -4.34,0 0,15.5"
         style="font-size:31px;font-weight:900;line-height:125%;font-family:Source Sans Pro;-inkscape-font-specification:Source Sans Pro Heavy"
         id="path4040" />
      <path
         d="m 355.82336,239.22287 5.332,0 0,-10.168 c 0.806,-0.744 1.364,-1.178 2.356,-1.178 1.054,0 1.55,0.496 1.55,2.48 l 0,8.866 5.332,0 0,-9.548 c 0,-3.844 -1.426,-6.324 -4.836,-6.324 -2.108,0 -3.658,1.054 -4.898,2.232 l -0.124,0 -0.372,-1.86 -4.34,0 0,15.5"
         style="font-size:31px;font-weight:900;line-height:125%;font-family:Source Sans Pro;-inkscape-font-specification:Source Sans Pro Heavy"
         id="path4042" />
      <path
         d="m 373.06033,231.47287 c 0,5.14599 3.472,8.122 7.998,8.122 1.736,0 3.968,-0.62 5.642,-1.798 l -1.736,-3.162 c -1.116,0.62 -2.108,0.93 -3.162,0.93 -1.736,0 -3.1,-0.62 -3.596,-2.604 l 8.835,0 c 0.093,-0.372 0.217,-1.178 0.217,-2.108 0,-4.154 -2.17001,-7.502 -6.758,-7.502 -3.782,0 -7.44,3.1 -7.44,8.122 m 5.084,-1.736 c 0.31,-1.705 1.302,-2.356 2.48,-2.356 1.612,0 2.108,1.054 2.108,2.356 l -4.588,0"
         style="font-size:31px;font-weight:900;line-height:125%;font-family:Source Sans Pro;-inkscape-font-specification:Source Sans Pro Heavy"
         id="path4044" />
      <path
         d="m 398.7385,239.22287 6.634,0 1.488,-7.998 c 0.31,-1.55 0.527,-3.224 0.744,-4.712 l 0.124,0 c 0.186,1.488 0.434,3.162 0.744,4.712 l 1.55,7.998 6.758,0 3.348,-20.15 -5.084,0 -1.116,8.804 c -0.217,2.046 -0.465,4.185 -0.682,6.324 l -0.124,0 c -0.372,-2.139 -0.744,-4.309 -1.116,-6.324 l -1.922,-8.804 -4.464,0 -1.922,8.804 c -0.372,2.077 -0.744,4.216 -1.116,6.324 l -0.124,0 c -0.217,-2.108 -0.465,-4.216 -0.682,-6.324 l -1.116,-8.804 -5.456,0 3.534,20.15"
         style="font-size:31px;font-weight:900;line-height:125%;font-family:Source Sans Pro;-inkscape-font-specification:Source Sans Pro Heavy"
         id="path4046" />
      <path
         d="m 424.90928,221.80087 c 1.736,0 2.976,-1.116 2.976,-2.666 0,-1.55 -1.24,-2.666 -2.976,-2.666 -1.736,0 -2.976,1.116 -2.976,2.666 0,1.55 1.24,2.666 2.976,2.666 m -2.666,17.422 5.332,0 0,-15.5 -5.332,0 0,15.5"
         style="font-size:31px;font-weight:900;line-height:125%;font-family:Source Sans Pro;-inkscape-font-specification:Source Sans Pro Heavy"
         id="path4048" />
      <path
         d="m 431.14367,239.22287 5.332,0 0,-10.168 c 0.806,-0.744 1.364,-1.178 2.356,-1.178 1.054,0 1.55,0.496 1.55,2.48 l 0,8.866 5.332,0 0,-9.548 c 0,-3.844 -1.426,-6.324 -4.836,-6.324 -2.108,0 -3.658,1.054 -4.898,2.232 l -0.124,0 -0.372,-1.86 -4.34,0 0,15.5"
         style="font-size:31px;font-weight:900;line-height:125%;font-family:Source Sans Pro;-inkscape-font-specification:Source Sans Pro Heavy"
         id="path4050" />
      <path
         d="m 448.50464,231.47287 c 0,5.02199 2.48001,8.122 6.324,8.122 1.364,0 2.852,-0.744 3.906,-1.798 l 0.124,0 0.372,1.426 4.34,0 0,-21.576 -5.332,0 0,5.022 0.186,2.232 c -0.93,-0.93 -1.922,-1.55 -3.596,-1.55 -3.162,0 -6.324,3.038 -6.324,8.122 m 5.456,-0.062 c 0,-2.728 1.054,-3.72 2.17,-3.72 0.682,0 1.488,0.186 2.108,0.744 l 0,5.704 c -0.558,0.868 -1.178,1.116 -1.984,1.116 -1.426,0 -2.294,-1.054 -2.294,-3.844"
         style="font-size:31px;font-weight:900;line-height:125%;font-family:Source Sans Pro;-inkscape-font-specification:Source Sans Pro Heavy"
         id="path4052" />
      <path
         d="m 474.14213,239.22287 13.33,0 0,-4.464 -7.998,0 0,-3.596 6.572,0 0,-4.464 -6.572,0 0,-3.162 7.688,0 0,-4.464 -13.02,0 0,20.15"
         style="font-size:31px;font-weight:900;line-height:125%;font-family:Source Sans Pro;-inkscape-font-specification:Source Sans Pro Heavy"
         id="path4054" />
      <path
         d="m 490.96399,239.22287 5.332,0 0,-10.168 c 0.80599,-0.744 1.364,-1.178 2.356,-1.178 1.05399,0 1.55,0.496 1.55,2.48 l 0,8.866 5.332,0 0,-9.548 c 0,-3.844 -1.42601,-6.324 -4.836,-6.324 -2.108,0 -3.65801,1.054 -4.898,2.232 l -0.124,0 -0.372,-1.86 -4.34,0 0,15.5"
         style="font-size:31px;font-weight:900;line-height:125%;font-family:Source Sans Pro;-inkscape-font-specification:Source Sans Pro Heavy"
         id="path4056" />
      <path
         d="m 508.20095,231.47287 c 0,5.14599 3.47201,8.122 7.998,8.122 1.736,0 3.96801,-0.62 5.642,-1.798 l -1.736,-3.162 c -1.116,0.62 -2.108,0.93 -3.162,0.93 -1.73599,0 -3.1,-0.62 -3.596,-2.604 l 8.835,0 c 0.093,-0.372 0.217,-1.178 0.217,-2.108 0,-4.154 -2.17,-7.502 -6.758,-7.502 -3.78199,0 -7.44,3.1 -7.44,8.122 m 5.084,-1.736 c 0.31,-1.705 1.30201,-2.356 2.48,-2.356 1.612,0 2.108,1.054 2.108,2.356 l -4.588,0"
         style="font-size:31px;font-weight:900;line-height:125%;font-family:Source Sans Pro;-inkscape-font-specification:Source Sans Pro Heavy"
         id="path4058" />
      <path
         d="m 525.29406,239.22287 5.332,0 0,-8.618 c 0.744,-1.922 2.108,-2.604 3.224,-2.604 0.682,0 1.178,0.124 1.736,0.248 l 0.868,-4.588 c -0.434,-0.186 -0.961,-0.31 -1.922,-0.31 -1.519,0 -3.255,0.93 -4.402,3.038 l -0.124,0 -0.372,-2.666 -4.34,0 0,15.5"
         style="font-size:31px;font-weight:900;line-height:125%;font-family:Source Sans Pro;-inkscape-font-specification:Source Sans Pro Heavy"
         id="path4060" />
      <path
         d="m 541.42036,240.89687 c 0,-0.434 0.186,-0.744 0.558,-1.116 0.434,0.124 0.992,0.186 2.232,0.186 l 1.209,0 c 1.333,0 2.077,0.124 2.077,0.93 0,0.868 -1.302,1.426 -3.038,1.426 -1.798,0 -3.038,-0.434 -3.038,-1.426 m -4.34,0.868 c 0,2.79 2.976,3.844 6.51,3.844 5.51799,0 8.99,-2.294 8.99,-5.642 0,-2.852 -2.232,-4.03 -6.107,-4.03 l -2.325,0 c -1.55,0 -2.17,-0.248 -2.17,-0.93 0,-0.434 0.062,-0.62 0.372,-0.899 0.682,0.155 1.24,0.217 1.736,0.217 3.472,0 6.262,-1.488 6.262,-5.146 0,-0.62 -0.124,-1.24 -0.248,-1.612 l 2.232,0 0,-3.844 -5.766,0 c -0.744,-0.248 -1.612,-0.372 -2.48,-0.372 -3.41,0 -6.634,1.798 -6.634,5.642 0,1.798 0.992,3.224 2.108,3.968 l 0,0.124 c -1.054,0.744 -1.736,1.86 -1.736,2.914 0,1.302 0.62,2.108 1.426,2.666 l 0,0.124 c -1.426,0.744 -2.17,1.705 -2.17,2.976 m 7.006,-10.602 c -0.992,0 -1.674,-0.682 -1.674,-2.17 0,-1.426 0.682,-2.108 1.674,-2.108 0.992,0 1.674,0.682 1.674,2.108 0,1.488 -0.682,2.17 -1.674,2.17"
         style="font-size:31px;font-weight:900;line-height:125%;font-family:Source Sans Pro;-inkscape-font-specification:Source Sans Pro Heavy"
         id="path4062" />
      <path
         d="m 555.46675,240.71087 -0.93,4.03 c 0.682,0.186 1.302,0.31 2.356,0.31 3.844,0 5.518,-1.891 7.13,-6.076 l 5.208,-15.252 -5.084,0 -1.55,5.952 c -0.372,1.488 -0.682,2.914 -0.992,4.402 l -0.124,0 c -0.372,-1.55 -0.682,-2.976 -1.116,-4.402 l -1.86,-5.952 -5.332,0 5.89,14.942 -0.186,0.682 c -0.31,0.93 -0.992,1.55 -2.418,1.55 -0.31,0 -0.713,-0.124 -0.992,-0.186"
         style="font-size:31px;font-weight:900;line-height:125%;font-family:Source Sans Pro;-inkscape-font-specification:Source Sans Pro Heavy"
         id="path4064" />
    </g>
    <g
       style="font-size:20px;font-style:normal;font-variant:normal;font-weight:normal;font-stretch:normal;text-align:start;line-height:125%;letter-spacing:0px;word-spacing:0px;writing-mode:lr-tb;text-anchor:start;fill:#00a6d7;fill-opacity:1;stroke:none;font-family:Ubuntu;-inkscape-font-specification:Ubuntu"
       id="text3016">
      <path
         d="m 266.26002,259.14562 c 1.12,1.008 2.624,1.488 3.936,1.488 2.59199,0 4.064,-1.568 4.064,-3.328 0,-1.44 -0.736,-2.336 -2.032,-2.848 l -1.264,-0.496 c -0.944,-0.368 -1.536,-0.544 -1.536,-1.04 0,-0.464 0.416,-0.704 1.088,-0.704 0.768,0 1.376,0.256 2.08,0.752 l 1.376,-1.728 c -0.96,-0.944 -2.272,-1.392 -3.456,-1.392 -2.272,0 -3.872,1.456 -3.872,3.232 0,1.504 0.976,2.448 2.096,2.896 l 1.296,0.544 c 0.88,0.352 1.408,0.512 1.408,1.008 0,0.464 -0.352,0.736 -1.184,0.736 -0.768,0 -1.696,-0.416 -2.432,-1.008 l -1.568,1.888"
         style="font-size:16px;font-weight:900;line-height:125%;fill:#00a6d7;font-family:Source Sans Pro;-inkscape-font-specification:Source Sans Pro Heavy"
         id="path4067" />
      <path
         d="m 276.15527,261.20962 -0.48,2.08 c 0.352,0.096 0.672,0.16 1.216,0.16 1.98399,0 2.848,-0.976 3.68,-3.136 l 2.688,-7.872 -2.624,0 -0.8,3.072 c -0.192,0.768 -0.352,1.504 -0.512,2.272 l -0.064,0 c -0.192,-0.8 -0.352,-1.536 -0.576,-2.272 l -0.96,-3.072 -2.752,0 3.04,7.712 -0.096,0.352 c -0.16,0.48 -0.512,0.8 -1.248,0.8 -0.16,0 -0.368,-0.064 -0.512,-0.096"
         style="font-size:16px;font-weight:900;line-height:125%;fill:#00a6d7;font-family:Source Sans Pro;-inkscape-font-specification:Source Sans Pro Heavy"
         id="path4069" />
      <path
         d="m 283.75477,259.51362 c 0.832,0.672 2.08,1.12 3.104,1.12 2.23999,0 3.424,-1.152 3.424,-2.656 0,-1.44 -1.088,-2.048 -2.048,-2.4 -0.8,-0.288 -1.504,-0.448 -1.504,-0.864 0,-0.32 0.24,-0.448 0.704,-0.448 0.496,0 1.056,0.256 1.632,0.672 l 1.216,-1.632 c -0.704,-0.528 -1.632,-1.056 -2.944,-1.056 -1.888,0 -3.168,1.024 -3.168,2.592 0,1.312 1.088,2 2.016,2.368 0.8,0.32 1.536,0.512 1.536,0.928 0,0.32 -0.224,0.48 -0.8,0.48 -0.56,0 -1.216,-0.256 -1.952,-0.8 l -1.216,1.696"
         style="font-size:16px;font-weight:900;line-height:125%;fill:#00a6d7;font-family:Source Sans Pro;-inkscape-font-specification:Source Sans Pro Heavy"
         id="path4071" />
      <path
         d="m 291.96552,257.36962 c 0,1.952 0.864,3.264 2.944,3.264 0.88,0 1.472,-0.16 1.888,-0.288 l -0.416,-1.984 c -0.192,0.064 -0.448,0.128 -0.704,0.128 -0.512,0 -0.96,-0.288 -0.96,-1.168 l 0,-2.736 1.824,0 0,-2.144 -1.824,0 0,-2.08 -2.272,0 -0.32,2.08 -1.216,0.096 0,2.048 1.056,0 0,2.784"
         style="font-size:16px;font-weight:900;line-height:125%;fill:#00a6d7;font-family:Source Sans Pro;-inkscape-font-specification:Source Sans Pro Heavy"
         id="path4073" />
      <path
         d="m 297.44752,256.44162 c 0,2.656 1.792,4.192 4.128,4.192 0.896,0 2.048,-0.32 2.912,-0.928 l -0.896,-1.632 c -0.576,0.32 -1.088,0.48 -1.632,0.48 -0.896,0 -1.6,-0.32 -1.856,-1.344 l 4.56,0 c 0.048,-0.192 0.112,-0.608 0.112,-1.088 0,-2.144 -1.12001,-3.872 -3.488,-3.872 -1.952,0 -3.84,1.6 -3.84,4.192 m 2.624,-0.896 c 0.16,-0.88 0.672,-1.216 1.28,-1.216 0.832,0 1.088,0.544 1.088,1.216 l -2.368,0"
         style="font-size:16px;font-weight:900;line-height:125%;fill:#00a6d7;font-family:Source Sans Pro;-inkscape-font-specification:Source Sans Pro Heavy"
         id="path4075" />
      <path
         d="m 306.26977,260.44162 2.752,0 0,-5.248 c 0.416,-0.416 0.8,-0.608 1.12,-0.608 0.544,0 0.8,0.256 0.8,1.28 l 0,4.576 2.752,0 0,-5.248 c 0.416,-0.416 0.8,-0.608 1.12,-0.608 0.544,0 0.8,0.256 0.8,1.28 l 0,4.576 2.752,0 0,-4.928 c 0,-1.984 -0.76801,-3.264 -2.528,-3.264 -1.088,0 -1.808,0.608 -2.464,1.28 -0.432,-0.832 -1.12,-1.28 -2.208,-1.28 -1.088,0 -1.76,0.544 -2.4,1.168 l -0.064,0 -0.192,-0.976 -2.24,0 0,8"
         style="font-size:16px;font-weight:900;line-height:125%;fill:#00a6d7;font-family:Source Sans Pro;-inkscape-font-specification:Source Sans Pro Heavy"
         id="path4077" />
      <path
         d="m 323.74377,260.44162 2.528,0 0,-3.072 c 0,-1.056 -0.224,-2.672 -0.352,-3.712 l 0.064,0 0.832,2.432 1.44,3.504 1.024,0 1.44,-3.504 0.864,-2.432 0.064,0 c -0.128,1.04 -0.352,2.656 -0.352,3.712 l 0,3.072 2.56,0 0,-10.4 -2.848,0 -1.568,4.32 -0.576,1.696 -0.064,0 -0.576,-1.696 -1.632,-4.32 -2.848,0 0,10.4"
         style="font-size:16px;font-weight:900;line-height:125%;fill:#00a6d7;font-family:Source Sans Pro;-inkscape-font-specification:Source Sans Pro Heavy"
         id="path4079" />
      <path
         d="m 335.51002,256.44162 c 0,2.656 1.92,4.192 3.968,4.192 2.04799,0 3.968,-1.536 3.968,-4.192 0,-2.656 -1.92001,-4.192 -3.968,-4.192 -2.048,0 -3.968,1.536 -3.968,4.192 m 2.816,0 c 0,-1.216 0.32,-1.984 1.152,-1.984 0.832,0 1.152,0.768 1.152,1.984 0,1.216 -0.32,1.984 -1.152,1.984 -0.832,0 -1.152,-0.768 -1.152,-1.984"
         style="font-size:16px;font-weight:900;line-height:125%;fill:#00a6d7;font-family:Source Sans Pro;-inkscape-font-specification:Source Sans Pro Heavy"
         id="path4081" />
      <path
         d="m 344.54277,256.44162 c 0,2.592 1.28,4.192 3.264,4.192 0.704,0 1.472,-0.384 2.016,-0.928 l 0.064,0 0.192,0.736 2.24,0 0,-11.136 -2.752,0 0,2.592 0.096,1.152 c -0.48,-0.48 -0.992,-0.8 -1.856,-0.8 -1.632,0 -3.264,1.568 -3.264,4.192 m 2.816,-0.032 c 0,-1.408 0.544,-1.92 1.12,-1.92 0.352,0 0.768,0.096 1.088,0.384 l 0,2.944 c -0.288,0.448 -0.608,0.576 -1.024,0.576 -0.736,0 -1.184,-0.544 -1.184,-1.984"
         style="font-size:16px;font-weight:900;line-height:125%;fill:#00a6d7;font-family:Source Sans Pro;-inkscape-font-specification:Source Sans Pro Heavy"
         id="path4083" />
      <path
         d="m 353.76002,256.44162 c 0,2.656 1.792,4.192 4.128,4.192 0.896,0 2.048,-0.32 2.912,-0.928 l -0.896,-1.632 c -0.576,0.32 -1.088,0.48 -1.632,0.48 -0.896,0 -1.6,-0.32 -1.856,-1.344 l 4.56,0 c 0.048,-0.192 0.112,-0.608 0.112,-1.088 0,-2.144 -1.12001,-3.872 -3.488,-3.872 -1.952,0 -3.84,1.6 -3.84,4.192 m 2.624,-0.896 c 0.16,-0.88 0.672,-1.216 1.28,-1.216 0.832,0 1.088,0.544 1.088,1.216 l -2.368,0"
         style="font-size:16px;font-weight:900;line-height:125%;fill:#00a6d7;font-family:Source Sans Pro;-inkscape-font-specification:Source Sans Pro Heavy"
         id="path4085" />
      <path
         d="m 362.58227,257.62562 c 0,1.792 0.608,3.008 2.464,3.008 0.608,0 1.056,-0.096 1.344,-0.224 l -0.32,-2.016 c -0.128,0.032 -0.192,0.032 -0.288,0.032 -0.192,0 -0.448,-0.16 -0.448,-0.704 l 0,-8.416 -2.752,0 0,8.32"
         style="font-size:16px;font-weight:900;line-height:125%;fill:#00a6d7;font-family:Source Sans Pro;-inkscape-font-specification:Source Sans Pro Heavy"
         id="path4087" />
      <path
         d="m 367.36352,257.62562 c 0,1.792 0.608,3.008 2.464,3.008 0.608,0 1.056,-0.096 1.344,-0.224 l -0.32,-2.016 c -0.128,0.032 -0.192,0.032 -0.288,0.032 -0.192,0 -0.448,-0.16 -0.448,-0.704 l 0,-8.416 -2.752,0 0,8.32"
         style="font-size:16px;font-weight:900;line-height:125%;fill:#00a6d7;font-family:Source Sans Pro;-inkscape-font-specification:Source Sans Pro Heavy"
         id="path4089" />
      <path
         d="m 373.52077,251.44962 c 0.896,0 1.536,-0.576 1.536,-1.376 0,-0.8 -0.64,-1.376 -1.536,-1.376 -0.896,0 -1.536,0.576 -1.536,1.376 0,0.8 0.64,1.376 1.536,1.376 m -1.376,8.992 2.752,0 0,-8 -2.752,0 0,8"
         style="font-size:16px;font-weight:900;line-height:125%;fill:#00a6d7;font-family:Source Sans Pro;-inkscape-font-specification:Source Sans Pro Heavy"
         id="path4091" />
      <path
         d="m 376.73852,260.44162 2.752,0 0,-5.248 c 0.416,-0.384 0.704,-0.608 1.216,-0.608 0.544,0 0.8,0.256 0.8,1.28 l 0,4.576 2.752,0 0,-4.928 c 0,-1.984 -0.73601,-3.264 -2.496,-3.264 -1.088,0 -1.888,0.544 -2.528,1.152 l -0.064,0 -0.192,-0.96 -2.24,0 0,8"
         style="font-size:16px;font-weight:900;line-height:125%;fill:#00a6d7;font-family:Source Sans Pro;-inkscape-font-specification:Source Sans Pro Heavy"
         id="path4093" />
      <path
         d="m 387.84302,261.30562 c 0,-0.224 0.096,-0.384 0.288,-0.576 0.224,0.064 0.512,0.096 1.152,0.096 l 0.624,0 c 0.688,0 1.072,0.064 1.072,0.48 0,0.448 -0.672,0.736 -1.568,0.736 -0.928,0 -1.568,-0.224 -1.568,-0.736 m -2.24,0.448 c 0,1.44 1.536,1.984 3.36,1.984 2.84799,0 4.64,-1.184 4.64,-2.912 0,-1.472 -1.15201,-2.08 -3.152,-2.08 l -1.2,0 c -0.8,0 -1.12,-0.128 -1.12,-0.48 0,-0.224 0.032,-0.32 0.192,-0.464 0.352,0.08 0.64,0.112 0.896,0.112 1.79199,0 3.232,-0.768 3.232,-2.656 0,-0.32 -0.064,-0.64 -0.128,-0.832 l 1.152,0 0,-1.984 -2.976,0 c -0.384,-0.128 -0.832,-0.192 -1.28,-0.192 -1.76,0 -3.424,0.928 -3.424,2.912 0,0.928 0.512,1.664 1.088,2.048 l 0,0.064 c -0.544,0.384 -0.896,0.96 -0.896,1.504 0,0.672 0.32,1.088 0.736,1.376 l 0,0.064 c -0.736,0.384 -1.12,0.88 -1.12,1.536 m 3.616,-5.472 c -0.512,0 -0.864,-0.352 -0.864,-1.12 0,-0.736 0.352,-1.088 0.864,-1.088 0.512,0 0.864,0.352 0.864,1.088 0,0.768 -0.352,1.12 -0.864,1.12"
         style="font-size:16px;font-weight:900;line-height:125%;fill:#00a6d7;font-family:Source Sans Pro;-inkscape-font-specification:Source Sans Pro Heavy"
         id="path4095" />
      <path
         d="m 395.15302,263.70562 c 2.07999,-0.576 3.168,-2.016 3.168,-3.904 0,-1.568 -0.64,-2.496 -1.824,-2.496 -0.928,0 -1.664,0.608 -1.664,1.504 0,0.96 0.768,1.504 1.6,1.504 0.032,0 0.08,0 0.112,0 0,0.784 -0.656,1.536 -1.936,1.952 l 0.544,1.44"
         style="font-size:16px;font-weight:900;line-height:125%;fill:#00a6d7;font-family:Source Sans Pro;-inkscape-font-specification:Source Sans Pro Heavy"
         id="path4097" />
      <path
         d="m 403.07702,255.32162 c 0,3.552 2.304,5.312 5.024,5.312 1.28,0 2.48,-0.512 3.36,-1.536 l -1.504,-1.664 c -0.448,0.48 -1.024,0.832 -1.824,0.832 -1.344,0 -2.24,-1.088 -2.24,-3.04 0,-1.888 1.056,-3.008 2.304,-3.008 0.672,0 1.12,0.256 1.632,0.704 l 1.504,-1.696 c -0.736,-0.736 -1.856,-1.376 -3.168,-1.376 -2.688,0 -5.088,1.984 -5.088,5.472"
         style="font-size:16px;font-weight:900;line-height:125%;fill:#00a6d7;font-family:Source Sans Pro;-inkscape-font-specification:Source Sans Pro Heavy"
         id="path4099" />
      <path
         d="m 412.26002,256.44162 c 0,2.656 1.92,4.192 3.968,4.192 2.04799,0 3.968,-1.536 3.968,-4.192 0,-2.656 -1.92001,-4.192 -3.968,-4.192 -2.048,0 -3.968,1.536 -3.968,4.192 m 2.816,0 c 0,-1.216 0.32,-1.984 1.152,-1.984 0.832,0 1.152,0.768 1.152,1.984 0,1.216 -0.32,1.984 -1.152,1.984 -0.832,0 -1.152,-0.768 -1.152,-1.984"
         style="font-size:16px;font-weight:900;line-height:125%;fill:#00a6d7;font-family:Source Sans Pro;-inkscape-font-specification:Source Sans Pro Heavy"
         id="path4101" />
      <path
         d="m 421.64477,260.44162 2.752,0 0,-5.248 c 0.416,-0.384 0.704,-0.608 1.216,-0.608 0.544,0 0.8,0.256 0.8,1.28 l 0,4.576 2.752,0 0,-4.928 c 0,-1.984 -0.73601,-3.264 -2.496,-3.264 -1.088,0 -1.888,0.544 -2.528,1.152 l -0.064,0 -0.192,-0.96 -2.24,0 0,8"
         style="font-size:16px;font-weight:900;line-height:125%;fill:#00a6d7;font-family:Source Sans Pro;-inkscape-font-specification:Source Sans Pro Heavy"
         id="path4103" />
      <path
         d="m 431.30927,257.36962 c 0,1.952 0.864,3.264 2.944,3.264 0.88,0 1.472,-0.16 1.888,-0.288 l -0.416,-1.984 c -0.192,0.064 -0.448,0.128 -0.704,0.128 -0.512,0 -0.96,-0.288 -0.96,-1.168 l 0,-2.736 1.824,0 0,-2.144 -1.824,0 0,-2.08 -2.272,0 -0.32,2.08 -1.216,0.096 0,2.048 1.056,0 0,2.784"
         style="font-size:16px;font-weight:900;line-height:125%;fill:#00a6d7;font-family:Source Sans Pro;-inkscape-font-specification:Source Sans Pro Heavy"
         id="path4105" />
      <path
         d="m 437.36352,260.44162 2.752,0 0,-4.448 c 0.384,-0.992 1.088,-1.344 1.664,-1.344 0.352,0 0.608,0.064 0.896,0.128 l 0.448,-2.368 c -0.224,-0.096 -0.496,-0.16 -0.992,-0.16 -0.784,0 -1.68,0.48 -2.272,1.568 l -0.064,0 -0.192,-1.376 -2.24,0 0,8"
         style="font-size:16px;font-weight:900;line-height:125%;fill:#00a6d7;font-family:Source Sans Pro;-inkscape-font-specification:Source Sans Pro Heavy"
         id="path4107" />
      <path
         d="m 443.47877,256.44162 c 0,2.656 1.92,4.192 3.968,4.192 2.04799,0 3.968,-1.536 3.968,-4.192 0,-2.656 -1.92001,-4.192 -3.968,-4.192 -2.048,0 -3.968,1.536 -3.968,4.192 m 2.816,0 c 0,-1.216 0.32,-1.984 1.152,-1.984 0.832,0 1.152,0.768 1.152,1.984 0,1.216 -0.32,1.984 -1.152,1.984 -0.832,0 -1.152,-0.768 -1.152,-1.984"
         style="font-size:16px;font-weight:900;line-height:125%;fill:#00a6d7;font-family:Source Sans Pro;-inkscape-font-specification:Source Sans Pro Heavy"
         id="path4109" />
      <path
         d="m 452.86352,257.62562 c 0,1.792 0.608,3.008 2.464,3.008 0.608,0 1.056,-0.096 1.344,-0.224 l -0.32,-2.016 c -0.128,0.032 -0.192,0.032 -0.288,0.032 -0.192,0 -0.448,-0.16 -0.448,-0.704 l 0,-8.416 -2.752,0 0,8.32"
         style="font-size:16px;font-weight:900;line-height:125%;fill:#00a6d7;font-family:Source Sans Pro;-inkscape-font-specification:Source Sans Pro Heavy"
         id="path4111" />
      <path
         d="m 463.03577,257.46562 c 0,-0.368 0.192,-0.672 0.48,-0.976 0.544,0.64 1.184,1.248 1.888,1.808 -0.352,0.16 -0.688,0.256 -1.024,0.256 -0.832,0 -1.344,-0.448 -1.344,-1.088 m 0.88,-4.8 c 0,-0.672 0.384,-1.024 0.816,-1.024 0.4,0 0.608,0.224 0.608,0.672 0,0.608 -0.48,1.008 -1.136,1.392 -0.192,-0.368 -0.288,-0.72 -0.288,-1.04 m 6.896,5.76 c -0.496,-0.064 -1.104,-0.256 -1.728,-0.56 0.784,-1.056 1.328,-2.192 1.696,-3.408 l -2.496,0 c -0.24,0.896 -0.64,1.664 -1.12,2.304 -0.656,-0.464 -1.296,-0.992 -1.824,-1.552 1.056,-0.688 2.08,-1.536 2.08,-2.896 0,-1.504 -1.08801,-2.464 -2.752,-2.464 -1.856,0 -3.008,1.312 -3.008,2.816 0,0.624 0.224,1.344 0.624,2.064 -0.992,0.608 -1.84,1.44 -1.84,2.896 0,1.568 1.168,3.008 3.584,3.008 1.328,0 2.448,-0.384 3.36,-1.008 0.928,0.496 1.872,0.848 2.784,1.008 l 0.64,-2.208"
         style="font-size:16px;font-weight:900;line-height:125%;fill:#00a6d7;font-family:Source Sans Pro;-inkscape-font-specification:Source Sans Pro Heavy"
         id="path4113" />
      <path
         d="m 480.03402,260.63362 c 2.87999,0 4.832,-2.016 4.832,-5.44 0,-3.408 -1.95201,-5.344 -4.832,-5.344 -2.88,0 -4.832,1.92 -4.832,5.344 0,3.424 1.952,5.44 4.832,5.44 m 0,-2.368 c -1.248,0 -2.016,-1.184 -2.016,-3.072 0,-1.888 0.768,-2.976 2.016,-2.976 1.248,0 2.016,1.088 2.016,2.976 0,1.888 -0.768,3.072 -2.016,3.072"
         style="font-size:16px;font-weight:900;line-height:125%;fill:#00a6d7;font-family:Source Sans Pro;-inkscape-font-specification:Source Sans Pro Heavy"
         id="path4115" />
      <path
         d="m 489.14452,259.83362 c 0.512,0.512 1.12,0.8 1.792,0.8 1.69599,0 3.328,-1.568 3.328,-4.32 0,-2.464 -1.21601,-4.064 -3.104,-4.064 -0.8,0 -1.584,0.384 -2.176,0.928 l -0.064,0 -0.192,-0.736 -2.24,0 0,10.816 2.752,0 0,-2.208 -0.096,-1.216 m 0.096,-1.824 0,-2.944 c 0.352,-0.416 0.672,-0.576 1.088,-0.576 0.736,0 1.12,0.544 1.12,1.856 0,1.536 -0.544,2.048 -1.184,2.048 -0.352,0 -0.704,-0.096 -1.024,-0.384"
         style="font-size:16px;font-weight:900;line-height:125%;fill:#00a6d7;font-family:Source Sans Pro;-inkscape-font-specification:Source Sans Pro Heavy"
         id="path4117" />
      <path
         d="m 496.12177,257.36962 c 0,1.952 0.864,3.264 2.944,3.264 0.88,0 1.472,-0.16 1.888,-0.288 l -0.416,-1.984 c -0.192,0.064 -0.448,0.128 -0.704,0.128 -0.512,0 -0.96,-0.288 -0.96,-1.168 l 0,-2.736 1.824,0 0,-2.144 -1.824,0 0,-2.08 -2.272,0 -0.32,2.08 -1.216,0.096 0,2.048 1.056,0 0,2.784"
         style="font-size:16px;font-weight:900;line-height:125%;fill:#00a6d7;font-family:Source Sans Pro;-inkscape-font-specification:Source Sans Pro Heavy"
         id="path4119" />
      <path
         d="m 503.55202,251.44962 c 0.896,0 1.536,-0.576 1.536,-1.376 0,-0.8 -0.64,-1.376 -1.536,-1.376 -0.896,0 -1.536,0.576 -1.536,1.376 0,0.8 0.64,1.376 1.536,1.376 m -1.376,8.992 2.752,0 0,-8 -2.752,0 0,8"
         style="font-size:16px;font-weight:900;line-height:125%;fill:#00a6d7;font-family:Source Sans Pro;-inkscape-font-specification:Source Sans Pro Heavy"
         id="path4121" />
      <path
         d="m 506.76977,260.44162 2.752,0 0,-5.248 c 0.416,-0.416 0.8,-0.608 1.12,-0.608 0.544,0 0.8,0.256 0.8,1.28 l 0,4.576 2.752,0 0,-5.248 c 0.416,-0.416 0.8,-0.608 1.12,-0.608 0.544,0 0.8,0.256 0.8,1.28 l 0,4.576 2.752,0 0,-4.928 c 0,-1.984 -0.76801,-3.264 -2.528,-3.264 -1.088,0 -1.808,0.608 -2.464,1.28 -0.432,-0.832 -1.12,-1.28 -2.208,-1.28 -1.088,0 -1.76,0.544 -2.4,1.168 l -0.064,0 -0.192,-0.976 -2.24,0 0,8"
         style="font-size:16px;font-weight:900;line-height:125%;fill:#00a6d7;font-family:Source Sans Pro;-inkscape-font-specification:Source Sans Pro Heavy"
         id="path4123" />
      <path
         d="m 522.02077,251.44962 c 0.896,0 1.536,-0.576 1.536,-1.376 0,-0.8 -0.64,-1.376 -1.536,-1.376 -0.896,0 -1.536,0.576 -1.536,1.376 0,0.8 0.64,1.376 1.536,1.376 m -1.376,8.992 2.752,0 0,-8 -2.752,0 0,8"
         style="font-size:16px;font-weight:900;line-height:125%;fill:#00a6d7;font-family:Source Sans Pro;-inkscape-font-specification:Source Sans Pro Heavy"
         id="path4125" />
      <path
         d="m 524.59852,259.51362 c 0.832,0.672 2.08,1.12 3.104,1.12 2.23999,0 3.424,-1.152 3.424,-2.656 0,-1.44 -1.088,-2.048 -2.048,-2.4 -0.8,-0.288 -1.504,-0.448 -1.504,-0.864 0,-0.32 0.24,-0.448 0.704,-0.448 0.496,0 1.056,0.256 1.632,0.672 l 1.216,-1.632 c -0.704,-0.528 -1.632,-1.056 -2.944,-1.056 -1.888,0 -3.168,1.024 -3.168,2.592 0,1.312 1.088,2 2.016,2.368 0.8,0.32 1.536,0.512 1.536,0.928 0,0.32 -0.224,0.48 -0.8,0.48 -0.56,0 -1.216,-0.256 -1.952,-0.8 l -1.216,1.696"
         style="font-size:16px;font-weight:900;line-height:125%;fill:#00a6d7;font-family:Source Sans Pro;-inkscape-font-specification:Source Sans Pro Heavy"
         id="path4127" />
      <path
         d="m 532.20127,258.16962 c 0,1.312 0.896,2.464 2.4,2.464 0.864,0 1.568,-0.384 2.208,-0.96 l 0.064,0 0.192,0.768 2.24,0 0,-4.448 c 0,-2.624 -1.24801,-3.744 -3.328,-3.744 -1.248,0 -2.4,0.384 -3.52,1.056 l 0.96,1.792 c 0.832,-0.448 1.44,-0.672 2.016,-0.672 0.704,0 1.056,0.256 1.12,0.832 -3.072,0.32 -4.352,1.248 -4.352,2.912 m 2.624,-0.224 c 0,-0.448 0.416,-0.864 1.728,-1.056 l 0,1.088 c -0.288,0.32 -0.544,0.544 -0.992,0.544 -0.48,0 -0.736,-0.208 -0.736,-0.576"
         style="font-size:16px;font-weight:900;line-height:125%;fill:#00a6d7;font-family:Source Sans Pro;-inkscape-font-specification:Source Sans Pro Heavy"
         id="path4129" />
      <path
         d="m 541.49677,257.36962 c 0,1.952 0.864,3.264 2.944,3.264 0.88,0 1.472,-0.16 1.888,-0.288 l -0.416,-1.984 c -0.192,0.064 -0.448,0.128 -0.704,0.128 -0.512,0 -0.96,-0.288 -0.96,-1.168 l 0,-2.736 1.824,0 0,-2.144 -1.824,0 0,-2.08 -2.272,0 -0.32,2.08 -1.216,0.096 0,2.048 1.056,0 0,2.784"
         style="font-size:16px;font-weight:900;line-height:125%;fill:#00a6d7;font-family:Source Sans Pro;-inkscape-font-specification:Source Sans Pro Heavy"
         id="path4131" />
      <path
         d="m 548.92702,251.44962 c 0.896,0 1.536,-0.576 1.536,-1.376 0,-0.8 -0.64,-1.376 -1.536,-1.376 -0.896,0 -1.536,0.576 -1.536,1.376 0,0.8 0.64,1.376 1.536,1.376 m -1.376,8.992 2.752,0 0,-8 -2.752,0 0,8"
         style="font-size:16px;font-weight:900;line-height:125%;fill:#00a6d7;font-family:Source Sans Pro;-inkscape-font-specification:Source Sans Pro Heavy"
         id="path4133" />
      <path
         d="m 551.72877,256.44162 c 0,2.656 1.92,4.192 3.968,4.192 2.04799,0 3.968,-1.536 3.968,-4.192 0,-2.656 -1.92001,-4.192 -3.968,-4.192 -2.048,0 -3.968,1.536 -3.968,4.192 m 2.816,0 c 0,-1.216 0.32,-1.984 1.152,-1.984 0.832,0 1.152,0.768 1.152,1.984 0,1.216 -0.32,1.984 -1.152,1.984 -0.832,0 -1.152,-0.768 -1.152,-1.984"
         style="font-size:16px;font-weight:900;line-height:125%;fill:#00a6d7;font-family:Source Sans Pro;-inkscape-font-specification:Source Sans Pro Heavy"
         id="path4135" />
      <path
         d="m 561.11352,260.44162 2.752,0 0,-5.248 c 0.416,-0.384 0.704,-0.608 1.216,-0.608 0.544,0 0.8,0.256 0.8,1.28 l 0,4.576 2.752,0 0,-4.928 c 0,-1.984 -0.73601,-3.264 -2.496,-3.264 -1.088,0 -1.888,0.544 -2.528,1.152 l -0.064,0 -0.192,-0.96 -2.24,0 0,8"
         style="font-size:16px;font-weight:900;line-height:125%;fill:#00a6d7;font-family:Source Sans Pro;-inkscape-font-specification:Source Sans Pro Heavy"
         id="path4137" />
    </g>
  </g>
</svg>
