%!PS-Adobe-3.0 EPSF-3.0
%%Creator: cairo 1.14.0 (http://cairographics.org)
%%CreationDate: Fri May 22 14:45:38 2015
%%Pages: 1
%%DocumentData: Clean7Bit
%%LanguageLevel: 3
%%BoundingBox: 6 7 611 197
%%EndComments
%%BeginProlog
save
50 dict begin
/q { gsave } bind def
/Q { grestore } bind def
/cm { 6 array astore concat } bind def
/w { setlinewidth } bind def
/J { setlinecap } bind def
/j { setlinejoin } bind def
/M { setmiterlimit } bind def
/d { setdash } bind def
/m { moveto } bind def
/l { lineto } bind def
/c { curveto } bind def
/h { closepath } bind def
/re { exch dup neg 3 1 roll 5 3 roll moveto 0 rlineto
      0 exch rlineto 0 rlineto closepath } bind def
/S { stroke } bind def
/f { fill } bind def
/f* { eofill } bind def
/n { newpath } bind def
/W { clip } bind def
/W* { eoclip } bind def
/BT { } bind def
/ET { } bind def
/pdfmark where { pop globaldict /?pdfmark /exec load put }
    { globaldict begin /?pdfmark /pop load def /pdfmark
    /cleartomark load def end } ifelse
/BDC { mark 3 1 roll /BDC pdfmark } bind def
/EMC { mark /EMC pdfmark } bind def
/cairo_store_point { /cairo_point_y exch def /cairo_point_x exch def } def
/Tj { show currentpoint cairo_store_point } bind def
/TJ {
  {
    dup
    type /stringtype eq
    { show } { -0.001 mul 0 cairo_font_matrix dtransform rmoveto } ifelse
  } forall
  currentpoint cairo_store_point
} bind def
/cairo_selectfont { cairo_font_matrix aload pop pop pop 0 0 6 array astore
    cairo_font exch selectfont cairo_point_x cairo_point_y moveto } bind def
/Tf { pop /cairo_font exch def /cairo_font_matrix where
      { pop cairo_selectfont } if } bind def
/Td { matrix translate cairo_font_matrix matrix concatmatrix dup
      /cairo_font_matrix exch def dup 4 get exch 5 get cairo_store_point
      /cairo_font where { pop cairo_selectfont } if } bind def
/Tm { 2 copy 8 2 roll 6 array astore /cairo_font_matrix exch def
      cairo_store_point /cairo_font where { pop cairo_selectfont } if } bind def
/g { setgray } bind def
/rg { setrgbcolor } bind def
/d1 { setcachedevice } bind def
%%EndProlog
%%BeginSetup
%%EndSetup
%%Page: 1 1
%%BeginPageSetup
%%PageBoundingBox: 6 7 611 197
%%EndPageSetup
q 6 7 605 190 rectclip q
0.0117647 0.305882 0.635294 rg
242.656 125.29 m 232.973 129.559 221.211 129.821 214.613 129.559 c 200.984
 129.02 196.699 127.845 196.699 127.845 c 196.699 62.423 l 196.699 61.637
 197.195 60.938 197.922 60.692 c 197.953 60.677 204.078 58.86 214.738 58.575
 c 228.453 58.22 238.461 60.036 245.93 65.032 c 255.953 71.739 260.887 81.278
 260.887 95.223 c 260.887 109.845 254.758 119.962 242.656 125.29 c h
224.695 73.809 m 218.891 73.555 215.309 73.958 213.645 74.446 c 213.656
 113.962 l 215.488 114.251 219.645 114.63 225.184 114.423 c 232.102 114.157
 243.715 111.708 243.715 95.93 c 243.719 79.477 231.859 74.122 224.695 73.809
 c h
296.945 102.141 m 296.633 102.239 296.355 102.325 296.113 102.407 c 291.273
 104.032 287.301 106.505 287.109 109.837 c 287.012 111.641 287.664 113.251
 288.605 114.251 c 289.969 115.688 292.438 116.255 293.988 116.255 c 301.609
 116.255 308.691 112.637 308.691 112.637 c 312.883 123.86 l 313.035 124.313
 313.016 124.813 312.82 125.239 c 312.617 125.673 312.242 126.016 311.785
 126.177 c 311.699 126.204 l 308.023 127.579 301.402 129.61 293.789 129.723
 c 279 129.927 270.117 122.415 270.117 110.18 c 270.117 95.743 282.289 91.048
 286.293 89.427 c 286.973 89.141 287.73 88.852 288.52 88.552 c 291.172 87.548
 294.109 86.298 296.348 84.907 c 298.793 83.38 299.312 80.571 298.93 78.727
 c 297.82 73.395 291.965 72.243 287.289 72.946 c 278.375 74.282 273.695 
76.755 273.695 76.755 c 269.867 65.438 l 269.586 64.61 269.949 63.7 270.715
 63.278 c 270.789 63.243 278.961 59.102 289.438 59.102 c 301.414 59.102 
315.395 64.805 315.395 80.919 c 315.395 95.743 302.547 100.36 296.945 102.141
 c h
405.461 126.384 m 405.461 61.759 l 405.461 61.274 405.27 60.817 404.926
 60.473 c 404.586 60.153 404.129 59.966 403.66 59.966 c 388.523 59.946 l
 388.523 59.946 388.621 86.579 388.523 91.884 c 388.461 95.376 389.547 106.059
 389.941 107.86 c 389.945 107.88 389.945 107.938 389.949 107.985 c 389.891
 108.266 389.656 108.184 389.586 108.134 c 389.551 108.106 389.5 108.044
 389.5 108.044 c 372.332 80.345 l 372.23 80.161 372.125 80.001 371.984 79.848
 c 371.645 79.516 371.191 79.333 370.707 79.333 c 366.488 79.345 l 366.48
 79.345 l 362.254 79.333 l 361.777 79.333 361.316 79.516 360.98 79.848 c
 360.84 80.001 360.734 80.161 360.637 80.345 c 343.469 108.044 l 343.469
 108.044 343.414 108.106 343.383 108.134 c 343.309 108.184 343.074 108.266
 343.016 107.985 c 343.016 107.938 343.016 107.88 343.023 107.86 c 343.41
 106.059 344.504 95.376 344.438 91.884 c 344.344 86.579 344.438 59.946 344.438
 59.946 c 329.305 59.966 l 328.84 59.966 328.379 60.153 328.039 60.473 c
 327.695 60.817 327.5 61.274 327.5 61.759 c 327.5 126.384 l 327.5 127.372
 328.312 128.169 329.305 128.169 c 347.586 128.169 l 348.348 128.169 348.938
 127.774 349.332 127.145 c 349.332 127.145 362.254 104.907 363.797 102.251
 c 364.789 100.559 366.254 96.634 366.246 96.395 c 366.246 96.368 l 366.254
 96.368 l 366.262 96.251 366.355 96.161 366.477 96.157 c 366.488 96.157 
l 366.605 96.161 366.699 96.251 366.711 96.368 c 366.723 96.368 l 366.723
 96.395 l 366.711 96.63 368.18 100.559 369.164 102.251 c 370.707 104.907
 383.633 127.145 383.633 127.145 c 384.027 127.774 384.617 128.169 385.383
 128.169 c 403.66 128.169 l 404.652 128.169 405.461 127.372 405.461 126.384
 c h
405.461 126.384 m f
0 0.564706 0.839216 rg
202.203 24.196 m 196.75 24.196 l 196.75 42.962 l 201.711 42.962 l 204.508
 42.962 205.484 42.774 206.652 42.044 c 208.059 41.149 208.77 39.927 208.77
 38.356 c 208.77 36.348 207.629 34.86 205.539 34.259 c 208.66 33.501 209.527
 31.384 209.527 29.512 c 209.527 25.798 206.945 24.196 202.203 24.196 c 
h
203.965 40.2 m 203.582 40.337 203.098 40.415 202.203 40.415 c 199.785 40.415
 l 199.785 35.294 l 202.445 35.294 l 203.582 35.294 204.152 35.372 204.75
 35.997 c 205.32 36.591 205.484 37.38 205.484 37.868 c 205.484 38.95 204.855
 39.872 203.965 40.2 c h
204.316 32.552 m 203.855 32.684 203.473 32.712 202.582 32.712 c 199.84 
32.712 l 199.84 26.774 l 202.664 26.774 l 205.047 26.774 206.078 28.13 206.078
 29.809 c 206.078 31.137 205.348 32.255 204.316 32.552 c h
204.316 32.552 m f
222.438 24.196 m 220.809 27.098 l 219.508 29.403 218.641 30.708 217.609
 31.735 c 217.258 32.091 216.984 32.278 216.391 32.305 c 216.391 24.196 
l 213.324 24.196 l 213.324 42.962 l 219.047 42.962 l 223.25 42.962 225.148
 40.524 225.148 37.595 c 225.148 34.911 223.414 32.442 220.484 32.442 c 
221.164 32.091 222.41 30.27 223.387 28.696 c 226.152 24.196 l h
218.098 40.442 m 216.391 40.442 l 216.391 34.501 l 217.988 34.501 l 219.617
 34.501 220.484 34.723 221.055 35.294 c 221.57 35.805 221.895 36.587 221.895
 37.571 c 221.895 39.466 220.863 40.442 218.098 40.442 c h
218.098 40.442 m f
229.141 42.962 3.199 -18.766 re f
244.355 23.95 m 241.723 23.95 239.691 24.794 238.227 26.61 c 236.789 28.372
 236.137 30.489 236.137 33.446 c 236.137 37.298 237.305 39.981 239.664 41.743
 c 241.02 42.774 242.48 43.208 244.301 43.208 c 246.445 43.208 248.344 42.563
 249.887 41.227 c 248.316 39.274 l 247.016 40.278 245.793 40.712 244.355
 40.712 c 240.883 40.712 239.609 37.677 239.609 33.286 c 239.609 30.653 
240.098 28.805 240.992 27.751 c 241.75 26.856 243.109 26.337 244.547 26.337
 c 245.523 26.337 246.336 26.555 247.043 26.934 c 247.043 31.813 l 243.84
 31.813 l 243.406 34.368 l 250.215 34.368 l 250.215 25.524 l 248.508 24.493
 246.445 23.95 244.355 23.95 c h
244.355 23.95 m f
264.051 24.196 m 264.051 32.872 l 257.648 32.872 l 257.648 24.196 l 254.559
 24.196 l 254.559 42.962 l 257.648 42.962 l 257.648 35.423 l 264.051 35.423
 l 264.051 42.962 l 267.195 42.962 l 267.195 24.196 l h
264.051 24.196 m f
282.629 40.36 m 277.91 40.36 l 277.91 24.196 l 274.793 24.196 l 274.793
 40.36 l 270.043 40.36 l 270.043 42.962 l 283.039 42.962 l h
282.629 40.36 m f
295.707 23.845 m 293.562 23.845 291.395 24.415 289.551 25.524 c 290.742
 27.911 l 292.426 26.934 293.914 26.364 295.812 26.364 c 298.121 26.364 
299.504 27.481 299.504 29.348 c 299.504 30.735 298.637 31.598 296.711 32.141
 c 294.703 32.712 l 292.996 33.2 291.773 33.907 291.066 34.962 c 290.555
 35.723 290.281 36.618 290.281 37.704 c 290.281 41.012 292.887 43.262 296.656
 43.262 c 298.801 43.262 300.941 42.641 302.598 41.473 c 301.188 39.274 
l 299.449 40.305 298.254 40.712 296.766 40.712 c 294.922 40.712 293.699 
39.712 293.699 38.161 c 293.699 36.997 294.352 36.399 296.195 35.86 c 298.418
 35.204 l 301.129 34.419 303.027 32.684 303.027 29.864 c 303.027 26.747 
300.504 23.845 295.707 23.845 c h
295.707 23.845 m f
313.961 23.899 m 311.469 23.899 309.488 24.845 308.023 26.61 c 306.613 
28.321 305.879 30.598 305.879 33.305 c 305.879 35.559 306.289 37.43 307.129
 39.005 c 308.539 41.692 311.113 43.321 314.043 43.321 c 315.863 43.321 
317.598 42.774 318.711 41.856 c 317.273 39.794 l 316.27 40.528 315.238 40.852
 314.07 40.852 c 312.473 40.852 311.141 40.036 310.328 38.598 c 309.68 37.458
 309.352 35.887 309.352 33.665 c 309.352 31.36 309.598 30.055 310.086 28.997
 c 310.898 27.208 312.441 26.341 314.266 26.341 c 315.59 26.341 316.566 
26.692 317.625 27.536 c 319.09 25.552 l 317.625 24.442 315.969 23.899 313.961
 23.899 c h
313.961 23.899 m f
322.074 42.962 3.199 -18.766 re f
329.887 24.196 m 329.887 42.962 l 340.301 42.962 l 339.895 40.411 l 333.008
 40.411 l 333.008 35.294 l 338.781 35.294 l 338.781 32.712 l 333.062 32.712
 l 333.062 26.856 l 340.57 26.856 l 340.57 24.196 l h
329.887 24.196 m f
353.133 24.196 m 348.926 33.009 l 347.926 35.098 346.895 37.458 346.543
 38.571 c 346.461 38.493 l 346.598 36.919 346.625 35.126 346.652 33.286 
c 346.758 24.196 l 343.695 24.196 l 343.695 42.962 l 347.219 42.962 l 351.773
 33.798 l 352.645 32.063 353.457 29.841 353.703 28.97 c 353.781 29.052 l
 353.703 30.001 353.512 32.684 353.512 34.395 c 353.457 42.962 l 356.414
 42.962 l 356.414 24.196 l h
353.133 24.196 m f
368.297 23.899 m 365.801 23.899 363.82 24.845 362.355 26.61 c 360.945 28.321
 360.215 30.598 360.215 33.305 c 360.215 35.559 360.621 37.43 361.461 39.005
 c 362.871 41.692 365.449 43.321 368.379 43.321 c 370.195 43.321 371.93 
42.774 373.043 41.856 c 371.605 39.794 l 370.602 40.528 369.57 40.852 368.406
 40.852 c 366.805 40.852 365.473 40.036 364.66 38.598 c 364.012 37.458 363.684
 35.887 363.684 33.665 c 363.684 31.36 363.93 30.055 364.418 28.997 c 365.23
 27.208 366.777 26.341 368.594 26.341 c 369.922 26.341 370.898 26.692 371.957
 27.536 c 373.422 25.552 l 371.957 24.442 370.305 23.899 368.297 23.899 
c h
368.297 23.899 m f
376.406 24.196 m 376.406 42.962 l 386.824 42.962 l 386.422 40.411 l 379.527
 40.411 l 379.527 35.294 l 385.305 35.294 l 385.305 32.712 l 379.582 32.712
 l 379.582 26.856 l 387.094 26.856 l 387.094 24.196 l h
376.406 24.196 m f
391.816 23.79 m 390.625 23.79 389.672 24.794 389.672 26.012 c 389.672 27.208
 390.594 28.157 391.762 28.157 c 392.953 28.157 393.93 27.208 393.93 26.012
 c 393.93 24.794 392.957 23.79 391.816 23.79 c h
391.816 23.79 m f
409.559 24.196 m 404.105 24.196 l 404.105 42.962 l 409.07 42.962 l 411.863
 42.962 412.84 42.774 414.004 42.044 c 415.418 41.149 416.121 39.927 416.121
 38.356 c 416.121 36.348 414.98 34.86 412.895 34.259 c 416.012 33.501 416.879
 31.384 416.879 29.512 c 416.879 25.798 414.305 24.196 409.559 24.196 c 
h
411.32 40.2 m 410.941 40.337 410.449 40.415 409.559 40.415 c 407.145 40.415
 l 407.145 35.294 l 409.801 35.294 l 410.941 35.294 411.508 35.372 412.105
 35.997 c 412.672 36.591 412.84 37.38 412.84 37.868 c 412.84 38.95 412.215
 39.872 411.32 40.2 c h
411.672 32.552 m 411.211 32.684 410.832 32.712 409.938 32.712 c 407.195
 32.712 l 407.195 26.774 l 410.016 26.774 l 412.402 26.774 413.438 28.13
 413.438 29.809 c 413.438 31.137 412.699 32.255 411.672 32.552 c h
411.672 32.552 m f
429.793 24.196 m 428.164 27.098 l 426.863 29.403 425.996 30.708 424.965
 31.735 c 424.609 32.091 424.34 32.278 423.746 32.305 c 423.746 24.196 l
 420.68 24.196 l 420.68 42.962 l 426.402 42.962 l 430.605 42.962 432.504
 40.524 432.504 37.595 c 432.504 34.911 430.77 32.442 427.84 32.442 c 428.52
 32.091 429.766 30.27 430.742 28.696 c 433.508 24.196 l h
425.453 40.442 m 423.742 40.442 l 423.742 34.501 l 425.344 34.501 l 426.969
 34.501 427.836 34.723 428.406 35.294 c 428.926 35.805 429.246 36.587 429.246
 37.571 c 429.246 39.466 428.219 40.442 425.453 40.442 c h
425.453 40.442 m f
436.496 42.962 3.199 -18.766 re f
451.711 23.95 m 449.078 23.95 447.043 24.794 445.582 26.61 c 444.141 28.372
 443.492 30.489 443.492 33.446 c 443.492 37.298 444.66 39.981 447.02 41.743
 c 448.375 42.774 449.84 43.208 451.656 43.208 c 453.801 43.208 455.695 
42.563 457.242 41.227 c 455.668 39.274 l 454.367 40.278 453.148 40.712 451.711
 40.712 c 448.238 40.712 446.965 37.677 446.965 33.286 c 446.965 30.653 
447.453 28.805 448.344 27.751 c 449.105 26.856 450.465 26.337 451.902 26.337
 c 452.875 26.337 453.688 26.555 454.395 26.934 c 454.395 31.813 l 451.191
 31.813 l 450.762 34.368 l 457.566 34.368 l 457.566 25.524 l 455.863 24.493
 453.801 23.95 451.711 23.95 c h
451.711 23.95 m f
471.406 24.196 m 471.406 32.872 l 465.004 32.872 l 465.004 24.196 l 461.91
 24.196 l 461.91 42.962 l 465.004 42.962 l 465.004 35.423 l 471.406 35.423
 l 471.406 42.962 l 474.551 42.962 l 474.551 24.196 l h
471.406 24.196 m f
489.984 40.36 m 485.27 40.36 l 485.27 24.196 l 482.148 24.196 l 482.148
 40.36 l 477.402 40.36 l 477.402 42.962 l 490.391 42.962 l h
489.984 40.36 m f
492.293 24.196 m 492.293 42.962 l 502.707 42.962 l 502.297 40.411 l 495.41
 40.411 l 495.41 35.294 l 501.191 35.294 l 501.191 32.712 l 495.469 32.712
 l 495.469 26.856 l 502.98 26.856 l 502.98 24.196 l h
492.293 24.196 m f
515.215 24.196 m 513.586 27.098 l 512.285 29.403 511.418 30.708 510.387
 31.735 c 510.035 32.091 509.762 32.278 509.168 32.305 c 509.168 24.196 
l 506.102 24.196 l 506.102 42.962 l 511.824 42.962 l 516.027 42.962 517.926
 40.524 517.926 37.595 c 517.926 34.911 516.191 32.442 513.262 32.442 c 
513.938 32.091 515.188 30.27 516.164 28.696 c 518.93 24.196 l h
510.875 40.442 m 509.164 40.442 l 509.164 34.501 l 510.766 34.501 l 512.391
 34.501 513.262 34.723 513.828 35.294 c 514.344 35.805 514.672 36.587 514.672
 37.571 c 514.672 39.466 513.641 40.442 510.875 40.442 c h
510.875 40.442 m f
537.621 24.196 m 528.02 24.196 l 528.02 42.962 l 531.195 42.962 l 531.195
 26.774 l 538.137 26.774 l h
537.621 24.196 m f
540.848 42.962 3.199 -18.766 re f
555.441 24.114 m 552.539 24.114 l 546.223 42.962 l 549.641 42.962 l 553.027
 32.337 l 553.516 30.841 553.844 29.485 554.004 28.563 c 554.059 28.563 
l 554.273 29.462 554.547 30.544 555.199 32.497 c 558.641 42.962 l 561.898
 42.962 l h
555.441 24.114 m f
564.07 42.962 3.203 -18.766 re f
581.32 24.196 m 577.117 33.009 l 576.113 35.098 575.082 37.458 574.727 
38.571 c 574.645 38.493 l 574.785 36.919 574.812 35.126 574.836 33.286 c
 574.945 24.196 l 571.883 24.196 l 571.883 42.962 l 575.406 42.962 l 579.965
 33.798 l 580.832 32.063 581.645 29.841 581.891 28.97 c 581.969 29.052 l
 581.891 30.001 581.699 32.684 581.699 34.395 c 581.645 42.962 l 584.602
 42.962 l 584.602 24.196 l h
581.32 24.196 m f
596.621 23.95 m 593.988 23.95 591.953 24.794 590.488 26.61 c 589.055 28.372
 588.402 30.489 588.402 33.446 c 588.402 37.298 589.57 39.981 591.93 41.743
 c 593.281 42.774 594.75 43.208 596.566 43.208 c 598.707 43.208 600.609 
42.563 602.152 41.227 c 600.582 39.274 l 599.281 40.278 598.059 40.712 596.621
 40.712 c 593.152 40.712 591.875 37.677 591.875 33.286 c 591.875 30.653 
592.359 28.805 593.258 27.751 c 594.016 26.856 595.371 26.337 596.809 26.337
 c 597.785 26.337 598.602 26.555 599.305 26.934 c 599.305 31.813 l 596.102
 31.813 l 595.672 34.368 l 602.477 34.368 l 602.477 25.524 l 600.77 24.493
 598.707 23.95 596.621 23.95 c h
596.621 23.95 m f
608.422 23.79 m 607.23 23.79 606.277 24.794 606.277 26.012 c 606.277 27.208
 607.199 28.157 608.363 28.157 c 609.562 28.157 610.539 27.208 610.539 26.012
 c 610.539 24.794 609.562 23.79 608.422 23.79 c h
608.422 23.79 m f
q
161.285 190.384 m 138.93 183.696 128.262 173.274 131.598 144.45 c 134.344
 125.516 132.738 109.446 129.926 98.602 c 129.324 96.278 128.73 94.411 128.121
 92.79 c 127.934 92.134 127.688 91.47 127.363 90.813 c 125.68 87.329 121.902
 79.993 120.16 77.247 c 118.844 75.165 115.621 71.786 111.586 71.825 c 107.668
 71.852 99.113 72.165 96.895 72.165 c 94.766 72.165 90.824 71.923 90.824
 71.923 c 96.527 65.786 106.504 60.196 119.965 60.063 c 129.996 59.958 141.328
 62.802 152.168 70.583 c 191.516 98.802 181.746 170.696 161.285 190.384 
c h
161.285 190.384 m W n
[0.8 0 0 -0.8 0 203.199997] concat
/CairoFunction
<< /FunctionType 3
   /Domain [ 0 1 ]
   /Functions [
   << /FunctionType 2
      /Domain [ 0 1 ]
      /C0 [ 0.992157 0.709804 0.0823529 ]
      /C1 [ 0.980392 0.65098 0.101961 ]
      /N 1
   >>
   << /FunctionType 2
      /Domain [ 0 1 ]
      /C0 [ 0.980392 0.65098 0.101961 ]
      /C1 [ 0.741176 0.211765 0.509804 ]
      /N 1
   >>
   << /FunctionType 2
      /Domain [ 0 1 ]
      /C0 [ 0.741176 0.211765 0.509804 ]
      /C1 [ 0.741176 0.211765 0.509804 ]
      /N 1
   >>
   ]
   /Bounds [ 0.12 0.8418 ]
   /Encode [ 1 1 3 { pop 0 1 } for ]
>>
def
   << /ShadingType 2
      /ColorSpace /DeviceRGB
      /Coords [ 223.717606 28.0804 140.240997 181.120499 ]
      /Extend [ true true ]
      /Function CairoFunction
   >>
shfill
Q
q
79.465 120.852 m 51.809 112.188 37.488 78.126 49.68 43.985 c 50.656 41.239
 51.801 38.501 53.133 35.766 c 70.184 0.72 104.121 8.704 104.121 8.704 c
 104.121 8.704 116.398 31.938 93.723 49.973 c 77.891 62.571 69.66 75.145
 77.285 94.813 c 77.684 95.856 78.168 96.93 78.676 98.016 c 78.762 98.208
 78.848 98.415 78.945 98.618 c 81.59 104.407 85.562 110.177 88 113.723 c
 89.656 116.126 91.594 117.302 95.883 117.661 c 99.867 117.997 109.387 117.782
 111.938 117.591 c 115.633 117.294 117.246 116.696 119.152 113.837 c 119.195
 113.766 119.238 113.7 119.285 113.626 c 113.828 123.782 96.289 126.122 
79.465 120.852 c h
79.465 120.852 m W n
[0.8 0 0 -0.8 0 203.199997] concat
/CairoFunction
<< /FunctionType 3
   /Domain [ 0 1 ]
   /Functions [
   << /FunctionType 2
      /Domain [ 0 1 ]
      /C0 [ 0.560784 0.788235 0.360784 ]
      /C1 [ 0.45098 0.752941 0.337255 ]
      /N 1
   >>
   << /FunctionType 2
      /Domain [ 0 1 ]
      /C0 [ 0.45098 0.752941 0.337255 ]
      /C1 [ 0 0.513726 0.290196 ]
      /N 1
   >>
   ]
   /Bounds [ 0.2704 ]
   /Encode [ 1 1 2 { pop 0 1 } for ]
>>
def
   << /ShadingType 2
      /ColorSpace /DeviceRGB
      /Coords [ 102.863899 244.098495 102.863899 99.525101 ]
      /Extend [ true true ]
      /Function CairoFunction
   >>
shfill
Q
q
98.289 71.802 m 95.406 72.184 93.02 72.165 91.531 72.735 c 91.52 72.751
 l 90.211 73.239 88.992 74.114 87.945 75.649 c 85.574 79.141 80.879 87.204
 79.238 90.548 c 77.469 94.153 77.629 95.759 78.938 98.618 c 81.59 104.407
 85.562 110.177 88 113.72 c 88.059 113.802 88.117 113.887 88.172 113.962
 c 87.023 112.981 77.586 104.848 71.34 96.251 c 59.848 80.438 63.016 58.583
 76.105 45.024 c 85.68 35.114 96.871 33.075 105.414 33.313 c 121.105 33.743
 135.504 46.059 135.504 46.059 c 130.359 61.18 115.734 69.524 98.289 71.802
 c h
98.289 71.802 m W n
[0.8 0 0 -0.8 0 203.199997] concat
/CairoFunction
<< /FunctionType 3
   /Domain [ 0 1 ]
   /Functions [
   << /FunctionType 2
      /Domain [ 0 1 ]
      /C0 [ 0.211765 0.74902 0.745098 ]
      /C1 [ 0.0941176 0.729412 0.670588 ]
      /N 1
   >>
   << /FunctionType 2
      /Domain [ 0 1 ]
      /C0 [ 0.0941176 0.729412 0.670588 ]
      /C1 [ 0 0.631373 0.509804 ]
      /N 1
   >>
   << /FunctionType 2
      /Domain [ 0 1 ]
      /C0 [ 0 0.631373 0.509804 ]
      /C1 [ 0 0.631373 0.509804 ]
      /N 1
   >>
   ]
   /Bounds [ 0.2615 0.8872 ]
   /Encode [ 1 1 3 { pop 0 1 } for ]
>>
def
   << /ShadingType 2
      /ColorSpace /DeviceRGB
      /Coords [ 158.061798 208.143494 84.535698 137.140198 ]
      /Extend [ true true ]
      /Function CairoFunction
   >>
shfill
Q
q
105.414 33.309 m 105.578 33.309 105.734 33.325 105.891 33.333 c 104.078
 38.841 100.43 44.637 93.723 49.973 c 77.891 62.567 69.66 75.145 77.285 
94.813 c 77.684 95.856 78.168 96.923 78.672 98.009 c 78.758 98.208 78.844
 98.411 78.938 98.618 c 81.59 104.407 85.562 110.177 88 113.72 c 88.059 
113.802 88.117 113.88 88.168 113.954 c 87.023 112.981 77.586 104.848 71.34
 96.251 c 59.848 80.438 63.016 58.583 76.105 45.024 c 85.68 35.114 96.871
 33.075 105.414 33.309 c h
105.414 33.309 m W n
[0.8 0 0 -0.8 0 203.199997] concat
/CairoFunction
<< /FunctionType 3
   /Domain [ 0 1 ]
   /Functions [
   << /FunctionType 2
      /Domain [ 0 1 ]
      /C0 [ 0 0.329412 0.168627 ]
      /C1 [ 0 0.592157 0.423529 ]
      /N 1
   >>
   << /FunctionType 2
      /Domain [ 0 1 ]
      /C0 [ 0 0.592157 0.423529 ]
      /C1 [ 0 0.592157 0.423529 ]
      /N 1
   >>
   ]
   /Bounds [ 0.9066 ]
   /Encode [ 1 1 2 { pop 0 1 } for ]
>>
def
   << /ShadingType 2
      /ColorSpace /DeviceRGB
      /Coords [ 106.348297 111.556396 106.348297 212.382706 ]
      /Extend [ true true ]
      /Function CairoFunction
   >>
shfill
Q
q
145.93 146.223 m 138.145 167.829 120.023 186.083 96.531 192.376 c 57.262
 202.891 23.832 188.864 6.129 164.669 c 6.129 164.669 19.285 143.637 53.074
 145.427 c 75.008 146.595 97.82 144.427 113.809 121.677 c 115.527 119.239
 117.117 116.872 118.613 114.575 c 118.789 114.352 118.965 114.098 119.148
 113.841 c 120.945 111.126 123.516 107.255 127.508 99.794 c 128.855 97.286
 128.926 94.028 127.363 90.813 c 125.676 87.329 121.902 79.993 120.156 77.247
 c 118.914 75.278 115.977 72.177 112.258 71.852 c 112.238 71.848 112.223
 71.848 112.207 71.845 c 125.367 72.559 136.148 80.848 143.191 93.419 c 
151.504 108.266 152.277 128.606 145.93 146.223 c h
145.93 146.223 m W n
[0.8 0 0 -0.8 0 203.199997] concat
/CairoFunction
<< /FunctionType 3
   /Domain [ 0 1 ]
   /Functions [
   << /FunctionType 2
      /Domain [ 0 1 ]
      /C0 [ 0.372549 0.8 0.960784 ]
      /C1 [ 0.372549 0.8 0.960784 ]
      /N 1
   >>
   << /FunctionType 2
      /Domain [ 0 1 ]
      /C0 [ 0.372549 0.8 0.960784 ]
      /C1 [ 0 0.752941 0.952941 ]
      /N 1
   >>
   << /FunctionType 2
      /Domain [ 0 1 ]
      /C0 [ 0 0.752941 0.952941 ]
      /C1 [ 0 0.752941 0.952941 ]
      /N 1
   >>
   ]
   /Bounds [ 0.0051 0.5969 ]
   /Encode [ 1 1 3 { pop 0 1 } for ]
>>
def
   << /ShadingType 2
      /ColorSpace /DeviceRGB
      /Coords [ 81.107697 7.1162 124.570198 169.320404 ]
      /Extend [ true true ]
      /Function CairoFunction
   >>
shfill
Q
q
130.812 137.438 m 123.332 151.153 105.934 167.2 75.82 167.2 c 33.465 167.2
 10.805 135.391 10.805 104.45 c 10.805 79.934 24.105 55.591 49.68 43.962
 c 40.43 81.481 56.996 115.22 95.387 117.606 c 95.555 117.63 95.711 117.645
 95.879 117.661 c 99.867 117.997 109.383 117.782 111.934 117.591 c 115.629
 117.294 117.242 116.696 119.148 113.837 c 120.945 111.126 123.516 107.247
 127.508 99.79 c 128.855 97.286 128.926 94.028 127.363 90.813 c 125.895 
87.77 122.832 81.813 120.918 78.512 c 121.328 78.985 130.258 89.45 132.996
 96.302 c 139.48 112.505 134.742 130.247 130.812 137.438 c h
130.812 137.438 m W n
[0.8 0 0 -0.8 0 203.199997] concat
/CairoFunction
<< /FunctionType 3
   /Domain [ 0 1 ]
   /Functions [
   << /FunctionType 2
      /Domain [ 0 1 ]
      /C0 [ 0 0.611765 0.878431 ]
      /C1 [ 0 0.611765 0.878431 ]
      /N 1
   >>
   << /FunctionType 2
      /Domain [ 0 1 ]
      /C0 [ 0 0.611765 0.878431 ]
      /C1 [ 0.0117647 0.305882 0.635294 ]
      /N 1
   >>
   << /FunctionType 2
      /Domain [ 0 1 ]
      /C0 [ 0.0117647 0.305882 0.635294 ]
      /C1 [ 0.00392157 0.223529 0.494118 ]
      /N 1
   >>
   ]
   /Bounds [ 0.1582 0.6 ]
   /Encode [ 1 1 3 { pop 0 1 } for ]
>>
def
   << /ShadingType 2
      /ColorSpace /DeviceRGB
      /Coords [ 79.1689 46.218899 104.7892 191.518799 ]
      /Extend [ true true ]
      /Function CairoFunction
   >>
shfill
Q
q
112.207 71.829 m 125.367 72.552 136.152 80.848 143.191 93.419 c 151.504
 108.266 152.277 128.606 145.93 146.223 c 143.02 154.29 138.672 161.887 
133.137 168.571 c 130.977 162.36 130.43 154.532 131.598 144.446 c 134.344
 125.512 132.738 109.442 129.926 98.598 c 129.324 96.27 128.73 94.411 128.121
 92.782 c 127.934 92.126 127.688 91.47 127.363 90.805 c 125.68 87.321 121.902
 79.989 120.16 77.243 c 118.918 75.278 115.973 72.161 112.258 71.848 c h
112.207 71.829 m W n
[0.8 0 0 -0.8 0 203.199997] concat
/CairoFunction
   << /FunctionType 2
      /Domain [ 0 1 ]
      /C0 [ 0.270588 0.192157 0.490196 ]
      /C1 [ 0.682353 0.537255 0.439216 ]
      /N 1
   >>
def
   << /ShadingType 2
      /ColorSpace /DeviceRGB
      /Coords [ 163.965607 149.016602 163.965607 67.437401 ]
      /Extend [ true true ]
      /Function CairoFunction
   >>
shfill
Q
q
132.996 96.302 m 139.48 112.505 134.746 130.247 130.812 137.438 c 123.332
 151.153 105.934 167.2 75.82 167.2 c 55.363 167.2 39.5 159.774 28.57 148.614
 c 35.102 146.337 43.203 144.911 53.074 145.423 c 75.008 146.595 97.82 144.427
 113.809 121.677 c 115.527 119.239 117.117 116.872 118.613 114.575 c 118.617
 114.575 l 118.703 114.466 118.785 114.352 118.871 114.239 c 118.961 114.106
 119.055 113.97 119.148 113.837 c 120.945 111.126 123.516 107.247 127.508
 99.79 c 128.855 97.282 128.926 94.028 127.363 90.809 c 125.895 87.77 122.832
 81.813 120.918 78.509 c 121.328 78.985 130.258 89.45 132.996 96.302 c h
132.996 96.302 m W n
[0.8 0 0 -0.8 0 203.199997] concat
/CairoFunction
<< /FunctionType 3
   /Domain [ 0 1 ]
   /Functions [
   << /FunctionType 2
      /Domain [ 0 1 ]
      /C0 [ 0 0.54902 0.819608 ]
      /C1 [ 0 0.529412 0.803922 ]
      /N 1
   >>
   << /FunctionType 2
      /Domain [ 0 1 ]
      /C0 [ 0 0.529412 0.803922 ]
      /C1 [ 0 0.482353 0.760784 ]
      /N 1
   >>
   << /FunctionType 2
      /Domain [ 0 1 ]
      /C0 [ 0 0.482353 0.760784 ]
      /C1 [ 0 0.407843 0.701961 ]
      /N 1
   >>
   << /FunctionType 2
      /Domain [ 0 1 ]
      /C0 [ 0 0.407843 0.701961 ]
      /C1 [ 0 0.305882 0.623529 ]
      /N 1
   >>
   << /FunctionType 2
      /Domain [ 0 1 ]
      /C0 [ 0 0.305882 0.623529 ]
      /C1 [ 0.12549 0.239216 0.584314 ]
      /N 1
   >>
   ]
   /Bounds [ 0.1207 0.3175 0.566 0.8536 ]
   /Encode [ 1 1 5 { pop 0 1 } for ]
>>
def
   << /ShadingType 2
      /ColorSpace /DeviceRGB
      /Coords [ 46.582401 49.3992 173.079498 122.432297 ]
      /Extend [ true true ]
      /Function CairoFunction
   >>
shfill
Q
q
157.742 64.661 m 152.34 68.262 149.207 76.063 149.48 83.63 c 149.781 91.825
 144.91 90.536 144.91 90.536 c 144.91 90.536 134.805 72.028 111.641 71.829
 c 111.621 71.829 l 107.398 71.864 100.059 72.134 96.973 72.165 c 82.164
 72.012 67.73 69.173 56.027 54.333 c 56.027 54.333 68.398 55.009 92.684 
47.528 c 137.777 33.637 160.074 59.727 157.742 64.661 c h
157.742 64.661 m W n
[0.8 0 0 -0.8 0 203.199997] concat
/CairoFunction
   << /FunctionType 2
      /Domain [ 0 1 ]
      /C0 [ 0.827451 0.47451 0.694118 ]
      /C1 [ 0.603922 0.145098 0.560784 ]
      /N 1
   >>
def
   << /ShadingType 2
      /ColorSpace /DeviceRGB
      /Coords [ 154.593307 209.990799 126.943703 162.937897 ]
      /Extend [ true true ]
      /Function CairoFunction
   >>
shfill
Q
q
144.91 90.544 m 144.91 90.544 134.898 72.22 111.973 71.845 c 111.848 71.829
 111.715 71.825 111.586 71.829 c 110.422 71.829 108.848 71.868 107.16 71.919
 c 103.359 72.005 99.125 72.141 96.973 72.165 c 96.164 72.157 95.363 72.137
 94.562 72.114 c 93.273 72.063 91.992 71.997 91.316 71.962 c 91.148 71.946
 90.992 71.93 90.828 71.919 c 96.531 65.786 106.504 60.196 119.965 60.063
 c 129.996 59.958 141.328 62.813 152.164 70.583 c 152.246 70.641 152.312
 70.7 152.395 70.759 c 150.359 74.497 149.316 79.114 149.48 83.63 c 149.781
 91.825 144.91 90.544 144.91 90.544 c h
144.91 90.544 m W n
[0.8 0 0 -0.8 0 203.199997] concat
/CairoFunction
<< /FunctionType 3
   /Domain [ 0 1 ]
   /Functions [
   << /FunctionType 2
      /Domain [ 0 1 ]
      /C0 [ 0.686275 0.247059 0.537255 ]
      /C1 [ 0.603922 0.14902 0.509804 ]
      /N 1
   >>
   << /FunctionType 2
      /Domain [ 0 1 ]
      /C0 [ 0.603922 0.14902 0.509804 ]
      /C1 [ 0.603922 0.14902 0.509804 ]
      /N 1
   >>
   ]
   /Bounds [ 0.8 ]
   /Encode [ 1 1 2 { pop 0 1 } for ]
>>
def
   << /ShadingType 2
      /ColorSpace /DeviceRGB
      /Coords [ 166.344696 181.979004 149.091507 152.618301 ]
      /Extend [ true true ]
      /Function CairoFunction
   >>
shfill
Q
0.00784314 0.239216 0.52549 rg
79.465 120.852 m 51.809 112.188 37.488 78.126 49.68 43.981 c 40.434 81.497
 57 115.22 95.391 117.61 c 95.555 117.63 95.715 117.645 95.883 117.661 c
 99.867 117.997 109.383 117.782 111.938 117.595 c 115.629 117.294 117.246
 116.696 119.152 113.841 c 119.195 113.766 119.238 113.7 119.285 113.626
 c 113.828 123.782 96.289 126.122 79.465 120.852 c h
79.465 120.852 m f
q
135.504 46.063 m 130.359 61.18 115.73 69.524 98.289 71.802 c 97.141 71.954
 96.074 72.04 95.109 72.134 c 80.957 71.743 67.242 68.548 56.027 54.333 
c 56.027 54.333 68.398 55.009 92.684 47.528 c 110.594 42.012 124.898 42.802
 135.504 46.063 c h
135.504 46.063 m W n
[0.8 0 0 -0.8 0 203.199997] concat
/CairoFunction
   << /FunctionType 2
      /Domain [ 0 1 ]
      /C0 [ 0.337255 0.25098 0.533333 ]
      /C1 [ 0.560784 0.32549 0.631373 ]
      /N 1
   >>
def
   << /ShadingType 2
      /ColorSpace /DeviceRGB
      /Coords [ 66.188698 181.728195 149.529205 181.728195 ]
      /Extend [ true true ]
      /Function CairoFunction
   >>
shfill
Q
0 0.207843 0.47451 rg
132.762 133.095 m 133.621 119.098 132.156 107.204 129.926 98.602 c 129.324
 96.27 128.73 94.411 128.117 92.79 c 128.117 92.79 128.113 92.77 128.113
 92.759 c 128.027 92.466 127.93 92.169 127.82 91.876 c 127.793 91.805 127.77
 91.755 127.746 91.692 c 127.648 91.434 127.535 91.173 127.414 90.919 c 
127.398 90.88 127.383 90.841 127.363 90.813 c 125.895 87.774 122.844 81.829
 120.93 78.52 c 121.414 79.091 130.266 89.485 132.996 96.302 c 138.414 109.848
 135.996 124.454 132.762 133.095 c h
132.762 133.095 m f
0.352941 0.180392 0.529412 rg
98.07 46.02 m 96.793 47.352 95.086 48.692 93.469 49.973 c 85.711 56.145
 80.031 62.294 76.895 69.294 c 69.395 66.802 62.066 62.305 55.777 54.333
 c 55.777 54.333 68.148 55.009 92.434 47.528 c 94.262 46.966 96.316 46.462
 98.07 46.02 c h
98.07 46.02 m f
0.345098 0.168627 0.427451 rg
111.898 71.829 m 111.621 71.829 l 110.352 71.845 108.793 71.876 107.156
 71.915 c 108.848 71.868 110.422 71.829 111.586 71.825 c 111.691 71.825 
111.797 71.829 111.898 71.829 c h
111.898 71.829 m f
90.832 71.919 m 90.992 71.93 91.152 71.946 91.316 71.954 c 91.012 71.938
 90.824 71.923 90.824 71.923 c h
90.832 71.919 m f
90.832 71.919 m 90.992 71.93 91.152 71.946 91.316 71.954 c 91.012 71.938
 90.824 71.923 90.824 71.923 c h
90.832 71.919 m f
95.145 72.13 m 95.125 72.134 95.102 72.134 95.082 72.134 c 94.906 72.13
 94.734 72.122 94.562 72.114 c 94.754 72.122 94.953 72.122 95.145 72.13 
c h
95.145 72.13 m f
95.145 72.13 m 95.125 72.134 95.102 72.134 95.082 72.134 c 94.906 72.13
 94.734 72.122 94.562 72.114 c 94.754 72.122 94.953 72.122 95.145 72.13 
c h
95.145 72.13 m f
0.439216 0.188235 0.552941 rg
95.145 72.13 m 94.953 72.122 94.754 72.122 94.562 72.114 c 93.477 72.083
 92.395 72.028 91.316 71.954 c 91.152 71.946 90.992 71.93 90.832 71.919 
c 96.535 65.786 106.508 60.196 119.965 60.063 c 121.91 60.036 123.914 60.13
 125.949 60.356 c 118.887 66.622 109.129 70.384 98.289 71.802 c 97.156 71.954
 96.102 72.04 95.145 72.13 c h
95.145 72.13 m f
Q Q
showpage
%%Trailer
end restore
%%EOF
