<?xml version="1.0" encoding="UTF-8" standalone="no"?>
<!-- Created with Inkscape (http://www.inkscape.org/) -->

<svg
   xmlns:dc="http://purl.org/dc/elements/1.1/"
   xmlns:cc="http://creativecommons.org/ns#"
   xmlns:rdf="http://www.w3.org/1999/02/22-rdf-syntax-ns#"
   xmlns:svg="http://www.w3.org/2000/svg"
   xmlns="http://www.w3.org/2000/svg"
   xmlns:sodipodi="http://sodipodi.sourceforge.net/DTD/sodipodi-0.dtd"
   xmlns:inkscape="http://www.inkscape.org/namespaces/inkscape"
   id="svg2"
   version="1.1"
   inkscape:version="0.91 r13725"
   xml:space="preserve"
   width="530.96326"
   height="190.18178"
   viewBox="0 0 530.96326 190.18178"
   sodipodi:docname="logo_HWN500.svg"><metadata
     id="metadata8"><rdf:RDF><cc:Work
         rdf:about=""><dc:format>image/svg+xml</dc:format><dc:type
           rdf:resource="http://purl.org/dc/dcmitype/StillImage" /><dc:title></dc:title></cc:Work></rdf:RDF></metadata><defs
     id="defs6" /><sodipodi:namedview
     pagecolor="#ffffff"
     bordercolor="#666666"
     borderopacity="1"
     objecttolerance="10"
     gridtolerance="10"
     guidetolerance="10"
     inkscape:pageopacity="0"
     inkscape:pageshadow="2"
     inkscape:window-width="640"
     inkscape:window-height="480"
     id="namedview4"
     showgrid="false"
     fit-margin-top="0"
     fit-margin-left="0"
     fit-margin-right="0"
     fit-margin-bottom="0"
     inkscape:zoom="0.6947466"
     inkscape:cx="265.19937"
     inkscape:cy="85.040534"
     inkscape:window-x="0"
     inkscape:window-y="0"
     inkscape:window-maximized="0"
     inkscape:current-layer="g10" /><g
     id="g10"
     inkscape:groupmode="layer"
     inkscape:label="ink_ext_XXXXXX"
     transform="matrix(1.25,0,0,-1.25,-53.700625,264.59125)"><g
       id="g12"
       transform="scale(0.1,0.1)"><path
         d="m 526.926,743.285 -9.242,0 0,-100.07 -56.621,100.07 -19.856,0 0,-131.137 9.633,0 0,100.075 55.836,-100.075 20.25,0 0,131.137 z m 108.031,0 -75.301,0 0,-131.137 82.574,0 0,9.637 -56.031,0 0,58.192 41.285,0 0,9.242 -41.285,0 0,44.039 48.758,0 0,10.027 z m 111.219,0 -90.832,0 0,-9.832 31.652,0 0,-121.305 27.723,0 0,121.305 31.457,0 0,9.832 z m 107.972,0 -88.078,0 0,-10.422 58.391,0 -65.273,-110.488 0,-10.227 91.226,0 0,10.227 -61.93,0 65.664,111.277 0,9.633 z m 163.362,0 -10.62,0 -24.378,-96.336 -21.824,96.336 -16.711,0 -22.805,-95.746 -23.004,95.746 -26.934,0 32.637,-131.137 18.481,0 21.625,89.063 20.644,-89.063 18.285,0 34.604,131.137 z m 97.51,0 -75.3,0 0,-131.137 82.58,0 0,9.637 -56.03,0 0,58.192 41.28,0 0,9.242 -41.28,0 0,44.039 48.75,0 0,10.027 z m 30.44,-131.137 26.54,0 0,62.719 11.8,0 c 36.96,0 17.89,-41.879 28.31,-62.719 l 29.09,0 c -12.58,15.926 -0.19,42.27 -14.54,56.625 -5.31,5.11 -12.59,7.079 -19.47,9.043 6.49,1.18 13.17,2.75 18.48,6.879 7.28,5.899 13.17,15.141 13.17,24.774 0,25.558 -27.32,33.816 -48.16,33.816 l -45.22,0 0,-131.137 z m 26.54,70.977 0,50.918 12.19,0 c 16.32,0 28.11,-7.664 28.11,-25.359 0,-17.891 -11.2,-25.559 -28.11,-25.559 l -12.19,0 z m 185.28,60.16 -12.78,0 -50.34,-61.144 0,61.144 -26.53,0 0,-131.137 26.53,0 0,55.051 8.66,10.028 35.98,-65.079 29.68,0 -48.17,86.903 36.97,44.234 z m 1406.22,-64.488 41.68,0 0,-66.649 26.34,0 0,131.137 -26.34,0 0,-54.851 -41.68,0 0,54.851 -26.35,0 0,-131.137 26.35,0 0,66.649 z m 95.88,-1.18 c 0,34.606 11.01,68.028 51.71,68.028 40.5,0 51.7,-33.622 51.7,-68.028 0,-12.777 -1.57,-25.558 -5.7,-37.551 -6.48,-19.66 -26.14,-30.277 -46,-30.277 -40.5,0 -51.71,33.227 -51.71,67.828 z m 28.12,0 c 0,-11.402 0,-23 1.77,-34.402 1.96,-12.977 6.68,-25.758 21.82,-25.758 18.09,0 22.02,20.055 22.8,34.406 0.59,8.453 0.79,17.106 0.79,25.754 0,11.406 0,23.203 -1.77,34.406 -1.96,12.977 -6.68,25.954 -21.82,25.954 -18.09,0 -22.02,-20.055 -22.81,-34.407 -0.39,-8.648 -0.78,-17.3 -0.78,-25.953 z m -8.46,88.473 c 0,6.883 5.9,10.226 12,10.226 6.28,0 11.99,-3.539 11.99,-10.226 0,-6.684 -5.9,-10.223 -11.99,-10.223 -6.3,0 -12,3.539 -12,10.223 z m 40.3,0 c 0,6.883 5.71,10.226 12,10.226 6.09,0 11.99,-3.539 11.99,-10.226 0,-6.684 -5.9,-10.223 -11.99,-10.223 -6.29,0 -12,3.539 -12,10.223 z m 97.77,-87.293 41.68,0 0,-66.649 26.35,0 0,131.137 -26.35,0 0,-54.851 -41.68,0 0,54.851 -26.34,0 0,-131.137 26.34,0 0,66.649 z m 176.46,64.488 -75.3,0 0,-131.137 82.57,0 0,9.637 -56.03,0 0,58.192 41.28,0 0,9.242 -41.28,0 0,44.039 48.76,0 0,10.027 z m 115.77,0 -9.23,0 0,-100.07 -56.63,100.07 -19.85,0 0,-131.137 9.63,0 0,100.075 55.83,-100.075 20.25,0 0,131.137 z m 168.2,0 -10.62,0 -24.38,-96.336 -21.82,96.336 -16.71,0 -22.81,-95.746 -23,95.746 -26.94,0 32.64,-131.137 18.48,0 21.63,89.063 20.64,-89.063 18.28,0 34.61,131.137 z m 48.64,0 -26.35,0 0,-131.137 26.35,0 0,131.137 z m 118.39,0 -9.24,0 0,-100.07 -56.62,100.07 -19.86,0 0,-131.137 9.63,0 0,100.075 55.84,-100.075 20.25,0 0,131.137 z m 32.73,-131.137 41.09,0 c 41.29,0 58.2,27.329 58.2,65.469 0,37.16 -16.52,65.668 -57.02,65.668 l -42.27,0 0,-131.137 z m 26.15,8.653 0,113.637 13.17,0 c 31.85,0 32.05,-33.422 32.05,-56.821 0,-23.199 -0.59,-56.816 -32.05,-56.816 l -13.17,0 z m 138.82,50.922 -41.88,0 0,-18.09 41.88,0 0,18.09 z m 112.61,71.562 -9.24,0 0,-100.07 -56.62,100.07 -19.86,0 0,-131.137 9.64,0 0,100.075 55.83,-100.075 20.25,0 0,131.137 z m 122.42,0 -9.23,0 0,-95.351 c 0,-20.055 -8.85,-28.118 -29.1,-28.118 -7.28,0 -16.12,2.559 -21.04,8.454 -4.72,5.703 -4.72,13.96 -4.72,21.234 l 0,93.781 -26.34,0 0,-93.191 c 0,-10.223 1.18,-22.215 9.43,-29.293 10.43,-8.848 25.37,-10.617 38.54,-10.617 11.21,0 26.15,3.343 34.21,11.796 7.08,7.469 8.25,18.286 8.25,28.114 l 0,93.191 z m 111.79,0 -90.83,0 0,-9.832 31.65,0 0,-121.305 27.73,0 0,121.305 31.45,0 0,9.832 z m 107.98,0 -88.08,0 0,-10.422 58.39,0 -65.27,-110.488 0,-10.227 91.22,0 0,10.227 -61.93,0 65.67,111.277 0,9.633 z m 112.83,0 -9.24,0 0,-95.351 c 0,-20.055 -8.85,-28.118 -29.1,-28.118 -7.27,0 -16.12,2.559 -21.04,8.454 -4.72,5.703 -4.72,13.96 -4.72,21.234 l 0,93.781 -26.34,0 0,-93.191 c 0,-10.223 1.18,-22.215 9.44,-29.293 10.42,-8.848 25.36,-10.617 38.53,-10.617 11.21,0 26.15,3.343 34.21,11.796 7.08,7.469 8.26,18.286 8.26,28.114 l 0,93.191 z m 117.41,0 -9.24,0 0,-100.07 -56.62,100.07 -19.86,0 0,-131.137 9.63,0 0,100.075 55.84,-100.075 20.25,0 0,131.137 z m 77.26,-62.719 0,-9.828 27.52,0 0,-35.781 c 0,-11.602 -10.22,-17.301 -20.44,-16.91 -15.14,0.59 -24.77,14.156 -26.74,28.312 -1.37,10.418 -1.96,20.84 -1.96,31.258 0,22.613 0.98,59.18 32.04,59.18 20.05,0 25.17,-17.891 25.17,-34.211 l 12.77,6.293 c -4.13,23.199 -15.33,36.57 -40.3,36.57 -39.12,0 -58.19,-32.441 -58.19,-68.222 0,-36.766 16.31,-67.239 56.62,-67.239 14.94,0 22.41,2.555 34.01,11.797 l 3.54,-9.437 8.06,0 0,68.218 -52.1,0"
         style="fill:#1b54a2;fill-opacity:1;fill-rule:nonzero;stroke:none"
         id="path14"
         inkscape:connector-curvature="0" /><path
         d="m 3783.82,1329.11 c -49.75,-65.14 -267.42,-414.001 -464,-413.954 -204.34,0.051 -361.6,182.694 -341.76,326.394 21.99,159.25 213.97,343.58 426.07,343.53 191.4,-0.04 310.12,-197.63 343.36,-275.32 l 29.46,40.63 c -35.38,118.47 -174.89,300.65 -363.71,300.69 -251.64,0.06 -434.11,-211.85 -460.93,-406.05 -24.13,-174.78 99.73,-384.339 360.98,-384.405 209.51,-0.051 391.61,155.135 492.35,285.225 98.68,133.97 264.97,405.61 482.24,405.56 201.75,-0.05 369.62,-148.37 348.71,-299.84 C 4617.28,1111.74 4384.01,919.918 4205.54,919.961 4040,920 3889.34,1050.95 3846.8,1174.01 l -31.23,-47.02 c 73.81,-139.845 146.23,-267.533 381.61,-267.592 258.65,-0.062 443.46,219.742 466.79,388.692 25.74,186.43 -106.77,399.24 -362.84,399.3 -227.62,0.06 -410.53,-174.89 -517.31,-318.28"
         style="fill:#1b54a2;fill-opacity:1;fill-rule:nonzero;stroke:none"
         id="path16"
         inkscape:connector-curvature="0" /><g
         id="g18"
         transform="matrix(-0.914226,0,-0.171548,0.914226,0,0)"><path
           d="m -4411.62,1453.81 c 67.79,-71.25 377.48,-452.84 592.49,-452.79 223.5,0.05 358.03,199.83 306.84,357.02 -56.74,174.18 -304.56,375.81 -536.55,375.76 -209.36,-0.05 -298.65,-216.18 -319.07,-301.16 l -40.56,44.45 c 14.37,129.58 129.58,328.85 336.12,328.89 275.23,0.07 518.32,-231.72 587.51,-444.14 62.26,-191.17 -30.21,-420.397 -315.95,-420.47 -229.16,-0.055 -460.19,169.69 -597.08,311.98 -135.44,146.55 -373.08,443.68 -610.73,443.62 -220.67,-0.06 -373.85,-162.3 -319.88,-327.98 49.81,-152.94 344.34,-362.76 539.55,-362.72 181.07,0.05 318.99,143.28 340.25,277.89 l 43.82,-51.44 c -52.04,-152.96 -105.05,-292.627 -362.49,-292.691 -282.91,-0.069 -530.18,240.351 -590.37,425.151 -66.42,203.92 34.85,436.7 314.92,436.77 248.97,0.07 484.95,-191.3 631.18,-348.14 z"
           style="fill:none;stroke:#1b54a2;stroke-width:21.87639999;stroke-linecap:butt;stroke-linejoin:miter;stroke-miterlimit:10;stroke-dasharray:none;stroke-opacity:1"
           id="path20"
           inkscape:connector-curvature="0" /></g><path
         d="m 2548.54,2116.73 c -55.1,-206.66 -110.23,-413.32 -167.27,-619.99 71.56,32.72 163.41,69.57 234.86,69.57 179.64,0 266.23,-130.95 221.3,-319.22 -65.45,-282.379 -316.82,-444.223 -644.22,-554.5 -217.87,-73.387 -618.37,-58.824 -618.37,-58.824 l -9.71,-31.086 c 0,0 399.3,-29.246 623.12,28.511 413.05,106.579 711.56,286.465 799.95,656.829 50.29,210.75 -63.7,380.61 -264.57,380.61 -71.47,0 -144.94,-16.4 -218.88,-43 l 97.54,360.16 515.73,0 48.64,130.94 -618.12,0"
         style="fill:#1b54a2;fill-opacity:1;fill-rule:nonzero;stroke:none"
         id="path22"
         inkscape:connector-curvature="0" /><path
         d="m 543.98,1318.75 223.274,0 0,-357.031 114.375,0 0,702.471 -114.375,0 0,-293.84 -223.274,0 0,293.84 -114.375,0 0,-702.471 114.375,0 0,357.031"
         style="fill:#1b54a2;fill-opacity:1;fill-rule:nonzero;stroke:none"
         id="path24"
         inkscape:connector-curvature="0" /><path
         d="m 1701,1664.19 -56.87,0 -130.6,-516.06 -116.9,516.06 -69.46,0 -122.17,-512.9 -123.22,512.9 -124.221,0 174.831,-702.471 78.93,0 115.85,477.091 110.58,-477.091 77.89,0 185.36,702.471"
         style="fill:#1b54a2;fill-opacity:1;fill-rule:nonzero;stroke:none"
         id="path26"
         inkscape:connector-curvature="0" /><path
         d="m 2289.24,1664.19 -49.5,0 -143.64,-536.07 -159.67,536.07 -86.31,0 -188.23,-702.471 51.61,0 143.64,536.071 155.46,-536.071 88.42,0 188.22,702.471"
         style="fill:#1b54a2;fill-opacity:1;fill-rule:nonzero;stroke:none"
         id="path28"
         inkscape:connector-curvature="0" /></g></g></svg>